1447
J. Chem. Phys. 151, 174104 (2019); https://doi.org/10.1063/1.5121396
C     28.07300000     28.07300000     26.76900000
C     28.07300000     29.26500000     27.45400000
C     28.07300000     29.26700000     28.80400000
C     28.07300000     28.07300000     29.51800000
C     28.07300000     26.87800000     28.80400000
C     28.07300000     26.88000000     27.45400000
H     28.07300000     30.20100000     26.90100000
H     28.07300000     30.20900000     29.34500000
H     28.07300000     25.93600000     29.34500000
H     28.07300000     25.94400000     26.90100000
N     28.07300000     28.07200000     30.83600000
H     28.07300000     27.21500000     31.37700000
H     28.07300000     28.93000000     31.37700000
N     28.07300000     28.07300000     25.35000000
O     28.07300000     29.13700000     24.76800000
O     28.07300000     27.00800000     24.76800000
O     20.48800000     32.11800000     36.72800000
H     19.60500000     32.22400000     37.08400000
H     20.49000000     31.24000000     36.34800000
O     31.11000000     39.91200000     32.04500000
H     31.33500000     39.07300000     32.44800000
H     30.87300000     39.68900000     31.14500000
O     39.71900000     26.50500000     28.95100000
H     40.06800000     26.90200000     29.74900000
H     39.75000000     27.20700000     28.30100000
O     38.33400000     29.21900000     34.60000000
H     38.58800000     30.12800000     34.76300000
H     38.49500000     29.08800000     33.66600000
O     40.79700000     26.60300000     20.30900000
H     41.56200000     26.05100000     20.14300000
H     40.55300000     26.94100000     19.44800000
O     32.52600000     32.95200000     18.61300000
H     33.06700000     32.96900000     19.40300000
H     32.83400000     32.18700000     18.12700000
O     31.16300000     27.80700000     29.28300000
H     31.05300000     27.68800000     28.34000000
H     30.93800000     28.72500000     29.43700000
O     18.37800000     28.90800000     31.19200000
H     18.44500000     28.35400000     30.41400000
H     19.28300000     29.03300000     31.47600000
O     33.88300000     37.02200000     32.70000000
H     34.31300000     36.30300000     33.16100000
H     32.99600000     37.04200000     33.06100000
O     15.31000000     30.09100000     28.21300000
H     14.43200000     30.46200000     28.29500000
H     15.71800000     30.24800000     29.06400000
O     40.47600000     30.26700000     24.22700000
H     40.27600000     29.43900000     23.79000000
H     39.71800000     30.43000000     24.78900000
O     21.27000000     23.47500000     35.97100000
H     20.84800000     24.24200000     36.35700000
H     20.61000000     23.10900000     35.38200000
O     28.24900000     37.88000000     20.32600000
H     27.73500000     38.61200000     19.98500000
H     28.16500000     37.94900000     21.27700000
O     27.85000000     37.39800000     33.82100000
H     27.05000000     37.91800000     33.73800000
H     27.90600000     37.19000000     34.75400000
O     22.72200000     15.31900000     21.64100000
H     23.52800000     14.86800000     21.89500000
H     23.02100000     16.11900000     21.20900000
O     20.01300000     19.21200000     20.11400000
H     20.04400000     20.01100000     19.58800000
H     20.58500000     19.39400000     20.86000000
O     26.24900000     32.63100000     32.85700000
H     25.45200000     32.64700000     33.38700000
H     26.92600000     32.98900000     33.43100000
O     19.00800000     25.68100000     24.52700000
H     18.82800000     26.42400000     25.10300000
H     18.16600000     25.48400000     24.11700000
O     28.94000000     20.36200000     41.23000000
H     29.59200000     19.90600000     40.69800000
H     28.32900000     20.73400000     40.59400000
O     19.95500000     23.63300000     32.00300000
H     20.00000000     23.69000000     31.04900000
H     19.30000000     22.95600000     32.17300000
O     26.71200000     30.00200000     16.77200000
H     26.77800000     30.75300000     16.18300000
H     27.22300000     29.31500000     16.34300000
O     19.41400000     23.10900000     29.14500000
H     18.75600000     23.57900000     28.63400000
H     19.24400000     22.18500000     28.96300000
O     27.34800000     21.18400000     19.03000000
H     27.41500000     20.28100000     19.34300000
H     26.56300000     21.52800000     19.45600000
O     23.26600000     32.29500000     20.70800000
H     23.80300000     31.57100000     21.03100000
H     23.61500000     33.06900000     21.15100000
O     25.28200000     28.01600000     39.29500000
H     24.38400000     28.34800000     39.32500000
H     25.50800000     27.85300000     40.21100000
O     16.17700000     30.79300000     30.73900000
H     17.07500000     30.50300000     30.90100000
H     16.24500000     31.74200000     30.64100000
O     28.65600000     17.78400000     25.06200000
H     27.70500000     17.86700000     25.13400000
H     28.81800000     17.68500000     24.12400000
O     32.77000000     32.61700000     38.03400000
H     32.90800000     32.87800000     37.12400000
H     33.45400000     33.07600000     38.52200000
O     38.94800000     32.45900000     29.56200000
H     38.24400000     31.86500000     29.82200000
H     39.67900000     31.88100000     29.34100000
O     41.18900000     30.81800000     28.59100000
H     41.71400000     30.63100000     27.81300000
H     41.74400000     30.55300000     29.32500000
O     33.81700000     29.09500000     15.47700000
H     33.10200000     28.46400000     15.39500000
H     33.49000000     29.75000000     16.09300000
O     25.03500000     36.90600000     22.66000000
H     25.40500000     37.28600000     21.86400000
H     24.46000000     36.20700000     22.34700000
O     15.46100000     35.17800000     24.22800000
H     15.71500000     36.10100000     24.23000000
H     16.21500000     34.72000000     24.59800000
O     37.12000000     30.63000000     37.32900000
H     36.48900000     30.71700000     36.61500000
H     36.72900000     29.98300000     37.91700000
O     13.48600000     23.83300000     26.61900000
H     13.83000000     24.09000000     27.47400000
H     14.04100000     23.10400000     26.34600000
O     37.57900000     26.04400000     17.30500000
H     36.93200000     26.10800000     18.00700000
H     37.35800000     26.75900000     16.70900000
O     37.32500000     30.10100000     20.66900000
H     37.95600000     29.59900000     21.18500000
H     36.61700000     30.29900000     21.28200000
O     31.83800000     25.59900000     32.78900000
H     31.58300000     25.24500000     31.93700000
H     31.89800000     26.54400000     32.64700000
O     22.78000000     26.02000000     15.12400000
H     22.99000000     25.08700000     15.12400000
H     21.90100000     26.06900000     14.74700000
O     26.71300000     17.77200000     21.94900000
H     27.27800000     16.99900000     21.96300000
H     27.02700000     18.28500000     21.20400000
O     33.70300000     30.27800000     29.27800000
H     32.76300000     30.35500000     29.44000000
H     33.76700000     29.77100000     28.46900000
O     25.57700000     31.78200000     26.10300000
H     25.67900000     30.99600000     25.56600000
H     24.64200000     31.81300000     26.30700000
O     22.73500000     22.46200000     23.14700000
H     23.67300000     22.42800000     23.33700000
H     22.34600000     22.85300000     23.92900000
O     22.14100000     33.84800000     35.23700000
H     21.80800000     34.20500000     34.41500000
H     21.44000000     33.28000000     35.55500000
O     18.98200000     38.89700000     25.51100000
H     18.75900000     39.57700000     24.87500000
H     19.93800000     38.87300000     25.51100000
O     29.39000000     36.35300000     37.15800000
H     29.65900000     35.44100000     37.05200000
H     30.06100000     36.85700000     36.69900000
O     26.35200000     17.16200000     30.19800000
H     26.06000000     16.57700000     29.49900000
H     25.58700000     17.26100000     30.76400000
O     38.38000000     33.93500000     26.86800000
H     39.26100000     34.03700000     26.51000000
H     38.50500000     33.43900000     27.67700000
O     35.98700000     34.11600000     18.90400000
H     35.26500000     34.05700000     19.52900000
H     35.68600000     33.62100000     18.14200000
O     13.74000000     27.43400000     23.13200000
H     14.63400000     27.70100000     22.92100000
H     13.80500000     27.04600000     24.00500000
O     39.46800000     28.70400000     27.42400000
H     38.73200000     29.09400000     26.95300000
H     39.94400000     29.45100000     27.78700000
O     32.24600000     33.09400000     27.81600000
H     31.51400000     32.62000000     27.42200000
H     32.41100000     33.82100000     27.21600000
O     37.53900000     32.63900000     39.20000000
H     37.81800000     32.17700000     38.40900000
H     37.72400000     33.56000000     39.01800000
O     26.55700000     35.64400000     28.68200000
H     26.62200000     35.99600000     29.56900000
H     27.16800000     34.90700000     28.67000000
O     30.18800000     14.15200000     23.02700000
H     31.12000000     14.36700000     23.04100000
H     30.12900000     13.37200000     22.47600000
O     18.53000000     28.10700000     26.14800000
H     18.03300000     28.92500000     26.16500000
H     19.39800000     28.34600000     26.47200000
O     26.45100000     40.90000000     23.29100000
H     26.84600000     40.02900000     23.26600000
H     25.77700000     40.83900000     23.96900000
O     21.41700000     20.73700000     18.15500000
H     22.29900000     20.76300000     17.78400000
H     21.18900000     21.65500000     18.29800000
O     22.87400000     15.51400000     30.46800000
H     23.08800000     16.13300000     29.77000000
H     23.70200000     15.07500000     30.66100000
O     18.90300000     25.01800000     16.71600000
H     19.54300000     25.72600000     16.64200000
H     19.03600000     24.66500000     17.59600000
O     29.46300000     17.35100000     27.75400000
H     29.18200000     18.22700000     28.01900000
H     29.06800000     17.22200000     26.89200000
O     14.93900000     31.16400000     33.39500000
H     14.22700000     31.51100000     32.85900000
H     15.63000000     30.94900000     32.76700000
O     23.79500000     24.43000000     27.08000000
H     24.53400000     24.05400000     26.60100000
H     23.02100000     24.09900000     26.62400000
O     18.22100000     37.80600000     30.47200000
H     18.59600000     38.68600000     30.51000000
H     18.75900000     37.34400000     29.82900000
O     34.60200000     30.71700000     36.06200000
H     33.79100000     30.93800000     35.60600000
H     34.47700000     29.81300000     36.35100000
O     24.90900000     38.47800000     34.42900000
H     24.85100000     38.18300000     33.52100000
H     24.01900000     38.38800000     34.76900000
O     33.41900000     18.95800000     38.36800000
H     33.69900000     19.86700000     38.47200000
H     33.92600000     18.63400000     37.62300000
O     37.73400000     33.20800000     33.97700000
H     38.14000000     33.70100000     33.26400000
H     38.44000000     32.66400000     34.32600000
O     41.38700000     27.82000000     31.31700000
H     41.54200000     28.04900000     32.23300000
H     42.23900000     27.52400000     30.99600000
O     17.33700000     22.41800000     22.02600000
H     17.03400000     22.45100000     22.93300000
H     17.55500000     23.32500000     21.81200000
O     37.02200000     29.85000000     30.11100000
H     36.12600000     29.99600000     29.80900000
H     36.94700000     29.78800000     31.06300000
O     19.15000000     27.03000000     39.70900000
H     18.27600000     27.41200000     39.79500000
H     19.68200000     27.50000000     40.35100000
O     16.14900000     33.63200000     30.15500000
H     16.19500000     34.26800000     30.86800000
H     15.59100000     34.04900000     29.49800000
O     28.75000000     41.99700000     24.28900000
H     28.79100000     42.84500000     23.84700000
H     27.96500000     41.57900000     23.93500000
O     20.66900000     31.64900000     24.78200000
H     20.78900000     31.21900000     25.62900000
H     19.85700000     31.27700000     24.43600000
O     22.94300000     19.21200000     29.28300000
H     22.49800000     19.80500000     29.88800000
H     23.66700000     19.72900000     28.92900000
O     35.84700000     37.86100000     30.76800000
H     35.52800000     37.58600000     31.62800000
H     35.54900000     37.17400000     30.17200000
O     22.45400000     37.37500000     35.53800000
H     21.89500000     37.79000000     36.19600000
H     21.87900000     36.75200000     35.09500000
O     34.56000000     20.76400000     17.33900000
H     35.37600000     20.44900000     17.72900000
H     34.47400000     20.26500000     16.52600000
O     24.72700000     42.06000000     25.22600000
H     23.79800000     42.11300000     25.00400000
H     24.76000000     42.24100000     26.16500000
O     26.89600000     25.23600000     16.58300000
H     27.24800000     24.62100000     17.22700000
H     26.41100000     25.87600000     17.10300000
O     41.75600000     24.11200000     30.64000000
H     42.54300000     24.64300000     30.52600000
H     42.08300000     23.25000000     30.89700000
O     33.66300000     27.67400000     18.05400000
H     33.98300000     27.74600000     17.15500000
H     32.94000000     27.04900000     18.00100000
O     33.75500000     26.65600000     34.63900000
H     34.55600000     26.87300000     34.16100000
H     33.24900000     26.12100000     34.02800000
O     30.46500000     22.70800000     40.90900000
H     29.96300000     21.90200000     40.79100000
H     29.85100000     23.31500000     41.32200000
O     29.51000000     17.37700000     17.62900000
H     30.42300000     17.09500000     17.69000000
H     29.00700000     16.56200000     17.62500000
O     17.31800000     26.55900000     34.43900000
H     16.95800000     25.90000000     35.03200000
H     16.73400000     26.54300000     33.68000000
O     35.29300000     37.23800000     19.62500000
H     35.56500000     36.32100000     19.58300000
H     35.04000000     37.45500000     18.72800000
O     21.75900000     30.42500000     16.71100000
H     21.93300000     29.80300000     16.00500000
H     22.62600000     30.68200000     17.02400000
O     30.41200000     32.96700000     32.62800000
H     29.47600000     32.90600000     32.43800000
H     30.81300000     33.19500000     31.78900000
O     17.90600000     34.72700000     25.47200000
H     18.50500000     35.40800000     25.77900000
H     18.11700000     34.62400000     24.54400000
O     28.15800000     32.81600000     25.88000000
H     27.22100000     32.70600000     25.72300000
H     28.32700000     33.73800000     25.68600000
O     28.83900000     30.11300000     34.20600000
H     28.74300000     29.17200000     34.06200000
H     28.54400000     30.25000000     35.10600000
O     35.25800000     39.33000000     35.69200000
H     35.86200000     38.62000000     35.47400000
H     34.42000000     38.89300000     35.84700000
O     32.30400000     28.85100000     35.39400000
H     33.00500000     28.20800000     35.28900000
H     31.66200000     28.41600000     35.95600000
O     31.05200000     24.35500000     27.45000000
H     31.82300000     23.98600000     27.01900000
H     31.04600000     25.27400000     27.18500000
O     34.45300000     29.22000000     20.05800000
H     35.36900000     28.94500000     20.01600000
H     34.04100000     28.79800000     19.30300000
O     19.82900000     26.41000000     20.74100000
H     20.76900000     26.39500000     20.92000000
H     19.58100000     27.33000000     20.83700000
O     29.81900000     17.62300000     33.58700000
H     30.22400000     16.78700000     33.35600000
H     29.40800000     17.92300000     32.77600000
O     25.53600000     41.04000000     33.80300000
H     25.33500000     40.10500000     33.85200000
H     25.97900000     41.23400000     34.62900000
O     18.48100000     30.27900000     34.41500000
H     18.13400000     29.48900000     34.00000000
H     19.25100000     29.97800000     34.89700000
O     30.71300000     22.48000000     21.05400000
H     30.07400000     22.28300000     20.36900000
H     31.56300000     22.32600000     20.64100000
O     36.95100000     16.17700000     22.74600000
H     36.59800000     16.80800000     23.37300000
H     37.83800000     16.49000000     22.56400000
O     21.05300000     26.76400000     17.47900000
H     21.54600000     25.98400000     17.73300000
H     21.11500000     27.34500000     18.23800000
O     33.09300000     36.90200000     30.04900000
H     33.38900000     36.94600000     30.95800000
H     32.65000000     37.73800000     29.90000000
O     19.98600000     36.12900000     28.70100000
H     20.77300000     35.79700000     29.13200000
H     20.02700000     35.76900000     27.81500000
O     27.76700000     39.54000000     27.27700000
H     28.47800000     39.51300000     26.63800000
H     27.86900000     40.38600000     27.71500000
O     29.80600000     17.41000000     22.51900000
H     29.58000000     16.54400000     22.18100000
H     29.71300000     17.99400000     21.76600000
O     27.35100000     36.34500000     31.19100000
H     27.78200000     35.49700000     31.08900000
H     27.72400000     36.70900000     31.99400000
O     30.11700000     22.56300000     14.99700000
H     29.39300000     22.02400000     14.67900000
H     30.84500000     22.35600000     14.41000000
O     26.00700000     35.83400000     36.25500000
H     25.34000000     36.41700000     35.89100000
H     26.28400000     36.26400000     37.06500000
O     41.07900000     24.36200000     24.99400000
H     40.77200000     23.46200000     25.10300000
H     41.31300000     24.64500000     25.87800000
O     23.31300000     32.21300000     23.81100000
H     23.65300000     31.32100000     23.87800000
H     22.44100000     32.16800000     24.20400000
O     38.78900000     24.82100000     19.62300000
H     38.80200000     24.96200000     18.67700000
H     39.44800000     25.42500000     19.96400000
O     27.76900000     33.59300000     38.86300000
H     28.18900000     33.98400000     39.62900000
H     28.48600000     33.44600000     38.24600000
O     16.89800000     31.92500000     23.16100000
H     17.68000000     32.27700000     22.73600000
H     16.19600000     32.52200000     22.90100000
O     33.83100000     16.69600000     29.67100000
H     33.75100000     15.74400000     29.73200000
H     34.75200000     16.87200000     29.86400000
O     20.49900000     34.65600000     23.34600000
H     20.19800000     35.03100000     22.51800000
H     20.25700000     33.73100000     23.29200000
O     22.14400000     14.84900000     33.27100000
H     21.80500000     15.29900000     32.49700000
H     22.58100000     14.07100000     32.92400000
O     32.17500000     31.12000000     21.71100000
H     31.48600000     31.22000000     22.36800000
H     31.70700000     31.08900000     20.87600000
O     25.50300000     21.69500000     37.84400000
H     24.77700000     21.83800000     37.23700000
H     25.80300000     20.80600000     37.65300000
O     36.10600000     34.95400000     25.90300000
H     36.91800000     34.56500000     26.22700000
H     36.27100000     35.89700000     25.91300000
O     27.96700000     29.09600000     36.84600000
H     27.47500000     28.39000000     36.42800000
H     27.37700000     29.84900000     36.81800000
O     27.38400000     32.00900000     18.75500000
H     26.91300000     31.30600000     18.31000000
H     28.11800000     31.57100000     19.18700000
O     29.39300000     41.16900000     33.80600000
H     28.78800000     41.51800000     33.15100000
H     30.10900000     40.79100000     33.29400000
O     16.05500000     21.86700000     24.40100000
H     15.28200000     21.40000000     24.08300000
H     16.23000000     21.48300000     25.26000000
O     25.77400000     14.34200000     30.68200000
H     26.38700000     14.58000000     29.98600000
H     25.53400000     13.43500000     30.49000000
O     28.33700000     22.19700000     22.76600000
H     28.63700000     22.21300000     23.67500000
H     29.07200000     21.82800000     22.27700000
O     24.65500000     28.82000000     29.85900000
H     23.87500000     28.71600000     29.31400000
H     24.34900000     29.30800000     30.62400000
O     33.39700000     21.36300000     21.26500000
H     33.14100000     21.40400000     20.34400000
H     34.17200000     20.80100000     21.27400000
O     18.93300000     23.30600000     26.19000000
H     18.17900000     22.79800000     25.89000000
H     18.95200000     24.07000000     25.61400000
O     35.19600000     25.30500000     18.85400000
H     34.66600000     26.05300000     18.58100000
H     34.85400000     24.57000000     18.34500000
O     23.17100000     35.85400000     16.45200000
H     22.21800000     35.84800000     16.36500000
H     23.37300000     35.05300000     16.93600000
O     25.19000000     20.70700000     28.47000000
H     25.27200000     21.56800000     28.06000000
H     25.57900000     20.81600000     29.33700000
O     32.18600000     21.93400000     18.74300000
H     32.80400000     21.49800000     18.15600000
H     31.78000000     22.61100000     18.20100000
O     24.36500000     20.87800000     20.09100000
H     24.05700000     20.08600000     19.64900000
H     24.35400000     20.65300000     21.02100000
O     31.89700000     26.86900000     26.57200000
H     32.63700000     27.46700000     26.68300000
H     31.86800000     26.69500000     25.63100000
O     26.70600000     38.80100000     37.52600000
H     27.49700000     39.12500000     37.09600000
H     26.00100000     39.34100000     37.17100000
O     33.20800000     34.46000000     16.64500000
H     32.75900000     33.93800000     15.98000000
H     32.90900000     34.09800000     17.47800000
O     31.92500000     27.48800000     14.73100000
H     31.73600000     26.71800000     15.26700000
H     31.42600000     27.34900000     13.92600000
O     24.69300000     21.70900000     34.17200000
H     24.37600000     21.34500000     34.99900000
H     24.08100000     22.41700000     33.97100000
O     32.62200000     14.00300000     25.05000000
H     33.01300000     13.90900000     24.18100000
H     32.24200000     14.88100000     25.04900000
O     29.95100000     39.86600000     25.64900000
H     29.70700000     40.69400000     25.23500000
H     30.40000000     39.37700000     24.96000000
O     39.15400000     23.96400000     30.24500000
H     39.11800000     24.80100000     29.78300000
H     40.08900000     23.78000000     30.33500000
O     21.03000000     39.64600000     27.76800000
H     20.22000000     39.15900000     27.92000000
H     21.42000000     39.74100000     28.63700000
O     21.77700000     22.96900000     25.62400000
H     20.89700000     23.06500000     25.99000000
H     21.99000000     22.04500000     25.75100000
O     35.14500000     32.99700000     28.95700000
H     34.60000000     32.60700000     29.64000000
H     34.90700000     33.92400000     28.96000000
O     25.48600000     24.19100000     14.63700000
H     25.94300000     24.52200000     15.41100000
H     24.72300000     23.73100000     14.98800000
O     35.26200000     35.90500000     28.59600000
H     34.43700000     36.20000000     28.98300000
H     35.06200000     35.78500000     27.66800000
O     28.34500000     27.49300000     33.95300000
H     28.33800000     26.92100000     33.18500000
H     27.72900000     27.08500000     34.56200000
O     29.59100000     24.47200000     16.98000000
H     29.52600000     23.80300000     16.29900000
H     29.01100000     24.16400000     17.67700000
O     40.25400000     27.79600000     35.81800000
H     39.58800000     28.20500000     35.26600000
H     39.80200000     27.06300000     36.23600000
O     21.23500000     20.35900000     22.36300000
H     21.45700000     19.82400000     23.12500000
H     21.53600000     21.23900000     22.59100000
O     32.19400000     18.34400000     23.68500000
H     31.33100000     18.00000000     23.45000000
H     32.49600000     17.77100000     24.39000000
O     25.06600000     38.56700000     20.26700000
H     24.17400000     38.76300000     19.97900000
H     25.62500000     39.01500000     19.63300000
O     17.22200000     38.71100000     27.59600000
H     17.26900000     37.80000000     27.88500000
H     17.81100000     38.75400000     26.84200000
O     27.39800000     42.09400000     32.08700000
H     26.73500000     41.65000000     32.61500000
H     27.11600000     41.95600000     31.18300000
O     16.62300000     27.51900000     19.12500000
H     17.32300000     28.14000000     19.32600000
H     16.74700000     27.31100000     18.19800000
O     38.24700000     31.45900000     18.42100000
H     37.86800000     31.03500000     19.19200000
H     37.49200000     31.77400000     17.92500000
O     23.87100000     28.47000000     15.32700000
H     24.47100000     28.56900000     14.58800000
H     23.43200000     27.63500000     15.17000000
O     30.05300000     29.75200000     16.80200000
H     30.15000000     30.17900000     15.95000000
H     30.02400000     28.81700000     16.60000000
O     24.20200000     17.44200000     32.11100000
H     23.57300000     17.46300000     31.38900000
H     23.80900000     17.99200000     32.78800000
O     27.05400000     28.64500000     22.24300000
H     27.19700000     28.34700000     21.34500000
H     27.62900000     28.09300000     22.77300000
O     33.09000000     23.58500000     40.19900000
H     32.92500000     23.87200000     39.30100000
H     32.22200000     23.39500000     40.55300000
O     26.27900000     14.65300000     26.33000000
H     25.69000000     15.40700000     26.29200000
H     26.27700000     14.30200000     25.43900000
O     19.25500000     28.53900000     16.03500000
H     19.76300000     28.10600000     16.72100000
H     18.52200000     28.94400000     16.49900000
O     25.97900000     23.30500000     25.84500000
H     26.19600000     23.39100000     26.77400000
H     26.23700000     22.41100000     25.62000000
O     21.63200000     40.12900000     25.13500000
H     21.62600000     39.96100000     26.07700000
H     22.49900000     39.84400000     24.84500000
O     31.85300000     28.52200000     31.99600000
H     30.89700000     28.56500000     32.01400000
H     32.06000000     28.14300000     31.14100000
O     39.58300000     21.86300000     25.11000000
H     39.50100000     21.31100000     25.88800000
H     39.67300000     21.24500000     24.38500000
O     24.68800000     33.20900000     35.24200000
H     24.98800000     34.02700000     35.64000000
H     23.74300000     33.32300000     35.14300000
O     18.45300000     33.80700000     21.80800000
H     18.54400000     33.49500000     20.90800000
H     17.78600000     34.49100000     21.75900000
O     16.46900000     24.45900000     24.28900000
H     15.98900000     25.00200000     23.66300000
H     16.19600000     23.56400000     24.08800000
O     23.58900000     22.51400000     39.60800000
H     23.73200000     23.45800000     39.67100000
H     24.25400000     22.21100000     38.99000000
O     25.46100000     33.92100000     23.34800000
H     24.89300000     33.17600000     23.54400000
H     24.86100000     34.60900000     23.05800000
O     29.58700000     36.73100000     23.28300000
H     29.14700000     36.23400000     23.97300000
H     30.36700000     37.08900000     23.70600000
O     27.12100000     35.61600000     24.56100000
H     26.65100000     34.89400000     24.14300000
H     26.56500000     35.86900000     25.29700000
O     27.81100000     30.73700000     31.80500000
H     27.27700000     31.51100000     31.98400000
H     28.28200000     30.57600000     32.62300000
O     27.32700000     13.20900000     28.49700000
H     26.79800000     13.36900000     27.71500000
H     28.19300000     13.55200000     28.27400000
O     29.50100000     31.89700000     14.29600000
H     29.16800000     32.60400000     13.74300000
H     28.99100000     31.96400000     15.10300000
O     13.96700000     28.15800000     33.27100000
H     14.77400000     28.61500000     33.50700000
H     13.36400000     28.85500000     33.01200000
O     38.54000000     37.69400000     31.57700000
H     39.06200000     37.63100000     30.77800000
H     37.63400000     37.72800000     31.27100000
O     28.03600000     13.66700000     34.15800000
H     27.92800000     14.58200000     33.89700000
H     27.15200000     13.30200000     34.12500000
O     22.99800000     33.35800000     38.83400000
H     23.91900000     33.09900000     38.88200000
H     22.97600000     34.23500000     39.21800000
O     26.26700000     27.06900000     35.48900000
H     25.53800000     27.25500000     36.08000000
H     26.06500000     26.20900000     35.12200000
O     27.28900000     36.64500000     16.06700000
H     26.46100000     36.88400000     15.65000000
H     27.03100000     36.13600000     16.83600000
O     22.90400000     17.65800000     23.60600000
H     23.44400000     17.67900000     22.81600000
H     22.03800000     17.39200000     23.29800000
O     24.85200000     30.14900000     41.74000000
H     24.01600000     30.30700000     42.17900000
H     25.26700000     29.45800000     42.25700000
O     20.81600000     38.80500000     22.50200000
H     20.42700000     39.67900000     22.48200000
H     21.74400000     38.95900000     22.67700000
O     29.00400000     28.36800000     41.89100000
H     28.81400000     28.03600000     42.76800000
H     28.93200000     27.60100000     41.32200000
O     16.35000000     31.62600000     35.52700000
H     17.16100000     31.19300000     35.26100000
H     15.73500000     31.44300000     34.81700000
O     20.45000000     15.05500000     29.90800000
H     21.39300000     15.11200000     30.06200000
H     20.37200000     14.68300000     29.02900000
O     24.82600000     37.59000000     31.87600000
H     24.01500000     37.27800000     31.47400000
H     25.47800000     36.92800000     31.64500000
O     36.53300000     22.67900000     19.42900000
H     36.79500000     23.55500000     19.71200000
H     36.51200000     22.16300000     20.23400000
O     15.16400000     25.91700000     32.60800000
H     14.60700000     26.67100000     32.79900000
H     14.57700000     25.16300000     32.67000000
O     32.02000000     24.19600000     23.08100000
H     31.61500000     23.59900000     22.45200000
H     32.12400000     23.67300000     23.87500000
O     27.40500000     38.29300000     23.24900000
H     28.12100000     37.70200000     23.01800000
H     26.67100000     37.71400000     23.45300000
O     16.30800000     28.89800000     23.28100000
H     16.16400000     29.84100000     23.35900000
H     16.10000000     28.55100000     24.14800000
O     26.06500000     31.07800000     22.24500000
H     26.85600000     31.61400000     22.18900000
H     26.38300000     30.20100000     22.45800000
O     31.79000000     38.42800000     24.01500000
H     32.52300000     38.96100000     24.32200000
H     32.13400000     37.96300000     23.25200000
O     28.23300000     42.67500000     26.98000000
H     28.32900000     42.34800000     26.08600000
H     28.32900000     43.62400000     26.90000000
O     37.70900000     37.18500000     22.55000000
H     37.22600000     37.99900000     22.40800000
H     38.32100000     37.13800000     21.81600000
O     23.45100000     24.31700000     34.23400000
H     22.88600000     24.30600000     35.00600000
H     22.92000000     24.73100000     33.55400000
O     23.61100000     20.55200000     16.56300000
H     24.51100000     20.84500000     16.42100000
H     23.37100000     20.11100000     15.74800000
O     33.63100000     30.75500000     24.83000000
H     33.97400000     31.06000000     23.99000000
H     34.08000000     31.29300000     25.48200000
O     34.92800000     24.45800000     35.34400000
H     35.85100000     24.62000000     35.15200000
H     34.52000000     25.32300000     35.31300000
O     35.76600000     40.18700000     29.22200000
H     36.57700000     40.22700000     28.71500000
H     35.73700000     39.29100000     29.55700000
O     21.06900000     30.93500000     19.54200000
H     21.84500000     31.36500000     19.90200000
H     21.34000000     30.64200000     18.67200000
O     30.48900000     28.11900000     37.59900000
H     30.70300000     28.66000000     38.35900000
H     29.65700000     28.47100000     37.28100000
O     36.49600000     28.13500000     15.88900000
H     37.19400000     28.77300000     15.74400000
H     35.72500000     28.52400000     15.47600000
O     17.36900000     30.57000000     26.76100000
H     17.13300000     31.03200000     25.95700000
H     16.55800000     30.54100000     27.26800000
O     35.02500000     15.31500000     26.42900000
H     35.05800000     16.27000000     26.37300000
H     34.10900000     15.11700000     26.62200000
O     33.34200000     38.03000000     21.59600000
H     33.84200000     37.41500000     21.06000000
H     32.59600000     38.27400000     21.04900000
O     25.71000000     22.37100000     23.12200000
H     25.81700000     23.04800000     23.79100000
H     26.59900000     22.19700000     22.81300000
O     24.04000000     30.70600000     37.93700000
H     23.61600000     31.52600000     38.18900000
H     24.97300000     30.86500000     38.07700000
O     40.38200000     27.79400000     22.90900000
H     40.64800000     27.30600000     22.13000000
H     39.45800000     27.57500000     23.02500000
O     42.03600000     24.68800000     34.95400000
H     41.45700000     25.23900000     34.42800000
H     41.45400000     24.25700000     35.58000000
O     22.93300000     27.34900000     19.57000000
H     23.36500000     28.17100000     19.80500000
H     22.79000000     26.90600000     20.40600000
O     38.87800000     21.01800000     29.80900000
H     37.97700000     20.92100000     29.49900000
H     39.04600000     21.95900000     29.76700000
O     33.58100000     30.85000000     32.15700000
H     32.94500000     30.25400000     32.55300000
H     33.64100000     30.56400000     31.24500000
O     26.19900000     21.32400000     16.55000000
H     26.67900000     21.28400000     17.37800000
H     26.88000000     21.30200000     15.87700000
O     32.35700000     32.79700000     14.58100000
H     31.52200000     32.53300000     14.96700000
H     32.48200000     32.19700000     13.84600000
O     14.52500000     24.50400000     28.91300000
H     13.98300000     24.10900000     29.59600000
H     15.33000000     24.75800000     29.36300000
O     35.42300000     33.52700000     36.85900000
H     35.25900000     32.60800000     36.65100000
H     36.17400000     33.76600000     36.31600000
O     23.92000000     25.27200000     40.00600000
H     23.48900000     25.59500000     40.79700000
H     23.97100000     26.03600000     39.43100000
O     32.18800000     21.21000000     23.96200000
H     32.49000000     20.35300000     24.26600000
H     32.33500000     21.19500000     23.01700000
O     38.81700000     18.25300000     24.69100000
H     38.58400000     18.91900000     25.33700000
H     38.31900000     17.47900000     24.95300000
O     36.00200000     26.72400000     26.20300000
H     36.75400000     26.28700000     25.80200000
H     36.27300000     26.88800000     27.10600000
O     37.30300000     24.82700000     21.79700000
H     36.78000000     25.49600000     21.35600000
H     38.08400000     24.73400000     21.25100000
O     19.11700000     20.51800000     28.43800000
H     18.44300000     19.92800000     28.77700000
H     19.69500000     19.95300000     27.92600000
O     25.59300000     27.73600000     42.69800000
H     25.53600000     27.48400000     43.62000000
H     26.52900000     27.86600000     42.54300000
O     19.29600000     36.34300000     18.70400000
H     19.16500000     35.51300000     19.16300000
H     18.44000000     36.77000000     18.73200000
O     20.07100000     17.57400000     31.21300000
H     19.57200000     17.93600000     30.48100000
H     20.18500000     16.65000000     30.99200000
O     33.89600000     34.01400000     20.77000000
H     33.02800000     34.37500000     20.95000000
H     34.42700000     34.27900000     21.52100000
O     35.51500000     31.97400000     26.60200000
H     35.80200000     32.74600000     26.11400000
H     35.58100000     32.23300000     27.52100000
O     31.98000000     25.58600000     17.49800000
H     31.11400000     25.18100000     17.53400000
H     32.58200000     24.85300000     17.36900000
O     39.05700000     34.31700000     31.81100000
H     39.09300000     35.22600000     31.51200000
H     39.06800000     33.79900000     31.00700000
O     31.99600000     37.88900000     35.94700000
H     32.53500000     37.11500000     36.11100000
H     32.29000000     38.52800000     36.59600000
O     16.58500000     21.02200000     27.19900000
H     17.50500000     20.81000000     27.35600000
H     16.27400000     21.37100000     28.03400000
O     35.62900000     28.76500000     38.74000000
H     35.72900000     28.16900000     39.48200000
H     35.61800000     28.19400000     37.97200000
O     35.62200000     18.18500000     27.07800000
H     34.81100000     18.51100000     27.46800000
H     35.45900000     18.19900000     26.13500000
O     36.45100000     27.19100000     28.85700000
H     35.53700000     27.03600000     29.09500000
H     36.71000000     27.94800000     29.38100000
O     32.60200000     30.43300000     17.57600000
H     32.79600000     30.07800000     18.44300000
H     31.67600000     30.23400000     17.43600000
O     38.10200000     36.64600000     25.27200000
H     39.03200000     36.44800000     25.16300000
H     37.81200000     36.92500000     24.40300000
O     37.36700000     39.23700000     26.85100000
H     36.67500000     39.48800000     26.24000000
H     37.59200000     38.34000000     26.60300000
O     21.76900000     24.12800000     18.18700000
H     20.90100000     23.97300000     18.55800000
H     22.33900000     24.23700000     18.94900000
O     23.64000000     16.82000000     28.20000000
H     23.89700000     16.77200000     27.28000000
H     23.33100000     17.71800000     28.31700000
O     35.75700000     32.18500000     16.94300000
H     35.06400000     31.68300000     16.51400000
H     36.05100000     32.80600000     16.27600000
O     35.52300000     26.94200000     21.40100000
H     34.90400000     27.13100000     22.10600000
H     34.97500000     26.64800000     20.67300000
O     19.89600000     37.42700000     37.12900000
H     19.00700000     37.56700000     37.45300000
H     20.06800000     36.49900000     37.29100000
O     21.19200000     28.79800000     26.49400000
H     21.85500000     28.23700000     26.89800000
H     21.24100000     28.59300000     25.56100000
O     38.68900000     22.24600000     17.82400000
H     37.91200000     22.47100000     18.33400000
H     38.84000000     21.31900000     18.01200000
O     29.23300000     23.84000000     38.10000000
H     28.88800000     23.17800000     38.69900000
H     28.53300000     24.48900000     38.03100000
O     39.20300000     24.56500000     32.88800000
H     39.39500000     25.21500000     32.21100000
H     38.87900000     23.80500000     32.40600000
O     27.12000000     32.89200000     15.68500000
H     27.10800000     33.37600000     16.51000000
H     26.68700000     33.47200000     15.05900000
O     23.80400000     39.23300000     23.09900000
H     24.28300000     38.40400000     23.07300000
H     24.19900000     39.76000000     22.40400000
O     25.53700000     32.47300000     39.69200000
H     25.77500000     31.93200000     40.44500000
H     26.36100000     32.61300000     39.22600000
O     27.69300000     22.28600000     39.60500000
H     27.36200000     22.91700000     40.24300000
H     26.99600000     22.21400000     38.95300000
O     33.33900000     22.61200000     33.24000000
H     33.99600000     22.40900000     33.90700000
H     33.29500000     23.56800000     33.23200000
O     26.60300000     23.15400000     28.57600000
H     27.53300000     23.33300000     28.71500000
H     26.24200000     23.05500000     29.45700000
O     20.61300000     29.45800000     36.33000000
H     20.39600000     28.66800000     35.83400000
H     21.11400000     29.14000000     37.08100000
O     16.65600000     25.53100000     26.96200000
H     15.80300000     25.47900000     27.39200000
H     16.59000000     24.92400000     26.22500000
O     21.91900000     19.20300000     32.69000000
H     21.23000000     18.64900000     32.32400000
H     21.77600000     19.17000000     33.63600000
O     24.68800000     27.04100000     17.67800000
H     24.40200000     27.74000000     17.09000000
H     23.89300000     26.77800000     18.14200000
O     20.55000000     35.99900000     34.01200000
H     19.77700000     35.49000000     33.76500000
H     21.05200000     36.08100000     33.20100000
O     28.19100000     33.27400000     22.49300000
H     27.36300000     33.34300000     22.96900000
H     28.06700000     33.82000000     21.71700000
O     28.62700000     28.21800000     19.62900000
H     28.18400000     27.80900000     18.88500000
H     28.76200000     27.50200000     20.25100000
O     17.99000000     27.50000000     28.81800000
H     18.28100000     27.19400000     27.95900000
H     17.40800000     26.80900000     29.13500000
O     22.86500000     21.35800000     36.45000000
H     22.34600000     22.11600000     36.18000000
H     22.23400000     20.77300000     36.86900000
O     41.74700000     33.08800000     32.82300000
H     42.14200000     33.87800000     32.45500000
H     40.81800000     33.15700000     32.60000000
O     33.94700000     28.53400000     26.65300000
H     34.69600000     27.94900000     26.54100000
H     34.00200000     29.13900000     25.91300000
O     31.74000000     31.66400000     35.18800000
H     31.07500000     32.07300000     34.63600000
H     31.56400000     30.72600000     35.12300000
O     20.12000000     32.59800000     16.20900000
H     19.50100000     32.46200000     15.49200000
H     20.30100000     31.71800000     16.53900000
O     24.24400000     30.72400000     17.92300000
H     24.34000000     30.43100000     18.82900000
H     25.04100000     30.42100000     17.48700000
O     16.36600000     36.25700000     31.66700000
H     15.57400000     36.74300000     31.89700000
H     16.88900000     36.87800000     31.16000000
O     26.14100000     31.75700000     28.91200000
H     25.70700000     30.94000000     29.15900000
H     26.10800000     31.76600000     27.95500000
O     39.58700000     19.86300000     22.78400000
H     40.39800000     19.46200000     22.47100000
H     39.29100000     19.28600000     23.48800000
O     23.22200000     40.93900000     31.37200000
H     22.78700000     40.84400000     32.21900000
H     24.09200000     40.56200000     31.50500000
O     20.44600000     25.46000000     27.00100000
H     20.08400000     24.68500000     27.43100000
H     19.97200000     25.51700000     26.17100000
O     29.78900000     35.23900000     15.47900000
H     29.76900000     34.49100000     16.07700000
H     28.89700000     35.58400000     15.49700000
O     28.57200000     17.65000000     36.16200000
H     28.96800000     17.55800000     35.29600000
H     29.03400000     18.38800000     36.56000000
O     36.50900000     20.46300000     35.69400000
H     35.96500000     21.13300000     36.10800000
H     37.08700000     20.95100000     35.10700000
O     26.71400000     41.77500000     29.34000000
H     25.76300000     41.87400000     29.37700000
H     26.95500000     42.09200000     28.46900000
O     23.47800000     33.32700000     18.09900000
H     22.97900000     33.13800000     18.89400000
H     23.68000000     32.46600000     17.73300000
O     37.98200000     30.30800000     25.65600000
H     37.84500000     30.18700000     24.71700000
H     37.12000000     30.55200000     25.99500000
O     41.44800000     27.35500000     26.20600000
H     40.66000000     27.80300000     26.51300000
H     41.31900000     27.26300000     25.26200000
O     35.73300000     27.55400000     33.14200000
H     36.03500000     28.41100000     32.84000000
H     36.50300000     27.15800000     33.55000000
O     18.69700000     28.97300000     21.90600000
H     18.60700000     29.40200000     21.05500000
H     17.80000000     28.89900000     22.23300000
O     19.57300000     33.35000000     19.24600000
H     19.40500000     33.03600000     18.35700000
H     20.26700000     32.77800000     19.57500000
O     19.90000000     18.03200000     27.08200000
H     20.68700000     17.48700000     27.09500000
H     19.20600000     17.45900000     27.41100000
O     38.94700000     29.49200000     16.57200000
H     39.49800000     30.14100000     16.13400000
H     38.42800000     30.00000000     17.19600000
O     21.25400000     31.27000000     40.51000000
H     21.04600000     32.16200000     40.78900000
H     21.87200000     31.38200000     39.78800000
O     37.29500000     18.13200000     29.24200000
H     36.76400000     18.48100000     29.95800000
H     36.78300000     18.31600000     28.45400000
O     35.69500000     34.80900000     33.90400000
H     36.42700000     34.19300000     33.94500000
H     34.93200000     34.26400000     33.71400000
O     38.10500000     25.57700000     24.65500000
H     37.75400000     24.95900000     24.01400000
H     38.86100000     25.12800000     25.03300000
O     31.88100000     23.69600000     37.71200000
H     32.21000000     24.45700000     37.23300000
H     30.94000000     23.85100000     37.79200000
O     17.11300000     36.08300000     27.63500000
H     17.29200000     35.40300000     26.98600000
H     16.51200000     35.67200000     28.25600000
O     27.48700000     26.25700000     38.66700000
H     27.96600000     26.63700000     37.93000000
H     26.91700000     26.96300000     38.97100000
O     30.88000000     18.85300000     20.28900000
H     31.61300000     19.24000000     20.76800000
H     30.91400000     19.26500000     19.42500000
O     20.83700000     34.88300000     37.59900000
H     21.35500000     34.64800000     36.82900000
H     20.47100000     34.05300000     37.90500000
O     35.23100000     19.34600000     20.98700000
H     34.57500000     18.80200000     20.55000000
H     36.06500000     18.91800000     20.79400000
O     21.58100000     25.87100000     32.70100000
H     20.78300000     26.27800000     33.04000000
H     21.32200000     24.97400000     32.49200000
O     21.07000000     35.65100000     25.91800000
H     22.01200000     35.82000000     25.93900000
H     20.92500000     35.19800000     25.08800000
O     36.10900000     39.17500000     21.39900000
H     35.89300000     38.58000000     20.68100000
H     35.32300000     39.70800000     21.51500000
O     30.88400000     34.65600000     34.73600000
H     30.76300000     35.46300000     34.23500000
H     30.83900000     33.95800000     34.08300000
O     29.03100000     39.31100000     36.00600000
H     29.15500000     39.82600000     35.20900000
H     29.90200000     39.26600000     36.40000000
O     24.46500000     33.32400000     30.81000000
H     24.87400000     32.99200000     30.01100000
H     25.10200000     33.13900000     31.50000000
O     34.75400000     21.26100000     39.22700000
H     34.80000000     21.91500000     38.53000000
H     34.18500000     21.65600000     39.88800000
O     26.52400000     31.10600000     35.89200000
H     27.21400000     31.76400000     35.80700000
H     25.73900000     31.53800000     35.55600000
O     28.55400000     21.80300000     31.64200000
H     28.23500000     21.16600000     32.28100000
H     27.77400000     22.06500000     31.15300000
O     24.71100000     29.11200000     26.17500000
H     24.00600000     28.57200000     26.53100000
H     25.37300000     29.12700000     26.86600000
O     30.01400000     21.88800000     25.66500000
H     30.78100000     21.45900000     25.28600000
H     30.28900000     22.79500000     25.79900000
O     39.97600000     23.01400000     22.38600000
H     39.20300000     22.64600000     21.95800000
H     39.62300000     23.56300000     23.08700000
O     22.87700000     29.09700000     40.10000000
H     23.66500000     29.45600000     40.50700000
H     22.15600000     29.57700000     40.50800000
O     28.90600000     34.59100000     41.15700000
H     29.68900000     34.29300000     41.62000000
H     28.27800000     34.78900000     41.85200000
O     17.49400000     24.87000000     20.94300000
H     16.86700000     25.37000000     20.42100000
H     18.25300000     25.44700000     21.02500000
O     30.87200000     35.29200000     20.80600000
H     30.81500000     36.24600000     20.75200000
H     29.97100000     35.00500000     20.94900000
O     31.58200000     42.67600000     24.36700000
H     30.75200000     42.30900000     24.67000000
H     31.64100000     43.52700000     24.80100000
O     31.20800000     29.54600000     25.36600000
H     31.11600000     28.70000000     24.92700000
H     32.11700000     29.80200000     25.20500000
O     17.49600000     17.87100000     24.25400000
H     16.72600000     18.36600000     24.53300000
H     18.20200000     18.51700000     24.23400000
O     24.13100000     33.36000000     41.93700000
H     24.45800000     32.86800000     41.18400000
H     23.17800000     33.29200000     41.87200000
O     31.22800000     19.55400000     29.80200000
H     30.68500000     19.18200000     30.49600000
H     30.61400000     19.74000000     29.09100000
O     27.91500000     15.28300000     21.85800000
H     28.50400000     14.68000000     22.31200000
H     27.13200000     14.76300000     21.67700000
O     21.38900000     19.60300000     25.09900000
H     20.66200000     19.13500000     25.50900000
H     22.03900000     18.92500000     24.91600000
O     24.76900000     29.61100000     20.23700000
H     25.28800000     28.81100000     20.15300000
H     25.23400000     30.13100000     20.89300000
O     18.98500000     38.60700000     33.61300000
H     18.73900000     37.84400000     33.09100000
H     19.65000000     38.27800000     34.21900000
O     30.05400000     24.43800000     34.47100000
H     29.94900000     25.12700000     35.12700000
H     30.81700000     24.70700000     33.96000000
O     24.40700000     15.38600000     34.61600000
H     25.02900000     15.64100000     33.93500000
H     23.54900000     15.47700000     34.20400000
O     33.49200000     17.34800000     19.92500000
H     33.09200000     17.70100000     19.13000000
H     32.77000000     16.92400000     20.38900000
O     26.20100000     19.19800000     36.55500000
H     25.56800000     18.93300000     35.88900000
H     26.91600000     18.56700000     36.47100000
O     18.70900000     29.33200000     19.30500000
H     19.58200000     29.64100000     19.54900000
H     18.43900000     29.91300000     18.59400000
O     20.20900000     17.45100000     22.82600000
H     19.44700000     18.00300000     22.65000000
H     20.04700000     16.65100000     22.32500000
O     29.17000000     26.48400000     21.93500000
H     29.96100000     26.85700000     22.32300000
H     28.95800000     25.73700000     22.49500000
O     22.80500000     31.60800000     27.37600000
H     21.93800000     31.29100000     27.63200000
H     23.04000000     32.23900000     28.05600000
O     18.83300000     20.09100000     23.62100000
H     18.26100000     20.47900000     22.95900000
H     19.65900000     20.56700000     23.53300000
O     24.90300000     26.25000000     31.21200000
H     24.79800000     27.15800000     30.92600000
H     24.18800000     25.77900000     30.78400000
O     29.73000000     20.14200000     36.62900000
H     29.48200000     20.95800000     36.19300000
H     30.45200000     19.79900000     36.10200000
O     25.96600000     18.47200000     24.70900000
H     26.11400000     18.39800000     23.76600000
H     25.05300000     18.20800000     24.83000000
O     22.75000000     36.08700000     30.44300000
H     22.15900000     35.57200000     30.99300000
H     23.23900000     35.43500000     29.94100000
O     31.11300000     30.68100000     29.69000000
H     30.96400000     31.05100000     28.82000000
H     31.35300000     31.43100000     30.23300000
O     41.80700000     24.86500000     27.72100000
H     41.62400000     24.29500000     28.46700000
H     41.34900000     25.68000000     27.92300000
O     35.78800000     18.27700000     31.75400000
H     36.65200000     17.91700000     31.95500000
H     35.32400000     18.26800000     32.59100000
O     20.13600000     32.60800000     30.40900000
H     19.53200000     32.42700000     31.12900000
H     20.02100000     31.87200000     29.80800000
O     23.86600000     28.72400000     36.23800000
H     23.95100000     29.36400000     36.94500000
H     23.32000000     29.16000000     35.58400000
O     17.42900000     18.09700000     28.91200000
H     17.01400000     18.11200000     29.77500000
H     16.72500000     18.31900000     28.30300000
O     35.09400000     18.17400000     24.35300000
H     35.34200000     19.06600000     24.11000000
H     34.31800000     17.98800000     23.82500000
O     30.09200000     33.43300000     37.15400000
H     30.41800000     33.46800000     36.25400000
H     30.84900000     33.16200000     37.67300000
O     33.51900000     33.27300000     33.41200000
H     33.63000000     32.47100000     32.90100000
H     32.85200000     33.05200000     34.06200000
O     34.40500000     22.23300000     36.61400000
H     34.52200000     23.10800000     36.24500000
H     33.45900000     22.15000000     36.73900000
O     34.76100000     31.37900000     22.42000000
H     33.89900000     31.30100000     22.01100000
H     35.16500000     32.13200000     21.98800000
O     33.06100000     28.47300000     22.22500000
H     33.63200000     28.80600000     21.53400000
H     32.28500000     29.03200000     22.18700000
O     34.10100000     37.81700000     26.51700000
H     33.47400000     38.18800000     27.13800000
H     33.70900000     36.98600000     26.24900000
O     21.61900000     33.95400000     32.16400000
H     21.04900000     33.48900000     31.55100000
H     22.48700000     33.57800000     32.01600000
O     33.45300000     35.22700000     26.03500000
H     34.26400000     34.71900000     26.01100000
H     32.96500000     34.93800000     25.26400000
O     41.82400000     28.74400000     33.64800000
H     42.30700000     29.55600000     33.80700000
H     41.57400000     28.44000000     34.52100000
O     28.77300000     25.31500000     31.89100000
H     28.95700000     24.93300000     32.75000000
H     28.71500000     24.56300000     31.30200000
O     30.95000000     37.48200000     33.33500000
H     31.09400000     37.81700000     34.22000000
H     30.00500000     37.34000000     33.28300000
O     32.16700000     42.63000000     31.47600000
H     32.12900000     41.67500000     31.53400000
H     31.46900000     42.93400000     32.05600000
O     30.05700000     31.17900000     23.27100000
H     29.39000000     31.82400000     23.03700000
H     29.57000000     30.47200000     23.69500000
O     23.41100000     16.01400000     25.53100000
H     22.99900000     15.17000000     25.35000000
H     23.23000000     16.54100000     24.75200000
O     30.47700000     31.45000000     27.08500000
H     29.76300000     31.84100000     26.58200000
H     30.75200000     30.69500000     26.56500000
O     31.40600000     30.72100000     39.52100000
H     31.87400000     31.28800000     38.90700000
H     32.08900000     30.17500000     39.91000000
O     42.50600000     30.30300000     25.94900000
H     42.91500000     31.11100000     25.64000000
H     41.92500000     30.03900000     25.23500000
O     28.72100000     33.89200000     30.32800000
H     28.46400000     33.11700000     29.82900000
H     29.67200000     33.93500000     30.23300000
O     20.87300000     36.31700000     20.97800000
H     20.36200000     36.46300000     20.18200000
H     20.79500000     37.13500000     21.46700000
O     29.98200000     33.22100000     17.23000000
H     29.35300000     33.02500000     17.92400000
H     30.76700000     33.51300000     17.69300000
O     30.34000000     12.93000000     29.23500000
H     30.76900000     13.78300000     29.16600000
H     30.30900000     12.60400000     28.33600000
O     35.38900000     20.87900000     24.52200000
H     35.14000000     21.70500000     24.10600000
H     35.70700000     21.13300000     25.38900000
O     27.30200000     18.47200000     19.33600000
H     26.75100000     18.35900000     18.56200000
H     28.13900000     18.07500000     19.09600000
O     36.98300000     24.11100000     28.65700000
H     37.68200000     23.91400000     29.28100000
H     36.81900000     25.04700000     28.76800000
O     30.32500000     13.85900000     26.40200000
H     29.86900000     13.45100000     25.66600000
H     31.20500000     14.03600000     26.07000000
O     36.61600000     21.45700000     26.84100000
H     37.13900000     22.22600000     27.06800000
H     37.17500000     20.71300000     27.06200000
O     35.02000000     33.35600000     39.89300000
H     35.40800000     34.23100000     39.90000000
H     35.73400000     32.77900000     39.62300000
O     35.96300000     27.90200000     36.27100000
H     36.63600000     28.57400000     36.16300000
H     36.27400000     27.16400000     35.74700000
O     35.33600000     18.05700000     36.43500000
H     35.80300000     18.78700000     36.03000000
H     36.00400000     17.38100000     36.55300000
O     24.47000000     18.31900000     38.74800000
H     24.69700000     18.26700000     39.67600000
H     25.28900000     18.55700000     38.31300000
O     29.84800000     15.56200000     31.88500000
H     28.92800000     15.68200000     31.64700000
H     30.32100000     15.62900000     31.05600000
O     33.32600000     18.79200000     28.11400000
H     33.38200000     18.11600000     28.78800000
H     32.77300000     19.47100000     28.50000000
O     30.99300000     21.10900000     32.47400000
H     31.57500000     21.85900000     32.35200000
H     30.17200000     21.37200000     32.05600000
O     33.06500000     40.18100000     27.76600000
H     32.62500000     40.99500000     28.00900000
H     33.82300000     40.13500000     28.34800000
O     19.33400000     23.37300000     19.05200000
H     18.85800000     23.60000000     19.85100000
H     18.91600000     22.56800000     18.74500000
O     26.30800000     24.57000000     21.09700000
H     26.51200000     24.73100000     22.01800000
H     25.86300000     23.72300000     21.09400000
O     31.47500000     38.95100000     29.59300000
H     30.58200000     38.63400000     29.45500000
H     31.73100000     39.32000000     28.74700000
O     26.16200000     27.19700000     19.90600000
H     26.17000000     26.30500000     20.25300000
H     25.67300000     27.13000000     19.08600000
O     27.78100000     33.92100000     34.84000000
H     27.18500000     34.55100000     35.24400000
H     28.64400000     34.32800000     34.91100000
O     27.99100000     35.28200000     20.45600000
H     27.93700000     35.10700000     19.51700000
H     27.78000000     36.21200000     20.53900000
O     27.29800000     21.01800000     25.74300000
H     28.24200000     20.87300000     25.67400000
H     26.91200000     20.15000000     25.62300000
O     31.38500000     38.02000000     19.45000000
H     30.46300000     38.05700000     19.70500000
H     31.36800000     37.94400000     18.49600000
O     25.33400000     29.66600000     33.06400000
H     25.66400000     28.88200000     33.50400000
H     26.07800000     29.99000000     32.55800000
O     23.13000000     35.12900000     22.08200000
H     22.57300000     35.59100000     21.45500000
H     22.51900000     34.63500000     22.62900000
O     29.88100000     30.87500000     19.57500000
H     30.01900000     30.59000000     18.67200000
H     29.52700000     30.10300000     20.01800000
O     31.13400000     15.63100000     29.36400000
H     32.01800000     15.96800000     29.22200000
H     30.59900000     16.07300000     28.70500000
O     26.66500000     24.42400000     40.97200000
H     26.33600000     24.54600000     41.86300000
H     26.19400000     25.07400000     40.45100000
O     30.71200000     19.61600000     39.15600000
H     30.35300000     19.86700000     38.30500000
H     31.65900000     19.59200000     39.01900000
O     33.73000000     20.92200000     30.96500000
H     33.79700000     21.18900000     31.88200000
H     32.88200000     20.48300000     30.90500000
O     28.55200000     21.96200000     34.96500000
H     28.96300000     22.81700000     34.83700000
H     27.75600000     22.15000000     35.46200000
O     17.54400000     21.44400000     32.40500000
H     16.75500000     21.72900000     32.86700000
H     17.88400000     20.72200000     32.93400000
O     25.99900000     25.10000000     33.42700000
H     25.62300000     25.59900000     32.70200000
H     25.28500000     24.53800000     33.72700000
O     28.97600000     27.28100000     16.27900000
H     28.68400000     27.12100000     15.38100000
H     29.02500000     26.41100000     16.67500000
O     32.30800000     17.07700000     26.15400000
H     31.37600000     17.15700000     26.36000000
H     32.71200000     17.83900000     26.56900000
O     39.95200000     27.38100000     17.92100000
H     39.06800000     27.01200000     17.90600000
H     39.85800000     28.24500000     17.52200000
O     37.57600000     27.73600000     22.84000000
H     37.49700000     27.23700000     23.65300000
H     36.76800000     27.54500000     22.36300000
O     29.29400000     31.21000000     41.46200000
H     29.74200000     31.23600000     40.61700000
H     28.81300000     30.38300000     41.45300000
O     24.19200000     17.42000000     20.89800000
H     25.09600000     17.31600000     21.19400000
H     24.26200000     17.91300000     20.08100000
O     34.18000000     23.68900000     16.78400000
H     34.22600000     22.84100000     17.22600000
H     34.70000000     23.57200000     15.98800000
O     33.74600000     26.60000000     29.00400000
H     32.85400000     26.94500000     28.98200000
H     33.64600000     25.69200000     29.29000000
O     18.51100000     32.48600000     32.77000000
H     18.46000000     31.95300000     33.56400000
H     18.73600000     33.36200000     33.08400000
O     36.03100000     20.92700000     29.68400000
H     35.79300000     21.00500000     28.76000000
H     35.20800000     20.71800000     30.12600000
O     37.45700000     25.63900000     35.05900000
H     38.00500000     25.58300000     34.27700000
H     37.99300000     25.25900000     35.75600000
O     39.97900000     30.78100000     37.61700000
H     39.89000000     30.11700000     38.30100000
H     39.18700000     30.68900000     37.08900000
O     27.85200000     25.83100000     13.92300000
H     27.86800000     25.13600000     13.26500000
H     27.23200000     25.52200000     14.58400000
O     31.51800000     26.95000000     23.90300000
H     31.96900000     27.46100000     23.23200000
H     31.81100000     26.05000000     23.75700000
O     40.21700000     20.07900000     32.24200000
H     40.68500000     19.25700000     32.09500000
H     39.72800000     20.22500000     31.43300000
O     31.51400000     19.43200000     34.49000000
H     31.59500000     20.08200000     33.79200000
H     30.89000000     18.79000000     34.15000000
O     23.04600000     23.27500000     16.04200000
H     23.37900000     22.40000000     16.24400000
H     22.50700000     23.50700000     16.79700000
O     22.95600000     17.30400000     36.68200000
H     23.42800000     17.61900000     37.45300000
H     23.43200000     16.51900000     36.41200000
O     21.48000000     16.97600000     19.35600000
H     22.27000000     17.05800000     19.88900000
H     21.01200000     17.80000000     19.49300000
O     35.70900000     35.07300000     23.00500000
H     35.87000000     34.84200000     23.92000000
H     36.21800000     35.87200000     22.86700000
O     32.75100000     27.04400000     42.25900000
H     32.42000000     27.75200000     41.70600000
H     32.69700000     27.39000000     43.14900000
O     40.83700000     35.99000000     24.61200000
H     40.79400000     35.04800000     24.77900000
H     41.02600000     36.06000000     23.67700000
O     25.07500000     25.15400000     23.88100000
H     25.52200000     24.93600000     24.69900000
H     25.07000000     26.11100000     23.85900000
O     35.30400000     39.78700000     25.17300000
H     34.78300000     40.31700000     24.56900000
H     34.66000000     39.25500000     25.64200000
O     20.47100000     30.40300000     32.23600000
H     21.06700000     29.98300000     32.85600000
H     19.75000000     30.72500000     32.77700000
O     29.96600000     36.77100000     39.75700000
H     29.82100000     35.91800000     40.16600000
H     29.62000000     36.67500000     38.87000000
O     15.35500000     28.14100000     25.85800000
H     15.97500000     27.44300000     26.07000000
H     15.20100000     28.58700000     26.69100000
O     25.75300000     37.42000000     26.75800000
H     25.95600000     36.75100000     27.41100000
H     26.28900000     38.17200000     27.01000000
O     24.79300000     27.82900000     23.16800000
H     24.57900000     28.51500000     23.80000000
H     25.67400000     28.04800000     22.86500000
O     22.58500000     28.86600000     33.30900000
H     22.64400000     27.94100000     33.07100000
H     23.45700000     29.21700000     33.12800000
O     36.23400000     30.52200000     33.04500000
H     36.56600000     31.40200000     32.86600000
H     35.28400000     30.60400000     32.96700000
O     37.50000000     21.37300000     22.23000000
H     36.83000000     21.03600000     22.82500000
H     38.18100000     20.70000000     22.23100000
O     16.08100000     21.53900000     29.85200000
H     15.33000000     21.36100000     30.41800000
H     16.84000000     21.27200000     30.37000000
O     33.13800000     23.29100000     26.06000000
H     33.76900000     23.33200000     26.77800000
H     33.63400000     22.93500000     25.32300000
O     33.89600000     18.25000000     33.78300000
H     33.17300000     18.81400000     34.05800000
H     34.26800000     17.92200000     34.60200000
O     18.00300000     35.22800000     33.62600000
H     17.43800000     35.47300000     34.35800000
H     17.42800000     35.24800000     32.86100000
O     40.79400000     33.36100000     25.44600000
H     40.54800000     32.56100000     24.98200000
H     41.70000000     33.21100000     25.71900000
O     39.90200000     31.66900000     34.52900000
H     40.62000000     31.58900000     33.90100000
H     40.30800000     32.04300000     35.31100000
O     19.85600000     26.75500000     34.65500000
H     20.03800000     26.15700000     35.38000000
H     18.90700000     26.87600000     34.67600000
O     38.54800000     27.94000000     31.75200000
H     38.11200000     27.92000000     30.90100000
H     39.48200000     27.95500000     31.54300000
O     20.40300000     18.16200000     35.87100000
H     20.18700000     17.24100000     35.72400000
H     21.29100000     18.14600000     36.22700000
O     29.37000000     20.04200000     27.67500000
H     29.80700000     20.55100000     26.99200000
H     28.56600000     20.52800000     27.85800000
O     27.80300000     23.75400000     18.70500000
H     27.36400000     24.07500000     19.49300000
H     27.74100000     22.80100000     18.76600000
O     25.57500000     22.41000000     31.14800000
H     25.67100000     23.15300000     31.74400000
H     24.74500000     22.00600000     31.40100000
O     22.61800000     26.57400000     22.11900000
H     22.47900000     25.81100000     22.68000000
H     23.38300000     27.01000000     22.49400000
O     36.51500000     21.35500000     32.51000000
H     36.16100000     20.50800000     32.24000000
H     36.67500000     21.82100000     31.68900000
O     22.75900000     26.84100000     27.72900000
H     23.46100000     26.24200000     27.47400000
H     21.96500000     26.30900000     27.69500000
O     32.07500000     34.31200000     23.94200000
H     31.73900000     33.72300000     23.26700000
H     31.81100000     35.18500000     23.65300000
O     23.68200000     34.23800000     27.94700000
H     24.28300000     34.73500000     28.50200000
H     23.71200000     34.68500000     27.10100000
O     29.21100000     23.25100000     29.19300000
H     29.80000000     22.71700000     29.72600000
H     29.79000000     23.73300000     28.60300000
O     23.10200000     23.06500000     20.48200000
H     23.54900000     22.25700000     20.22800000
H     22.96400000     22.97600000     21.42500000
O     22.03600000     27.62500000     37.97800000
H     22.32700000     27.94100000     38.83300000
H     22.75800000     27.83500000     37.38600000
O     26.76300000     19.66000000     33.19800000
H     26.01800000     20.24900000     33.32100000
H     27.19400000     19.63700000     34.05200000
O     31.62600000     24.35500000     30.42300000
H     31.21200000     24.87600000     29.73500000
H     32.45100000     24.06000000     30.03800000
O     31.42500000     37.53800000     16.24100000
H     30.60400000     37.93600000     15.95100000
H     31.22200000     36.60700000     16.33100000
O     19.68500000     20.99100000     35.53300000
H     19.93500000     20.07600000     35.66100000
H     18.75100000     21.01600000     35.74100000
O     26.24700000     36.67600000     39.55000000
H     26.82300000     35.96100000     39.27800000
H     26.58100000     37.44300000     39.08500000
O     28.98900000     38.01900000     29.08000000
H     28.34700000     37.31600000     29.17200000
H     28.63200000     38.58100000     28.39200000
O     26.35600000     34.23400000     18.07800000
H     25.42200000     34.18200000     18.28100000
H     26.73300000     33.45100000     18.47900000
O     28.43700000     18.48600000     31.16400000
H     28.03500000     19.07400000     31.80300000
H     27.70200000     18.00700000     30.78200000
O     34.07800000     23.46100000     29.77500000
H     34.99900000     23.30800000     29.56100000
H     33.79400000     22.65300000     30.20100000
O     33.58900000     29.64000000     40.75200000
H     34.18400000     29.87900000     41.46300000
H     34.16700000     29.40100000     40.02700000
O     22.90000000     21.69200000     31.89300000
H     22.12400000     22.21900000     32.08400000
H     22.66200000     20.80700000     32.16700000
O     31.75000000     33.72000000     30.38400000
H     32.36300000     34.42500000     30.59400000
H     31.93900000     33.50100000     29.47100000
O     20.87700000     28.41300000     23.74700000
H     20.08900000     28.60800000     23.24100000
H     21.23200000     27.62100000     23.34200000
O     20.06000000     30.70100000     28.23600000
H     19.16300000     30.77400000     27.91100000
H     20.41300000     29.92600000     27.79900000
O     16.78800000     25.18500000     30.45200000
H     17.68900000     25.16100000     30.77400000
H     16.27000000     25.46400000     31.20700000
O     41.58400000     30.96000000     21.67400000
H     42.22600000     30.25700000     21.77500000
H     41.04600000     30.90900000     22.46400000
O     38.87800000     36.11500000     29.25600000
H     38.02000000     35.86400000     28.91300000
H     39.50000000     35.79200000     28.60400000
O     20.21200000     25.84300000     37.32800000
H     19.64000000     26.16000000     38.02600000
H     21.04100000     26.30000000     37.46900000
O     34.86100000     23.35400000     23.41200000
H     35.57000000     23.51800000     22.79100000
H     34.09500000     23.18800000     22.86300000
O     21.49300000     39.15700000     30.25300000
H     21.75700000     38.24000000     30.32300000
H     22.16800000     39.63800000     30.73200000
O     22.91400000     30.97200000     30.70900000
H     23.26800000     31.82100000     30.44300000
H     22.07600000     31.17900000     31.12100000
O     24.30200000     18.62700000     18.46800000
H     24.06400000     19.26500000     17.79500000
H     24.71100000     17.91000000     17.98300000
O     33.63900000     35.81200000     36.54800000
H     34.22300000     36.47300000     36.92100000
H     34.12800000     34.99200000     36.61800000
O     38.94400000     19.92500000     27.01400000
H     38.53100000     19.42000000     27.71500000
H     39.88300000     19.79400000     27.14600000
O     23.73300000     36.34000000     25.38300000
H     24.42700000     36.75800000     25.89400000
H     23.84000000     36.69300000     24.50000000
O     26.72300000     15.73500000     33.09100000
H     26.34800000     16.61500000     33.07400000
H     26.32100000     15.28800000     32.34600000
O     36.54200000     36.47300000     35.92800000
H     37.41000000     36.32800000     35.55000000
H     35.94800000     35.98500000     35.35800000
