1489
J. Chem. Phys. 151, 174104 (2019); https://doi.org/10.1063/1.5121396
C     28.07300000     28.07300000     26.76900000
C     28.07300000     29.26500000     27.45400000
C     28.07300000     29.26700000     28.80400000
C     28.07300000     28.07300000     29.51800000
C     28.07300000     26.87800000     28.80400000
C     28.07300000     26.88000000     27.45400000
H     28.07300000     30.20100000     26.90100000
H     28.07300000     30.20900000     29.34500000
H     28.07300000     25.93600000     29.34500000
H     28.07300000     25.94400000     26.90100000
N     28.07300000     28.07200000     30.83600000
H     28.07300000     27.21500000     31.37700000
H     28.07300000     28.93000000     31.37700000
N     28.07300000     28.07300000     25.35000000
O     28.07300000     29.13700000     24.76800000
O     28.07300000     27.00800000     24.76800000
O     26.37100000     20.33000000     30.24400000
H     25.45000000     20.59000000     30.23300000
H     26.40600000     19.59600000     30.85800000
O     34.00000000     24.44500000     16.72100000
H     33.77400000     24.57000000     17.64200000
H     33.60900000     25.19500000     16.27300000
O     38.98200000     37.09000000     26.42600000
H     38.37500000     36.48100000     26.00700000
H     38.43700000     37.59400000     27.03100000
O     40.48800000     23.04600000     30.37000000
H     39.98200000     22.40400000     29.87100000
H     39.83300000     23.52600000     30.87600000
O     25.86200000     41.83800000     26.86700000
H     25.26300000     41.09500000     26.94200000
H     25.80400000     42.28100000     27.71300000
O     25.70100000     13.72500000     27.39600000
H     24.98700000     13.51600000     26.79300000
H     25.30700000     14.31400000     28.03900000
O     21.92700000     18.02000000     30.21900000
H     21.47300000     17.72900000     29.42800000
H     21.25000000     18.02300000     30.89600000
O     18.60400000     21.17100000     23.09900000
H     18.73100000     21.76700000     23.83800000
H     19.16700000     21.52200000     22.40900000
O     27.26500000     18.77100000     21.47000000
H     28.16200000     18.80100000     21.13900000
H     27.35500000     18.87400000     22.41700000
O     24.76400000     22.06500000     38.04700000
H     25.34000000     21.89000000     38.79100000
H     24.08400000     22.63800000     38.40000000
O     39.10200000     31.40500000     33.28500000
H     39.28700000     31.20000000     32.36900000
H     38.17200000     31.20800000     33.39200000
O     23.09400000     31.98700000     25.10900000
H     23.52100000     32.45600000     25.82500000
H     23.80100000     31.50000000     24.68500000
O     24.71800000     23.91200000     35.20400000
H     25.50100000     23.95100000     34.65500000
H     24.04600000     23.53400000     34.63600000
O     33.93000000     29.93000000     36.99300000
H     33.73000000     30.72500000     37.48700000
H     34.66600000     29.53600000     37.46200000
O     18.21700000     19.52900000     33.38900000
H     18.13500000     20.15100000     34.11200000
H     18.64800000     20.02500000     32.69300000
O     23.25500000     33.68300000     36.39100000
H     22.72700000     34.42400000     36.09400000
H     23.90500000     33.55900000     35.70000000
O     28.29600000     34.06600000     15.55200000
H     28.30400000     34.79000000     14.92500000
H     29.21200000     33.79600000     15.61900000
O     19.68300000     34.55400000     25.99300000
H     19.83700000     34.34500000     25.07200000
H     20.36400000     34.07500000     26.46500000
O     31.77300000     26.50200000     23.78600000
H     31.88000000     26.97400000     24.61200000
H     31.00000000     26.89600000     23.38200000
O     24.35100000     25.81200000     29.14000000
H     23.54100000     25.70100000     29.63700000
H     24.72300000     26.63000000     29.46800000
O     24.32900000     17.19300000     35.59200000
H     24.50800000     17.52100000     34.71100000
H     24.19500000     17.98100000     36.11900000
O     27.78300000     37.16200000     16.49400000
H     28.08500000     37.03000000     15.59500000
H     28.58500000     37.18100000     17.01600000
O     36.19900000     33.80200000     19.43700000
H     36.64000000     33.06000000     19.02200000
H     35.33500000     33.82700000     19.02700000
O     34.52800000     33.71200000     27.23100000
H     34.69100000     34.33600000     27.93900000
H     34.81300000     32.87000000     27.58400000
O     17.03600000     35.63200000     25.99200000
H     16.70400000     35.65800000     26.88900000
H     17.92200000     35.27900000     26.07400000
O     15.87300000     34.91200000     28.44700000
H     14.92800000     34.81700000     28.56400000
H     16.21200000     34.01800000     28.49500000
O     26.27300000     35.08200000     21.75000000
H     25.68100000     34.74400000     22.42200000
H     27.14600000     34.99100000     22.13200000
O     32.93900000     26.58400000     42.44100000
H     32.51400000     26.89200000     43.24100000
H     32.21600000     26.35000000     41.85900000
O     35.91000000     22.82100000     24.25900000
H     35.89200000     22.54700000     23.34200000
H     35.01100000     23.09000000     24.44700000
O     18.36900000     28.79300000     25.16900000
H     18.50500000     29.30300000     25.96700000
H     17.42400000     28.82900000     25.01900000
O     16.70100000     19.42200000     23.11000000
H     17.38000000     20.05800000     23.33500000
H     16.37200000     19.71200000     22.26000000
O     18.99500000     28.93100000     30.52700000
H     18.70700000     29.28900000     31.36700000
H     18.69700000     28.02200000     30.53900000
O     26.01600000     21.24900000     35.18000000
H     25.50800000     21.77700000     35.79500000
H     26.52100000     20.65400000     35.73400000
O     28.54600000     42.95200000     26.86700000
H     27.70400000     42.80100000     26.43800000
H     28.32100000     43.14900000     27.77600000
O     27.38500000     33.79900000     35.90400000
H     28.18600000     33.30300000     36.07900000
H     27.28600000     34.36900000     36.66700000
O     19.64500000     24.38400000     20.38300000
H     20.08300000     24.56800000     21.21400000
H     19.75100000     23.44100000     20.25900000
O     39.71100000     32.02900000     21.46300000
H     38.89800000     31.59800000     21.72800000
H     39.86700000     31.71800000     20.57100000
O     31.49900000     22.97500000     40.55100000
H     31.58000000     22.08800000     40.20000000
H     30.81800000     22.90800000     41.22000000
O     16.70400000     24.08000000     19.69600000
H     16.70800000     23.71600000     18.81100000
H     17.60400000     24.37200000     19.84000000
O     25.25500000     42.34100000     32.73000000
H     24.69900000     41.57700000     32.88200000
H     24.76300000     42.87700000     32.10900000
O     30.67500000     16.80700000     29.85700000
H     30.69200000     16.45300000     28.96800000
H     29.78300000     17.13700000     29.96700000
O     29.01600000     42.42400000     32.05800000
H     29.02900000     41.63700000     31.51300000
H     28.78500000     43.13000000     31.45500000
O     34.80800000     29.22600000     31.81400000
H     35.50900000     29.18200000     31.16400000
H     34.14700000     28.61100000     31.49700000
O     29.51800000     31.39700000     14.19500000
H     29.96700000     32.02000000     14.76700000
H     28.96300000     31.94100000     13.63700000
O     37.22900000     20.84900000     32.78700000
H     38.04800000     21.08600000     33.22300000
H     37.50300000     20.45300000     31.96000000
O     29.77400000     39.48300000     35.64700000
H     28.98300000     38.94800000     35.58500000
H     30.32800000     39.02200000     36.27600000
O     36.89100000     28.92600000     30.16900000
H     37.47300000     28.60600000     30.85800000
H     37.36700000     28.75800000     29.35600000
O     21.25800000     34.73600000     28.75300000
H     20.94800000     33.83300000     28.81800000
H     20.68600000     35.22900000     29.34200000
O     31.09500000     21.92000000     29.56300000
H     32.02000000     22.16500000     29.53100000
H     31.06700000     21.16300000     30.14700000
O     32.85800000     23.53500000     32.34700000
H     32.91200000     23.30700000     31.41800000
H     33.74100000     23.38000000     32.68300000
O     20.51400000     31.14400000     25.77300000
H     21.36500000     31.52400000     25.55500000
H     20.72200000     30.38500000     26.31800000
O     26.28200000     19.17800000     27.71200000
H     26.37200000     19.22600000     28.66400000
H     26.32200000     20.08900000     27.42000000
O     41.34000000     26.48700000     32.26400000
H     40.73600000     25.75600000     32.39400000
H     40.77400000     27.25300000     32.17300000
O     27.44400000     22.79100000     19.44600000
H     28.14900000     22.99400000     20.06000000
H     27.89300000     22.52200000     18.64500000
O     25.32700000     42.88400000     29.38300000
H     24.90900000     43.55700000     29.92000000
H     24.98000000     42.05800000     29.72100000
O     32.10900000     27.90900000     33.52800000
H     31.81400000     27.00100000     33.59500000
H     32.34100000     28.15300000     34.42400000
O     18.07500000     21.75400000     28.76700000
H     18.30300000     21.09400000     28.11300000
H     17.37000000     22.25900000     28.36200000
O     32.70100000     18.76300000     19.87400000
H     33.08300000     18.15800000     20.51000000
H     33.03500000     18.46300000     19.02800000
O     17.04700000     32.64800000     26.19000000
H     16.25100000     33.13200000     25.96900000
H     17.43000000     32.41700000     25.34300000
O     21.46300000     23.43100000     36.21300000
H     21.00400000     22.61300000     36.40300000
H     21.97300000     23.24200000     35.42500000
O     31.71100000     29.89200000     39.18900000
H     32.09600000     29.84300000     38.31400000
H     32.37200000     29.50800000     39.76400000
O     26.80300000     34.25500000     25.69300000
H     26.19100000     33.96100000     25.01900000
H     26.42400000     33.94400000     26.51500000
O     19.47400000     26.16200000     25.81000000
H     20.42400000     26.27800000     25.78500000
H     19.12200000     27.04700000     25.70700000
O     33.37000000     40.42400000     21.84100000
H     34.22700000     40.55700000     21.43500000
H     32.76100000     40.89600000     21.27300000
O     37.90200000     26.92700000     23.59000000
H     38.23700000     26.42400000     22.84800000
H     36.99600000     27.12800000     23.35400000
O     30.90600000     41.55000000     34.18300000
H     30.13500000     41.84500000     33.69900000
H     30.57500000     40.87300000     34.77300000
O     30.86100000     24.76600000     17.03400000
H     30.39900000     25.59000000     17.19200000
H     30.82900000     24.30900000     17.87400000
O     28.02400000     31.32100000     41.28800000
H     27.23800000     31.80800000     41.04100000
H     28.71000000     31.66600000     40.71600000
O     25.31100000     26.52000000     40.40400000
H     25.65000000     25.80900000     40.94900000
H     26.04600000     27.12700000     40.31800000
O     26.75700000     26.51800000     37.69500000
H     26.75600000     27.17300000     38.39400000
H     27.02400000     25.70700000     38.12800000
O     39.87300000     21.63600000     33.24800000
H     40.30900000     21.34400000     32.44700000
H     40.57100000     21.66600000     33.90300000
O     23.62200000     20.26300000     30.13500000
H     23.03700000     20.63500000     30.79500000
H     23.25400000     19.40000000     29.94700000
O     21.92900000     22.32300000     18.94300000
H     22.52600000     22.93800000     19.37000000
H     22.50200000     21.65600000     18.56600000
O     33.35200000     29.91600000     26.18000000
H     33.46300000     30.41900000     26.98700000
H     32.48900000     30.17200000     25.85500000
O     25.41100000     39.13100000     27.40700000
H     26.28900000     38.96600000     27.75100000
H     25.03100000     38.26000000     27.29100000
O     32.55000000     35.55900000     32.55200000
H     31.74500000     35.79500000     32.09300000
H     32.64500000     34.61800000     32.40200000
O     25.79500000     36.44800000     37.20500000
H     26.43500000     35.90700000     37.66800000
H     24.94700000     36.15100000     37.53500000
O     15.91300000     29.77900000     28.98300000
H     15.04000000     29.99700000     28.65400000
H     15.75300000     29.14700000     29.68400000
O     29.54100000     23.32900000     21.56000000
H     29.11800000     24.18500000     21.48700000
H     29.86300000     23.29600000     22.46000000
O     34.30200000     31.96100000     35.12500000
H     35.02100000     31.65400000     34.57200000
H     34.24500000     31.31200000     35.82600000
O     25.24800000     39.34100000     33.98200000
H     25.39900000     39.35700000     33.03700000
H     24.75600000     38.53400000     34.13300000
O     25.85300000     28.94300000     17.90000000
H     25.63100000     29.77400000     17.48100000
H     25.76700000     28.29200000     17.20300000
O     27.57400000     15.87800000     27.56400000
H     27.69600000     15.20400000     26.89500000
H     26.62900000     16.02700000     27.58500000
O     28.32900000     40.25300000     30.55800000
H     28.02400000     39.44800000     30.97700000
H     27.53700000     40.65100000     30.19700000
O     27.81800000     13.02900000     29.49300000
H     28.64400000     13.48700000     29.64900000
H     27.43500000     13.47600000     28.73900000
O     28.17100000     29.15600000     13.53100000
H     28.79000000     29.78600000     13.89800000
H     28.26300000     29.25300000     12.58300000
O     21.26200000     28.08200000     29.22600000
H     21.76000000     27.44200000     29.73500000
H     20.43500000     28.17200000     29.69800000
O     28.28100000     19.61200000     35.63900000
H     28.20300000     19.13400000     34.81300000
H     29.05500000     19.23700000     36.06000000
O     33.17300000     32.27000000     38.54100000
H     32.97300000     33.18900000     38.36400000
H     32.84000000     32.11800000     39.42600000
O     25.46100000     30.55200000     32.88500000
H     25.35100000     29.73400000     33.36900000
H     26.40800000     30.64100000     32.77600000
O     35.61400000     20.93200000     29.70500000
H     35.94400000     20.33400000     30.37500000
H     36.16800000     20.76600000     28.94200000
O     28.68300000     22.87000000     17.29100000
H     28.84800000     23.00400000     16.35700000
H     29.50600000     23.10900000     17.71700000
O     36.83100000     28.37400000     18.35000000
H     36.51900000     27.73900000     18.99400000
H     37.35700000     28.99200000     18.85700000
O     33.59200000     28.92800000     40.78400000
H     34.48300000     29.03300000     40.44900000
H     33.65600000     28.21300000     41.41600000
O     21.90800000     37.04700000     32.16500000
H     22.33200000     36.37200000     31.63500000
H     21.77800000     37.77900000     31.56100000
O     34.97200000     22.18500000     21.62200000
H     35.16000000     23.05500000     21.27000000
H     34.02000000     22.10000000     21.55600000
O     37.62900000     38.36900000     28.65900000
H     36.68600000     38.26900000     28.52500000
H     37.85600000     37.68000000     29.28300000
O     24.29200000     22.35500000     14.06400000
H     24.16700000     23.19100000     14.51300000
H     23.65700000     22.37000000     13.34800000
O     39.85200000     26.60000000     27.02900000
H     39.10400000     27.13900000     27.28700000
H     40.59600000     26.98300000     27.49500000
O     28.37300000     37.01000000     20.33800000
H     28.56400000     36.29900000     20.95100000
H     29.07100000     37.64800000     20.48700000
O     32.25800000     32.47700000     33.07200000
H     31.66200000     32.65300000     33.80000000
H     33.11600000     32.37700000     33.48300000
O     34.08600000     30.34500000     21.91600000
H     33.15200000     30.47500000     21.75300000
H     34.34400000     31.09600000     22.45100000
O     33.65500000     22.60900000     29.89100000
H     34.35100000     21.97500000     29.71800000
H     34.00800000     23.44400000     29.58300000
O     23.74200000     24.71400000     26.69900000
H     24.62600000     24.63800000     26.34000000
H     23.87000000     25.05500000     27.58400000
O     15.66500000     28.86600000     24.85800000
H     15.19500000     28.04200000     24.98700000
H     15.06600000     29.53700000     25.18600000
O     19.46600000     26.14300000     18.38200000
H     19.73100000     25.70800000     19.19200000
H     20.23900000     26.09400000     17.82000000
O     29.21800000     29.36800000     35.39900000
H     30.02400000     29.10600000     35.84400000
H     28.74400000     28.54800000     35.26000000
O     32.96300000     24.68700000     22.15500000
H     32.47900000     25.27700000     22.73300000
H     33.46300000     24.12600000     22.74700000
O     38.54800000     34.71900000     21.92800000
H     38.40400000     35.33000000     21.20600000
H     38.22500000     33.88000000     21.60100000
O     16.78900000     18.21200000     31.54600000
H     15.86100000     18.27500000     31.77100000
H     17.17800000     19.00900000     31.90800000
O     19.64100000     35.84300000     30.48800000
H     19.39500000     35.63300000     31.38800000
H     19.52800000     36.79100000     30.42300000
O     28.34400000     30.34600000     32.99400000
H     29.18600000     30.29600000     32.54300000
H     28.54100000     30.10400000     33.89900000
O     32.19400000     39.85900000     29.77900000
H     32.38600000     40.74900000     30.07400000
H     31.91200000     39.96300000     28.87100000
O     29.11900000     34.32500000     32.83100000
H     29.43400000     35.22600000     32.90600000
H     28.79500000     34.11100000     33.70600000
O     23.13100000     19.73500000     34.77500000
H     22.34800000     19.21200000     34.94700000
H     23.71800000     19.53600000     35.50500000
O     19.34000000     29.44200000     39.24300000
H     18.63000000     29.03100000     39.73600000
H     19.26600000     29.07200000     38.36300000
O     21.01000000     23.26700000     29.46200000
H     20.17500000     23.73400000     29.46900000
H     21.13500000     23.01300000     28.54700000
O     33.45400000     34.59900000     17.97600000
H     32.85400000     35.25900000     18.32400000
H     32.98400000     33.77200000     18.07600000
O     26.99400000     32.39700000     28.19500000
H     27.75800000     32.34500000     28.76900000
H     26.57100000     31.54200000     28.28100000
O     32.74400000     21.00800000     26.92100000
H     32.83100000     20.34500000     27.60600000
H     33.60900000     21.41700000     26.87200000
O     20.90100000     33.79900000     20.54700000
H     21.22500000     34.69900000     20.51700000
H     19.99700000     33.87900000     20.85200000
O     15.65100000     33.89000000     31.72800000
H     16.01800000     33.26900000     31.09900000
H     14.96200000     33.39900000     32.17600000
O     31.96800000     23.60300000     37.97600000
H     32.25700000     22.87500000     37.42400000
H     32.07100000     23.28000000     38.87100000
O     17.09600000     26.20800000     35.07200000
H     16.39600000     25.58000000     34.89600000
H     17.77900000     25.99100000     34.43600000
O     35.79100000     18.74400000     34.09800000
H     35.70200000     18.13400000     33.36600000
H     36.06800000     19.56600000     33.69300000
O     39.67200000     37.01300000     22.90300000
H     39.18500000     36.24900000     22.59400000
H     39.21500000     37.28100000     23.70100000
O     37.88900000     33.28600000     29.84000000
H     37.13200000     33.18300000     29.26400000
H     38.54100000     32.67800000     29.49200000
O     35.91000000     16.89800000     25.45100000
H     35.43500000     17.16300000     24.66300000
H     36.70400000     17.43300000     25.44400000
O     35.75300000     28.67100000     38.28500000
H     36.31900000     28.48900000     39.03500000
H     35.43000000     27.81200000     38.01300000
O     23.70600000     40.01600000     20.13400000
H     23.88300000     39.07500000     20.13000000
H     24.35800000     40.38000000     20.73200000
O     30.89700000     22.87300000     26.80700000
H     30.92500000     23.03300000     27.75000000
H     31.54100000     22.18000000     26.66200000
O     27.65400000     25.74200000     22.02800000
H     27.99400000     26.37100000     22.66400000
H     27.53600000     26.25100000     21.22600000
O     18.90500000     28.21000000     36.65500000
H     19.61100000     27.56300000     36.64700000
H     18.28700000     27.89900000     35.99400000
O     30.97000000     30.78600000     25.14600000
H     30.50000000     31.53400000     25.51300000
H     30.55100000     30.63300000     24.29900000
O     31.48900000     26.15100000     38.02500000
H     31.72100000     25.27800000     37.70800000
H     30.90300000     25.99000000     38.76500000
O     25.52300000     17.53800000     30.41000000
H     25.15300000     16.76200000     29.99000000
H     24.98400000     17.66800000     31.19000000
O     31.81900000     34.71200000     38.57900000
H     31.47500000     34.60500000     39.46600000
H     32.32900000     35.52200000     38.61600000
O     23.97200000     36.48900000     27.70100000
H     23.53300000     36.66400000     26.86900000
H     23.28700000     36.59900000     28.36100000
O     22.99000000     14.96600000     30.22800000
H     22.44000000     15.41700000     30.86800000
H     23.88100000     15.06500000     30.56500000
O     18.54900000     26.22100000     30.44700000
H     17.68800000     25.80800000     30.50700000
H     18.90600000     25.91300000     29.61300000
O     38.29500000     31.41000000     18.52100000
H     38.95000000     30.88300000     18.06300000
H     38.52600000     32.31500000     18.30900000
O     29.16000000     32.37100000     30.22300000
H     29.64400000     33.01700000     29.70800000
H     29.66800000     32.27800000     31.02900000
O     36.59800000     38.72100000     34.26000000
H     36.59100000     39.12200000     33.39100000
H     36.70200000     37.78400000     34.09200000
O     27.73000000     25.34800000     31.76700000
H     27.13000000     24.67200000     32.08400000
H     28.56400000     24.89300000     31.65100000
O     26.98900000     21.56700000     26.76100000
H     27.33600000     22.15200000     27.43400000
H     27.34200000     21.91000000     25.94000000
O     27.46600000     34.84600000     38.63700000
H     28.12400000     35.47300000     38.93800000
H     27.42700000     34.18800000     39.33100000
O     20.33700000     21.55900000     20.92900000
H     21.08200000     21.27600000     21.46000000
H     20.72900000     21.85900000     20.10900000
O     31.27800000     38.39100000     37.73200000
H     31.89200000     37.74400000     38.07900000
H     31.56000000     39.22000000     38.11700000
O     21.73200000     35.92200000     36.17700000
H     21.23400000     35.60200000     36.92900000
H     21.14600000     36.54700000     35.74900000
O     31.18500000     26.91000000     30.17600000
H     31.67400000     26.38000000     29.54700000
H     31.85700000     27.32200000     30.71800000
O     25.82400000     21.74300000     40.68600000
H     26.57100000     21.77400000     41.28400000
H     25.20700000     22.38400000     41.04100000
O     18.23000000     38.23900000     30.97200000
H     17.51100000     37.96200000     31.54000000
H     18.32200000     39.17600000     31.14100000
O     23.35800000     27.46000000     38.69900000
H     23.39100000     27.04300000     37.83900000
H     24.15800000     27.17000000     39.13700000
O     25.50900000     24.06100000     21.56700000
H     25.91200000     23.44900000     20.95100000
H     26.14800000     24.76900000     21.65400000
O     21.78400000     40.39700000     22.45100000
H     22.42700000     40.65000000     23.11400000
H     22.25300000     39.78700000     21.88200000
O     28.06700000     18.13000000     25.44900000
H     27.68900000     17.30100000     25.15700000
H     27.32900000     18.61300000     25.82000000
O     22.62600000     36.91500000     25.20400000
H     22.96700000     37.33400000     24.41500000
H     21.71300000     36.71600000     24.99500000
O     36.26500000     26.13300000     33.38500000
H     36.22800000     25.26200000     32.99000000
H     35.68700000     26.07700000     34.14600000
O     30.99600000     29.74400000     29.51400000
H     30.75900000     28.82600000     29.38100000
H     30.79900000     29.91200000     30.43600000
O     27.97600000     17.87800000     33.15800000
H     27.11100000     18.20500000     32.91100000
H     28.32400000     17.49000000     32.35500000
O     27.87500000     25.41800000     14.80000000
H     27.51300000     24.71400000     14.26200000
H     27.10700000     25.88200000     15.13500000
O     28.43800000     28.65900000     42.66300000
H     28.09700000     29.46200000     42.27000000
H     28.72400000     28.13000000     41.91800000
O     41.00300000     28.48200000     23.14500000
H     41.01600000     27.54100000     23.32200000
H     40.69300000     28.55200000     22.24200000
O     31.89300000     32.01200000     22.03400000
H     31.44000000     32.81100000     21.76600000
H     32.35800000     32.25600000     22.83400000
O     18.50300000     31.75400000     24.14200000
H     18.26200000     30.83100000     24.05900000
H     19.27300000     31.75100000     24.71100000
O     20.53100000     29.38900000     23.14300000
H     19.80400000     28.77800000     23.26400000
H     20.56600000     29.88500000     23.96100000
O     24.10600000     23.43400000     41.43300000
H     23.45800000     23.61900000     42.11200000
H     23.68100000     23.70000000     40.61700000
O     23.80700000     32.59900000     32.68500000
H     24.44700000     31.89300000     32.77500000
H     24.16500000     33.31700000     33.20600000
O     19.27700000     20.78400000     26.41000000
H     19.46200000     21.71600000     26.29300000
H     19.86900000     20.34300000     25.80000000
O     25.33100000     37.62900000     17.60200000
H     25.26300000     36.86400000     18.17300000
H     26.24000000     37.62500000     17.30200000
O     32.61700000     18.36500000     38.26500000
H     33.14300000     17.66800000     38.65800000
H     32.95900000     18.45000000     37.37500000
O     22.30600000     29.23200000     32.99200000
H     22.37800000     29.82000000     32.24000000
H     22.77900000     29.68000000     33.69400000
O     19.70100000     19.03600000     20.05500000
H     19.73400000     19.76800000     20.67100000
H     19.61600000     19.45000000     19.19600000
O     29.13700000     13.51000000     23.64200000
H     29.35900000     12.60300000     23.85300000
H     28.70700000     13.84100000     24.43100000
O     24.99000000     30.30600000     28.42800000
H     24.51300000     31.01700000     28.85500000
H     24.93600000     29.57600000     29.04400000
O     33.25500000     28.97800000     19.09900000
H     32.57800000     28.61400000     18.52800000
H     32.99500000     28.71100000     19.98000000
O     20.99700000     18.23800000     35.40200000
H     20.46100000     17.97700000     36.15100000
H     20.64500000     17.73500000     34.66800000
O     32.04400000     31.85400000     17.89800000
H     31.55400000     31.39300000     18.57900000
H     32.94800000     31.55900000     18.01200000
O     30.07300000     26.45200000     12.73600000
H     29.60700000     27.05000000     13.32100000
H     29.47100000     26.31400000     12.00500000
O     38.28800000     18.40800000     25.48400000
H     38.23700000     18.89000000     24.65800000
H     39.21600000     18.43200000     25.71900000
O     15.96500000     25.12500000     30.31800000
H     15.48200000     24.40400000     30.72200000
H     15.93100000     24.94100000     29.38000000
O     29.78400000     19.32100000     18.15300000
H     30.43000000     18.70600000     17.80600000
H     29.92300000     20.12400000     17.65100000
O     29.12800000     36.71600000     28.54800000
H     29.14300000     37.57500000     28.12500000
H     28.29500000     36.32900000     28.27700000
O     38.20300000     32.72900000     36.07800000
H     37.69200000     31.97800000     36.38000000
H     37.84100000     32.93500000     35.21600000
O     42.09400000     24.27900000     28.18000000
H     41.76700000     25.17300000     28.28100000
H     41.74200000     23.80700000     28.93400000
O     27.61600000     27.16800000     34.82300000
H     28.15600000     26.53300000     34.35300000
H     27.46200000     26.76500000     35.67800000
O     38.73300000     34.16800000     33.49000000
H     38.08200000     33.91800000     32.83500000
H     39.23200000     33.36700000     33.65200000
O     26.25200000     27.57200000     15.24600000
H     25.50600000     27.91100000     14.75200000
H     27.00200000     27.69900000     14.66500000
O     32.60800000     31.55400000     28.28500000
H     32.22200000     30.99700000     28.96100000
H     31.85900000     31.98900000     27.87700000
O     30.40500000     22.18600000     34.30300000
H     29.95800000     22.75200000     33.67300000
H     30.26500000     21.29900000     33.97000000
O     19.64700000     38.02300000     24.59000000
H     19.77000000     37.96900000     25.53800000
H     19.34300000     38.91700000     24.43800000
O     36.09200000     37.97800000     25.10900000
H     35.21900000     37.76500000     24.78000000
H     36.48100000     37.13000000     25.32400000
O     35.24200000     15.87900000     32.74000000
H     34.77000000     15.06600000     32.56100000
H     36.04600000     15.80800000     32.22500000
O     19.60100000     22.77000000     32.67700000
H     18.93300000     23.35900000     33.02600000
H     19.13600000     22.23500000     32.03300000
O     30.54100000     25.43100000     40.68400000
H     30.88300000     24.53700000     40.70900000
H     29.73800000     25.39400000     41.20400000
O     34.19700000     16.70600000     20.86800000
H     34.08300000     15.75600000     20.83900000
H     34.39300000     16.89500000     21.78600000
O     24.77400000     34.09900000     23.69900000
H     24.18700000     34.80800000     23.96300000
H     24.21400000     33.32300000     23.66600000
O     40.41500000     21.25000000     26.52600000
H     39.74300000     21.65900000     25.98100000
H     41.21400000     21.73900000     26.32800000
O     17.88100000     29.79700000     32.81900000
H     17.02900000     29.67300000     33.23800000
H     18.38800000     30.30400000     33.45300000
O     39.36800000     21.15500000     29.05800000
H     39.91500000     21.13100000     28.27300000
H     39.86000000     20.65300000     29.70900000
O     20.17900000     28.95100000     20.14400000
H     19.24200000     28.87500000     20.32300000
H     20.60300000     28.59600000     20.92500000
O     29.96900000     18.40000000     27.49100000
H     29.35600000     18.38800000     26.75600000
H     29.66500000     19.12000000     28.04400000
O     43.58900000     29.12300000     24.31900000
H     43.83400000     29.11200000     25.24500000
H     42.69300000     28.78600000     24.30400000
O     39.18200000     29.50400000     24.75600000
H     39.92100000     29.26800000     24.19600000
H     38.46800000     28.93700000     24.46300000
O     28.97400000     36.17800000     25.37600000
H     28.25200000     35.59000000     25.59800000
H     29.25100000     35.89900000     24.50300000
O     23.06400000     38.20500000     37.47300000
H     23.36600000     37.33900000     37.20000000
H     23.63700000     38.44000000     38.20300000
O     28.08200000     30.99000000     37.36200000
H     28.37300000     30.50800000     36.58900000
H     27.26700000     31.41100000     37.09000000
O     30.59000000     24.32900000     14.30800000
H     30.38900000     25.10400000     13.78300000
H     30.39000000     24.59000000     15.20700000
O     32.21300000     16.47300000     35.05300000
H     31.76200000     16.36100000     34.21600000
H     31.84700000     15.79000000     35.61500000
O     30.15600000     24.65400000     31.32300000
H     30.34300000     25.41000000     30.76600000
H     30.92100000     24.58300000     31.89500000
O     21.65400000     21.65300000     31.39800000
H     21.07200000     22.06300000     32.03700000
H     21.45700000     22.09700000     30.57300000
O     37.05900000     23.39200000     34.99900000
H     37.00500000     22.66200000     35.61600000
H     37.14100000     24.16800000     35.55300000
O     25.26000000     20.59400000     21.24000000
H     25.91500000     20.92400000     20.62500000
H     25.72700000     19.93900000     21.75900000
O     35.41400000     26.48500000     20.65700000
H     34.58600000     26.39900000     20.18500000
H     35.91300000     25.70600000     20.41000000
O     29.49100000     27.95300000     21.73300000
H     29.96400000     28.61800000     21.23300000
H     28.62400000     28.33300000     21.87800000
O     26.46100000     23.82100000     28.44600000
H     27.12600000     23.68300000     29.12000000
H     25.70600000     24.16900000     28.92000000
O     23.04600000     32.40800000     19.42700000
H     23.32800000     32.10500000     20.29100000
H     22.29000000     32.96700000     19.60400000
O     25.17300000     34.28500000     34.58200000
H     26.01400000     34.17200000     35.02500000
H     25.18600000     35.19000000     34.27000000
O     31.11700000     19.94500000     24.09000000
H     30.37500000     19.43500000     23.76500000
H     31.53600000     19.37400000     24.73400000
O     22.93000000     24.11700000     20.71700000
H     23.79600000     24.29800000     21.08400000
H     22.32100000     24.54900000     21.31600000
O     21.30700000     33.59000000     33.27500000
H     20.94700000     33.04600000     32.57500000
H     21.97700000     33.04300000     33.68500000
O     19.96700000     17.55200000     32.40700000
H     19.53000000     16.74700000     32.13000000
H     19.25800000     18.11500000     32.72000000
O     34.28700000     25.73600000     35.66900000
H     33.33600000     25.62700000     35.66300000
H     34.50500000     25.89500000     36.58700000
O     25.32400000     30.72800000     24.22500000
H     25.25100000     29.95000000     24.77800000
H     24.89700000     30.47900000     23.40500000
O     27.42900000     32.20100000     23.50600000
H     26.74700000     31.71900000     23.97400000
H     28.14700000     32.27100000     24.13500000
O     24.80900000     16.86200000     27.71900000
H     25.24900000     17.71100000     27.75400000
H     23.89900000     17.05300000     27.94400000
O     16.83500000     32.46500000     29.77900000
H     17.54600000     32.49400000     29.13900000
H     16.54300000     31.55400000     29.77300000
O     21.73800000     26.91800000     16.02100000
H     21.82400000     26.74600000     15.08400000
H     22.63200000     26.85600000     16.35900000
O     35.73600000     23.36000000     32.62300000
H     35.80400000     23.47900000     33.57100000
H     36.14500000     22.50900000     32.45900000
O     18.43000000     27.22400000     22.58700000
H     17.80200000     27.93800000     22.70200000
H     17.97200000     26.58800000     22.03800000
O     33.80000000     33.11600000     30.61400000
H     33.50200000     33.49900000     29.78900000
H     33.08100000     32.54700000     30.88800000
O     30.90200000     22.98200000     19.07400000
H     31.61600000     22.35100000     19.16200000
H     30.48700000     22.99700000     19.93700000
O     31.77800000     39.63300000     23.99600000
H     32.11200000     39.81100000     24.87500000
H     32.44400000     39.99000000     23.40900000
O     19.85600000     32.45400000     31.27500000
H     19.20900000     33.01800000     30.85200000
H     19.40400000     31.61900000     31.39600000
O     35.85300000     32.42700000     40.40200000
H     35.64700000     32.76800000     39.53200000
H     36.61600000     31.86500000     40.26500000
O     42.85000000     25.92300000     23.07100000
H     43.48900000     25.22900000     23.23400000
H     42.08400000     25.66900000     23.58700000
O     28.12200000     25.54900000     19.35300000
H     27.63600000     24.77600000     19.06700000
H     27.46400000     26.24400000     19.39300000
O     30.31100000     22.63100000     24.16300000
H     30.72600000     21.77100000     24.09500000
H     30.42100000     22.87900000     25.08100000
O     20.73800000     25.53300000     22.74700000
H     20.08700000     26.23000000     22.66300000
H     21.38100000     25.87900000     23.36600000
O     29.41900000     36.53500000     39.44100000
H     30.31500000     36.86200000     39.36500000
H     29.29300000     36.39300000     40.37900000
O     32.75900000     21.62000000     35.81900000
H     33.07400000     20.72400000     35.69900000
H     32.12000000     21.74500000     35.11700000
O     29.67200000     38.92000000     21.96900000
H     28.78100000     39.03600000     22.29900000
H     30.21400000     38.86800000     22.75600000
O     34.00900000     26.50400000     31.39900000
H     34.51300000     25.72800000     31.64400000
H     33.68000000     26.84800000     32.22900000
O     38.54200000     20.07400000     23.14400000
H     37.78700000     19.97000000     22.56400000
H     38.92500000     20.91400000     22.89200000
O     40.47200000     26.04600000     24.40300000
H     39.53800000     26.24900000     24.34800000
H     40.68700000     26.15600000     25.32900000
O     27.72700000     31.75200000     17.11700000
H     27.79700000     32.52000000     16.55000000
H     27.69500000     32.11100000     18.00400000
O     37.61800000     36.35500000     19.77800000
H     37.62100000     35.46900000     19.41500000
H     38.34000000     36.79900000     19.33300000
O     20.04300000     23.26100000     24.09800000
H     19.99800000     24.04500000     23.55000000
H     20.34100000     23.58100000     24.95000000
O     21.77600000     31.46600000     35.79300000
H     22.13200000     30.65000000     36.14600000
H     22.37600000     32.14400000     36.10400000
O     18.44200000     16.40200000     29.56100000
H     17.82700000     17.05500000     29.89400000
H     18.83900000     16.81400000     28.79400000
O     34.44700000     26.20800000     38.41300000
H     34.53200000     25.25500000     38.38700000
H     33.83900000     26.37500000     39.13400000
O     34.02200000     37.87700000     23.14200000
H     33.66700000     38.76600000     23.13100000
H     34.77600000     37.91200000     22.55500000
O     28.03900000     31.51300000     20.70400000
H     28.39300000     31.68700000     21.57600000
H     27.67900000     32.35300000     20.41900000
O     28.94600000     34.90700000     22.92100000
H     29.59100000     34.62100000     22.27300000
H     28.89600000     34.18200000     23.54500000
O     21.46100000     28.67500000     26.84100000
H     21.41500000     28.46000000     27.77300000
H     21.73200000     27.85900000     26.42100000
O     16.40000000     25.15600000     24.02700000
H     15.52800000     25.50700000     24.20400000
H     16.80800000     25.08000000     24.88900000
O     20.35500000     20.85300000     36.39800000
H     19.59500000     21.04500000     35.85000000
H     20.71000000     20.03900000     36.04000000
O     27.81600000     25.23900000     41.76400000
H     27.24200000     24.94300000     42.47100000
H     27.60200000     24.66800000     41.02600000
O     34.69100000     31.16100000     18.29900000
H     35.61200000     30.96000000     18.13300000
H     34.32500000     30.34500000     18.63900000
O     29.17400000     32.95400000     25.29800000
H     29.88800000     33.27700000     25.84800000
H     28.38300000     33.32100000     25.69200000
O     34.95200000     18.45600000     23.02100000
H     35.31100000     19.24000000     22.60500000
H     34.10200000     18.73300000     23.36200000
O     22.18300000     39.35400000     27.58800000
H     21.49100000     38.75300000     27.31100000
H     22.29500000     39.94900000     26.84600000
O     24.32800000     15.96300000     22.04200000
H     23.48400000     16.38000000     21.87100000
H     24.50800000     15.45100000     21.25400000
O     20.49800000     23.28600000     16.76000000
H     21.17700000     23.10600000     17.41000000
H     19.70800000     22.88100000     17.12100000
O     25.36900000     38.04900000     31.58900000
H     26.28500000     37.77700000     31.53800000
H     24.87300000     37.27100000     31.33400000
O     28.52000000     16.59900000     17.62000000
H     28.10400000     17.45800000     17.55600000
H     27.84700000     15.98400000     17.32800000
O     24.26600000     26.34800000     36.26700000
H     25.08300000     26.47900000     36.74900000
H     24.35300000     25.47900000     35.87700000
O     40.92600000     30.77300000     35.28900000
H     40.42200000     31.13200000     34.55900000
H     41.79000000     31.17600000     35.20600000
O     20.23700000     25.76900000     36.03200000
H     20.80300000     25.00900000     36.17200000
H     20.22100000     25.88400000     35.08100000
O     21.16000000     27.85800000     40.73700000
H     20.72200000     28.40100000     40.08100000
H     21.83100000     27.38300000     40.24600000
O     31.77700000     28.27700000     36.41400000
H     31.53100000     27.65400000     37.09900000
H     32.56900000     28.69900000     36.74700000
O     24.87300000     38.72100000     24.25500000
H     24.48500000     39.58500000     24.12000000
H     25.10800000     38.70500000     25.18300000
O     29.06100000     15.98400000     20.42200000
H     28.30600000     16.42900000     20.80600000
H     29.00800000     16.18400000     19.48800000
O     31.15300000     27.82000000     17.83000000
H     30.99800000     27.12200000     18.46600000
H     30.34200000     28.32800000     17.82800000
O     35.41000000     22.11400000     36.83900000
H     35.31500000     22.67800000     37.60600000
H     34.51800000     22.00500000     36.50800000
O     24.86100000     28.39500000     30.57600000
H     25.78700000     28.42400000     30.81600000
H     24.39600000     28.40500000     31.41200000
O     26.07100000     33.07700000     40.62900000
H     25.48600000     33.59900000     40.08000000
H     25.49000000     32.64800000     41.25800000
O     25.05200000     28.18900000     34.06200000
H     24.45700000     27.57500000     34.49200000
H     25.92700000     27.87700000     34.29400000
O     39.79200000     32.14200000     26.08000000
H     39.89000000     31.54900000     25.33500000
H     39.48500000     32.96300000     25.69500000
O     20.98600000     19.16900000     17.53500000
H     21.40100000     18.32300000     17.70200000
H     21.71600000     19.78500000     17.46500000
O     18.44600000     35.72000000     23.66600000
H     18.99000000     36.42200000     24.02300000
H     17.64700000     35.74400000     24.19200000
O     35.41800000     22.20300000     26.92000000
H     36.02200000     21.51900000     27.20900000
H     35.53600000     22.24300000     25.97100000
O     23.95200000     16.22100000     33.06700000
H     23.06600000     15.92200000     33.27300000
H     24.52200000     15.52600000     33.39400000
O     34.84200000     23.06700000     39.77400000
H     34.99900000     23.54600000     40.58700000
H     34.99800000     22.15000000     40.00100000
O     34.07100000     37.63600000     18.51300000
H     33.54000000     38.06400000     17.84200000
H     34.71300000     37.12300000     18.02200000
O     34.77000000     38.13400000     29.15100000
H     34.69200000     38.42200000     30.06000000
H     34.02700000     38.54100000     28.70500000
O     17.84000000     21.60400000     35.08400000
H     17.11800000     21.38400000     35.67200000
H     17.44000000     22.15500000     34.41000000
O     28.60400000     38.71300000     26.48500000
H     28.88500000     37.89700000     26.07100000
H     28.36000000     39.28100000     25.75500000
O     41.93600000     27.59400000     28.13600000
H     42.62000000     28.22100000     27.90000000
H     42.33200000     27.05200000     28.81800000
O     39.94600000     28.29100000     34.49000000
H     40.09800000     29.17100000     34.83500000
H     40.65400000     27.76300000     34.85900000
O     22.81200000     23.88800000     38.95200000
H     22.73400000     24.27000000     38.07800000
H     21.95700000     24.03600000     39.35600000
O     35.94000000     40.63800000     25.33200000
H     35.91600000     39.68800000     25.22000000
H     35.27200000     40.81900000     25.99300000
O     13.03200000     29.81000000     31.39200000
H     12.42400000     29.60600000     30.68200000
H     13.86600000     29.43400000     31.11000000
O     24.19300000     19.43900000     37.21800000
H     24.52300000     20.28600000     37.51600000
H     23.49200000     19.22400000     37.83400000
O     27.20000000     33.88400000     19.34200000
H     27.04800000     34.28300000     20.19800000
H     26.32700000     33.79500000     18.96000000
O     30.38400000     36.17800000     35.83100000
H     30.38000000     36.44600000     36.75000000
H     30.14100000     35.25300000     35.85000000
O     23.68100000     36.93800000     34.08300000
H     23.13900000     36.81000000     33.30400000
H     23.15200000     36.59500000     34.80200000
O     24.58500000     28.79400000     25.90800000
H     23.67700000     29.09400000     25.92700000
H     24.92900000     29.01200000     26.77400000
O     13.53600000     29.53700000     27.72200000
H     12.83800000     29.36300000     28.35300000
H     13.08400000     29.88400000     26.95300000
O     20.07600000     18.40500000     27.69900000
H     20.95200000     18.49000000     27.32400000
H     19.57400000     19.11500000     27.29800000
O     24.02900000     32.26800000     29.88100000
H     24.25400000     32.65700000     30.72600000
H     23.20100000     31.81500000     30.03900000
O     28.24100000     15.42000000     34.93800000
H     27.89700000     16.18600000     34.47700000
H     28.66500000     15.78000000     35.71700000
O     30.80900000     34.48000000     28.91000000
H     31.28200000     34.59500000     28.08600000
H     30.34900000     35.30900000     29.04000000
O     37.47800000     19.03500000     30.56600000
H     37.99500000     18.24300000     30.71400000
H     37.60700000     19.23500000     29.63800000
O     36.36500000     24.57000000     15.15000000
H     36.56200000     25.50600000     15.18100000
H     35.53600000     24.48300000     15.61900000
O     24.44300000     33.51200000     27.18600000
H     24.27500000     34.33900000     27.63900000
H     24.85300000     32.95500000     27.84700000
O     32.70200000     31.37000000     41.65200000
H     33.08700000     30.51700000     41.85000000
H     32.71400000     31.83900000     42.48600000
O     24.70500000     18.34900000     19.39800000
H     24.67300000     18.82000000     20.23000000
H     25.62100000     18.08900000     19.30400000
O     39.60600000     24.55100000     32.86100000
H     39.12200000     24.85700000     33.62800000
H     39.72000000     23.61200000     33.00800000
O     35.47400000     37.48000000     20.94500000
H     35.11300000     37.55600000     20.06200000
H     36.35400000     37.12500000     20.81400000
O     32.60400000     35.48300000     23.82600000
H     33.18100000     36.24400000     23.75800000
H     31.92600000     35.63600000     23.16800000
O     27.39000000     39.34800000     23.04900000
H     27.07600000     39.99200000     22.41500000
H     26.60300000     39.06600000     23.51500000
O     24.43000000     24.80700000     14.96400000
H     24.65400000     25.23700000     15.78900000
H     24.22600000     25.52700000     14.36600000
O     22.52100000     20.73800000     22.25900000
H     22.23800000     21.23200000     23.02800000
H     23.47500000     20.81600000     22.26100000
O     31.64100000     38.94800000     32.45400000
H     32.56000000     38.69100000     32.38200000
H     31.44300000     39.37000000     31.61900000
O     23.85600000     35.10500000     38.61000000
H     23.49800000     34.75500000     37.79400000
H     23.19300000     34.90400000     39.27000000
O     33.20700000     25.33100000     19.54400000
H     32.31800000     25.64500000     19.71100000
H     33.48000000     24.93200000     20.37000000
O     39.98200000     36.38600000     32.92000000
H     39.60800000     35.61600000     33.34800000
H     39.48700000     36.47000000     32.10400000
O     36.70500000     30.43500000     34.01000000
H     36.92800000     29.64500000     34.50200000
H     36.14100000     30.12500000     33.30100000
O     18.85100000     24.95600000     28.11500000
H     17.94900000     24.72000000     27.90100000
H     19.24500000     25.18700000     27.27400000
O     34.03400000     18.01900000     31.40900000
H     34.75400000     18.57000000     31.10200000
H     34.45800000     17.21200000     31.70200000
O     28.81100000     29.16000000     17.94900000
H     28.09800000     28.59700000     17.64800000
H     28.58700000     30.02900000     17.61400000
O     24.65200000     31.33500000     16.81200000
H     23.70100000     31.43600000     16.84800000
H     24.99200000     32.22000000     16.93900000
O     13.79700000     26.81000000     24.69900000
H     13.04700000     26.25700000     24.92100000
H     13.67100000     27.02500000     23.77500000
O     27.27600000     38.24100000     35.59000000
H     26.76500000     37.74200000     36.22800000
H     26.62100000     38.69400000     35.05900000
O     16.53600000     29.90300000     21.95700000
H     15.80100000     30.49100000     21.78200000
H     16.18200000     29.24700000     22.55600000
O     17.37700000     27.37000000     19.65700000
H     18.01600000     26.93800000     19.09000000
H     17.34000000     28.27000000     19.33300000
O     37.05900000     26.98300000     16.03400000
H     37.35000000     26.50900000     16.81300000
H     37.04800000     27.90200000     16.30300000
O     29.86000000     37.06000000     33.04600000
H     30.31300000     37.86800000     32.80700000
H     29.76100000     37.11300000     33.99700000
O     20.85500000     32.49200000     15.46600000
H     21.79500000     32.67400000     15.50000000
H     20.54300000     32.98700000     14.70800000
O     18.93700000     25.67800000     33.23600000
H     18.68500000     25.95300000     32.35400000
H     19.79800000     25.27600000     33.12500000
O     35.74500000     21.86900000     18.49000000
H     35.55500000     21.18000000     17.85200000
H     36.59400000     22.21800000     18.21900000
O     32.80800000     27.12100000     15.53600000
H     32.22200000     27.03900000     16.28900000
H     33.16400000     28.00700000     15.60500000
O     27.57400000     19.16300000     38.49800000
H     27.88200000     19.39700000     37.62200000
H     28.35100000     19.23000000     39.05200000
O     31.55300000     25.07200000     34.20700000
H     32.16700000     24.51900000     33.72300000
H     31.23100000     24.51300000     34.91300000
O     27.22900000     23.91900000     38.19700000
H     26.60300000     23.67100000     37.51600000
H     28.08500000     23.70700000     37.82500000
O     26.83600000     33.73500000     31.54600000
H     27.64100000     33.85700000     32.05000000
H     26.70800000     32.78700000     31.52400000
O     16.62000000     30.04500000     35.53900000
H     16.14300000     30.73900000     35.99400000
H     17.53600000     30.18500000     35.78000000
O     29.38900000     23.09600000     36.70500000
H     30.21300000     23.19200000     37.18300000
H     29.64300000     22.72000000     35.86200000
O     30.55200000     26.22500000     19.83400000
H     29.66600000     26.01100000     19.54200000
H     30.48700000     26.26600000     20.78800000
O     30.96000000     34.36300000     21.26900000
H     31.64000000     35.03600000     21.26200000
H     30.63400000     34.34100000     20.37000000
O     25.80800000     34.03000000     16.51900000
H     25.78800000     34.64700000     17.25000000
H     26.73600000     33.94800000     16.29900000
O     36.47900000     20.13900000     21.40000000
H     36.35800000     19.90300000     20.48000000
H     36.03100000     20.98000000     21.49300000
O     36.32300000     33.52100000     32.91000000
H     36.28500000     33.39700000     31.96100000
H     35.65600000     34.18300000     33.09200000
O     17.94000000     30.25700000     19.36100000
H     18.74100000     30.51600000     18.90500000
H     17.95000000     30.76600000     20.17200000
O     26.43800000     36.02400000     28.63300000
H     25.50500000     36.15900000     28.46800000
H     26.55800000     35.07600000     28.57400000
O     43.11000000     26.13500000     30.24100000
H     42.58200000     26.10400000     31.03900000
H     43.86100000     25.57200000     30.42900000
O     24.37900000     40.34800000     30.62600000
H     23.53100000     40.05100000     30.29700000
H     24.76400000     39.57200000     31.03300000
O     29.83000000     28.08900000     40.33800000
H     30.35800000     28.48100000     39.64200000
H     30.22400000     27.22900000     40.48200000
O     19.05300000     20.54500000     31.10800000
H     18.43600000     21.01300000     30.54500000
H     19.88800000     20.59700000     30.64200000
O     37.93500000     29.08300000     27.29000000
H     38.42400000     29.34600000     26.51000000
H     37.03800000     28.95900000     26.98000000
O     40.87900000     31.80800000     30.63800000
H     40.26900000     31.48100000     29.97700000
H     41.74400000     31.69000000     30.24500000
O     32.84700000     17.92600000     25.30000000
H     32.56000000     17.09000000     25.66900000
H     33.25900000     18.38300000     26.03400000
O     35.75500000     29.00000000     25.67000000
H     34.98500000     29.40300000     26.07100000
H     35.61300000     29.09500000     24.72800000
O     30.30800000     15.62800000     27.09600000
H     29.39300000     15.34500000     27.07600000
H     30.26400000     16.58400000     27.07200000
O     36.59900000     24.03100000     20.46900000
H     36.77600000     23.43900000     19.73800000
H     37.46300000     24.33200000     20.74900000
O     23.46800000     18.46600000     24.02900000
H     23.38500000     17.56200000     23.72600000
H     24.38000000     18.69600000     23.84900000
O     38.06000000     28.06900000     32.51600000
H     38.70800000     28.10400000     33.22000000
H     37.49000000     27.33700000     32.75000000
O     21.63400000     22.80600000     26.86300000
H     21.91200000     21.89400000     26.77600000
H     22.44600000     23.31100000     26.80200000
O     24.67200000     35.12300000     18.94200000
H     23.85000000     34.68500000     19.16400000
H     25.03300000     35.39600000     19.78500000
O     31.09700000     15.97700000     32.50300000
H     30.77400000     16.37700000     31.69500000
H     31.86300000     15.47200000     32.23200000
O     35.81400000     28.41100000     22.62300000
H     35.12000000     29.03800000     22.41900000
H     35.59800000     27.63700000     22.10300000
O     34.80100000     29.25800000     15.40200000
H     35.71700000     29.52900000     15.33600000
H     34.51000000     29.60100000     16.24700000
O     26.54000000     21.44100000     16.34000000
H     27.04500000     22.15900000     16.72300000
H     25.62700000     21.66900000     16.51700000
O     31.49500000     19.34700000     30.98800000
H     32.12000000     18.90300000     31.56300000
H     31.37700000     18.74600000     30.25300000
O     26.89100000     29.22200000     22.34900000
H     26.96800000     29.43800000     23.27800000
H     27.03800000     30.05300000     21.89700000
O     23.89500000     41.31900000     24.14400000
H     23.42300000     41.55400000     24.94200000
H     24.13400000     42.15800000     23.75000000
O     24.70500000     22.95500000     24.03500000
H     24.99300000     23.01400000     23.12400000
H     25.01800000     23.76400000     24.43900000
O     20.07400000     16.52300000     24.49700000
H     19.89800000     17.12500000     23.77400000
H     20.96200000     16.20500000     24.33300000
O     23.38000000     28.95800000     19.77200000
H     22.69000000     29.24900000     19.17700000
H     24.17600000     28.96800000     19.23900000
O     30.24100000     30.02600000     20.14000000
H     29.88600000     29.62100000     19.34800000
H     29.61200000     30.71200000     20.36200000
O     33.87000000     32.66000000     23.81800000
H     34.42300000     32.48900000     24.58000000
H     33.70400000     33.60200000     23.85000000
O     31.82300000     15.41900000     23.04800000
H     31.25800000     15.20000000     22.30800000
H     31.35100000     16.10900000     23.51400000
O     23.16400000     29.55600000     22.38600000
H     22.27300000     29.46800000     22.72300000
H     23.07300000     29.46200000     21.43800000
O     30.86900000     39.83500000     19.56500000
H     30.41000000     39.53900000     20.35100000
H     31.34900000     40.61400000     19.84700000
O     32.79100000     36.33000000     21.18800000
H     32.95900000     36.93300000     20.46300000
H     33.39400000     36.61100000     21.87700000
O     18.90300000     32.59100000     28.16200000
H     19.24100000     31.70200000     28.04800000
H     18.30700000     32.71700000     27.42400000
O     31.05500000     42.46900000     24.62800000
H     30.93600000     41.59400000     24.25800000
H     30.23800000     42.64400000     25.09600000
O     30.42300000     19.66200000     33.45200000
H     30.70200000     19.46700000     32.55700000
H     29.63200000     19.13700000     33.57700000
O     28.71300000     21.86400000     31.57900000
H     29.31200000     22.54000000     31.26100000
H     28.33500000     21.48600000     30.78600000
O     26.08000000     20.00400000     24.31300000
H     25.52700000     20.28900000     25.04100000
H     26.70500000     20.71900000     24.19200000
O     24.14200000     21.60400000     26.31100000
H     24.32500000     22.07900000     25.50000000
H     24.86000000     21.84200000     26.89700000
O     33.42200000     23.99700000     24.88600000
H     33.48000000     24.44200000     25.73200000
H     32.54100000     24.20000000     24.56900000
O     32.85200000     18.60600000     28.12600000
H     33.06300000     18.04000000     28.86900000
H     31.93400000     18.41400000     27.93200000
O     27.80700000     35.14700000     41.82700000
H     27.33500000     34.38000000     41.50500000
H     27.24400000     35.50400000     42.51500000
O     39.82900000     23.00400000     22.77700000
H     40.72400000     22.72600000     22.57900000
H     39.86600000     23.29800000     23.68700000
O     41.54500000     33.28500000     23.42400000
H     40.94400000     32.72200000     22.93700000
H     42.32500000     33.33800000     22.87200000
O     38.41500000     22.91100000     25.33800000
H     38.10900000     23.77100000     25.62700000
H     37.67900000     22.54700000     24.84700000
O     30.34700000     20.83800000     15.52500000
H     31.11800000     21.40600000     15.51500000
H     30.59700000     20.08600000     14.98800000
O     19.79100000     31.47500000     17.70000000
H     20.65000000     31.22200000     18.03700000
H     19.98100000     31.95500000     16.89400000
O     37.84500000     35.95400000     30.79400000
H     37.00300000     35.93100000     31.24700000
H     38.13300000     35.04200000     30.77400000
O     41.87500000     32.86400000     33.39300000
H     41.35900000     32.40600000     32.72900000
H     42.73700000     32.97700000     32.99200000
O     17.71100000     37.87400000     34.27300000
H     18.34800000     38.50300000     34.61100000
H     18.23600000     37.11900000     34.00800000
O     30.66300000     40.52500000     27.51300000
H     30.52800000     41.47100000     27.55200000
H     29.81100000     40.17100000     27.25500000
O     36.68600000     20.01600000     37.84300000
H     36.10300000     19.85300000     38.58500000
H     36.39100000     20.85300000     37.48500000
O     32.11800000     33.99500000     26.23800000
H     32.24100000     34.26100000     25.32600000
H     33.00200000     33.81000000     26.55500000
O     28.09700000     17.31500000     29.89800000
H     28.17700000     17.11900000     28.96400000
H     27.20600000     17.65000000     29.99700000
O     26.58100000     23.03900000     33.20600000
H     26.55400000     22.30400000     33.81700000
H     26.87600000     22.65500000     32.38000000
O     15.12700000     23.80600000     21.87400000
H     15.37500000     24.31200000     22.64800000
H     15.91700000     23.79300000     21.33300000
O     25.18200000     31.90300000     37.54500000
H     25.02100000     32.44400000     36.77200000
H     24.30900000     31.66100000     37.85500000
O     37.01900000     16.59000000     22.04200000
H     36.45600000     17.36100000     22.10600000
H     37.90900000     16.93600000     22.10800000
O     34.72300000     39.03900000     32.07900000
H     35.14500000     39.82900000     31.74100000
H     34.33800000     39.31000000     32.91200000
O     27.66000000     22.09800000     24.09200000
H     27.41800000     22.99200000     23.85000000
H     28.60800000     22.06400000     23.96400000
O     18.38700000     29.69700000     27.85900000
H     18.76000000     29.36300000     28.67500000
H     17.48200000     29.91500000     28.08000000
O     33.46100000     18.78300000     35.56600000
H     33.00700000     17.97900000     35.31600000
H     34.28700000     18.75300000     35.08400000
O     24.68100000     27.85100000     42.68000000
H     25.63500000     27.79800000     42.73300000
H     24.46300000     27.43100000     41.84800000
O     39.13600000     34.26400000     24.56500000
H     38.67800000     34.32200000     23.72600000
H     40.06000000     34.18000000     24.32900000
O     18.49500000     33.94900000     21.58600000
H     18.49800000     33.06900000     21.96200000
H     18.53400000     34.53400000     22.34300000
O     26.26000000     16.04500000     24.14800000
H     26.17300000     15.12300000     24.39100000
H     25.53600000     16.20100000     23.54100000
O     31.15400000     33.72000000     41.21900000
H     31.97000000     33.22100000     41.23700000
H     30.46700000     33.05500000     41.17400000
O     22.39700000     19.36800000     26.40300000
H     23.02700000     20.06300000     26.59300000
H     22.70900000     18.97800000     25.58700000
O     33.20000000     31.05800000     14.00800000
H     33.20100000     31.89800000     14.46800000
H     33.86500000     30.53800000     14.45900000
O     33.44600000     26.14700000     28.74300000
H     33.76000000     26.55800000     29.54800000
H     34.17700000     25.60200000     28.45100000
O     14.14600000     26.62600000     27.41900000
H     14.35700000     27.55500000     27.50700000
H     13.29800000     26.61300000     26.97400000
O     27.34200000     28.26900000     39.57000000
H     28.21100000     28.41500000     39.94300000
H     27.06600000     29.13200000     39.26000000
O     34.54900000     34.83500000     35.42700000
H     33.80300000     35.37900000     35.17400000
H     34.19700000     33.94600000     35.46000000
O     26.25900000     27.35400000     19.81700000
H     25.95100000     27.91900000     19.10800000
H     26.41100000     27.95100000     20.55000000
O     30.83100000     30.30700000     32.17400000
H     31.20400000     29.67300000     32.78700000
H     31.32000000     31.11300000     32.33600000
O     30.83400000     33.09500000     15.82600000
H     31.11400000     32.57900000     16.58200000
H     31.64800000     33.40700000     15.43200000
O     17.63100000     24.87500000     16.86600000
H     17.69600000     25.41700000     16.08000000
H     18.35000000     25.17400000     17.42300000
O     27.34200000     38.89100000     38.48800000
H     27.35700000     38.89500000     37.53100000
H     26.80700000     39.64900000     38.72300000
O     33.27100000     40.50500000     26.08700000
H     33.48700000     41.42600000     25.94200000
H     32.68900000     40.51200000     26.84600000
O     16.28700000     35.31000000     20.79900000
H     16.49400000     35.69200000     19.94600000
H     17.13200000     35.02400000     21.14500000
O     28.02500000     37.43900000     30.98900000
H     28.41500000     36.96200000     30.25700000
H     28.61500000     37.27400000     31.72500000
O     25.22400000     19.03600000     33.05700000
H     24.27600000     18.98700000     32.93700000
H     25.35200000     19.75900000     33.67100000
O     36.38400000     16.05400000     28.05700000
H     35.89800000     16.80800000     27.72500000
H     37.11800000     15.95600000     27.45000000
O     21.71100000     30.57200000     30.67500000
H     21.29700000     31.42500000     30.80600000
H     21.10300000     30.09400000     30.11100000
O     23.28700000     34.21900000     15.01600000
H     24.18500000     34.12600000     15.33600000
H     23.03300000     35.10700000     15.26800000
O     22.16200000     25.62800000     30.64500000
H     22.03800000     25.72600000     31.58900000
H     21.85500000     24.74200000     30.45400000
O     41.09300000     35.14500000     29.38600000
H     40.79500000     34.39000000     29.89300000
H     41.27500000     34.79300000     28.51500000
O     32.43800000     27.19700000     26.32500000
H     32.80900000     28.06800000     26.46500000
H     32.60600000     26.73000000     27.14300000
O     40.31400000     28.83000000     20.64700000
H     40.31700000     27.99400000     20.18000000
H     39.39600000     28.97200000     20.87800000
O     25.65900000     14.50800000     30.74500000
H     26.61300000     14.59300000     30.72400000
H     25.50400000     13.64200000     31.12400000
O     16.57500000     23.11700000     32.99800000
H     16.29300000     22.46300000     32.35900000
H     15.77100000     23.37700000     33.44700000
O     25.59800000     25.60000000     24.68400000
H     26.44800000     25.98900000     24.89200000
H     25.22700000     26.17700000     24.01600000
O     36.76800000     35.40700000     26.34800000
H     36.18600000     35.45100000     27.10700000
H     36.93900000     34.47200000     26.23200000
O     22.02900000     36.39600000     20.19800000
H     22.46500000     36.75400000     20.97100000
H     22.00600000     37.12400000     19.57700000
O     23.34900000     20.37300000     17.70000000
H     23.55700000     20.04000000     16.82700000
H     23.96200000     19.92300000     18.28100000
O     29.80100000     34.86600000     18.77600000
H     30.08500000     35.75100000     18.54700000
H     28.89300000     34.82000000     18.47500000
O     17.73400000     25.17700000     37.66700000
H     17.37300000     25.20400000     36.78100000
H     18.66700000     25.36100000     37.55200000
O     26.42800000     30.92200000     14.56500000
H     27.24800000     30.49100000     14.80500000
H     26.06000000     31.21600000     15.39900000
O     31.94000000     20.39600000     39.84800000
H     31.99700000     20.02400000     38.96800000
H     32.20700000     19.68200000     40.42800000
O     36.79000000     26.16500000     26.44200000
H     36.42700000     26.95600000     26.04300000
H     37.73800000     26.27800000     26.38000000
O     18.79000000     34.34100000     17.13500000
H     18.82500000     33.88900000     16.29200000
H     19.20200000     33.73400000     17.75000000
O     22.94400000     22.28600000     34.02100000
H     22.95200000     22.02000000     33.10200000
H     22.99300000     21.46400000     34.51000000
O     17.44800000     37.19500000     28.52500000
H     17.45200000     37.69100000     29.34300000
H     17.14300000     36.32200000     28.77500000
O     25.85400000     37.86400000     20.41700000
H     26.05200000     38.77600000     20.20800000
H     26.71000000     37.44500000     20.49900000
O     35.31100000     35.37300000     29.07500000
H     35.15100000     36.31600000     29.09400000
H     35.30400000     35.11000000     29.99500000
O     37.27200000     20.29300000     27.63700000
H     38.03800000     20.85800000     27.73500000
H     37.60200000     19.51600000     27.18700000
O     32.36400000     22.32800000     15.78900000
H     32.95900000     22.70800000     16.43600000
H     31.80900000     23.05900000     15.51600000
O     34.54100000     38.55100000     36.59400000
H     35.37900000     38.17200000     36.33100000
H     33.95200000     38.36200000     35.86400000
O     18.89400000     38.37100000     20.58200000
H     18.27800000     38.98700000     20.97700000
H     18.98100000     37.67100000     21.22800000
O     19.10900000     31.49000000     34.68900000
H     19.94400000     31.33700000     35.13000000
H     19.21300000     32.34300000     34.26700000
O     37.69900000     29.49700000     21.06100000
H     37.01300000     28.98200000     21.48600000
H     37.23100000     30.22100000     20.64400000
O     21.90300000     17.70600000     21.48400000
H     21.88100000     17.97900000     20.56700000
H     22.29000000     18.45000000     21.94600000
O     20.02300000     37.45200000     27.29700000
H     20.53500000     36.65300000     27.16600000
H     19.29000000     37.17900000     27.84800000
O     30.04000000     18.94000000     21.25500000
H     30.49000000     18.53100000     20.51500000
H     30.65500000     19.60000000     21.57400000
O     42.08900000     33.01700000     27.43900000
H     42.61600000     33.64900000     26.95000000
H     41.27600000     32.94400000     26.93800000
O     35.00400000     35.97500000     31.73200000
H     34.13400000     35.82600000     32.10300000
H     35.08500000     36.92700000     31.68300000
O     15.09100000     27.95100000     31.01100000
H     15.04400000     27.94900000     31.96700000
H     15.09600000     27.02500000     30.76900000
O     29.61800000     17.43300000     36.90600000
H     30.57200000     17.48900000     36.95800000
H     29.34500000     17.17400000     37.78600000
O     24.70500000     27.45700000     22.89700000
H     25.56100000     27.62900000     22.50300000
H     24.18900000     28.23900000     22.70100000
O     15.24900000     27.81600000     33.95900000
H     15.27400000     28.72500000     34.25700000
H     16.00500000     27.40500000     34.37900000
O     30.81400000     37.29500000     17.82300000
H     31.05300000     37.43800000     16.90700000
H     30.82700000     38.16800000     18.21500000
O     22.13500000     26.53700000     33.79800000
H     22.02100000     27.38700000     33.37400000
H     22.56600000     26.73900000     34.62900000
O     22.66500000     29.99400000     37.91300000
H     23.09600000     29.14000000     37.87100000
H     21.82500000     29.81800000     38.33700000
O     39.30300000     31.13200000     28.58900000
H     38.93900000     30.27200000     28.37700000
H     39.52500000     31.51400000     27.74000000
O     32.93700000     21.47900000     19.86400000
H     32.60300000     20.58900000     19.75200000
H     33.65500000     21.54800000     19.23600000
O     35.85400000     31.83900000     28.56500000
H     36.52400000     31.22700000     28.86900000
H     35.03300000     31.48700000     28.91100000
O     18.17600000     32.84100000     37.09200000
H     17.97700000     31.90500000     37.11500000
H     19.13100000     32.88200000     37.04000000
O     22.60500000     26.52200000     25.05500000
H     23.18200000     27.06100000     24.51500000
H     23.19500000     25.93000000     25.52100000
O     23.82200000     37.15600000     22.24600000
H     24.10700000     37.70900000     22.97300000
H     24.60500000     37.04700000     21.70600000
O     21.46100000     29.41500000     17.77500000
H     21.39600000     28.75300000     17.08700000
H     20.73400000     29.21900000     18.36600000
O     15.77500000     24.01300000     27.72100000
H     15.15200000     24.69800000     27.47900000
H     15.29700000     23.19500000     27.58300000
O     15.51600000     21.05700000     31.58400000
H     14.95100000     20.95700000     32.35000000
H     14.92100000     20.99300000     30.83700000
O     29.99400000     33.04900000     36.89000000
H     29.50100000     32.31900000     37.26400000
H     30.40200000     33.47500000     37.64500000
O     28.23200000     13.55100000     26.28500000
H     27.32200000     13.47300000     26.57100000
H     28.60300000     12.68000000     26.42300000
O     27.22200000     18.85600000     17.14900000
H     26.73300000     19.64100000     16.89900000
H     28.10300000     19.17400000     17.34400000
O     38.88700000     25.37300000     20.89000000
H     39.50300000     24.69000000     21.15400000
H     39.37300000     25.90400000     20.25900000
O     23.46100000     35.40200000     30.46800000
H     22.81700000     34.93600000     29.93400000
H     24.05200000     34.71800000     30.78100000
O     35.64000000     24.38900000     28.41900000
H     35.59500000     23.54900000     27.96200000
H     35.99600000     24.99700000     27.77100000
O     19.63400000     35.85100000     33.51700000
H     20.21900000     35.09500000     33.56400000
H     20.18600000     36.56000000     33.18700000
O     24.40700000     26.10600000     17.71200000
H     25.12700000     26.36000000     18.28800000
H     23.67900000     25.91900000     18.30600000
O     32.86300000     37.07200000     34.84300000
H     31.99100000     36.99600000     35.23100000
H     32.72600000     36.91000000     33.91000000
O     21.98500000     39.13100000     30.38000000
H     22.05300000     39.49200000     29.49600000
H     21.52800000     39.80700000     30.88000000
O     26.21800000     41.19400000     21.64200000
H     25.97300000     41.82300000     22.32100000
H     26.60300000     41.72800000     20.94700000
O     29.91400000     31.74200000     39.39600000
H     29.35900000     31.19600000     38.83700000
H     30.64400000     31.17300000     39.63700000
O     36.54700000     32.56400000     22.10000000
H     35.72400000     32.88900000     22.46600000
H     36.47100000     32.72400000     21.16000000
O     21.21900000     32.70100000     38.67100000
H     21.59500000     33.34600000     39.27100000
H     21.94900000     32.12100000     38.45500000
O     36.63400000     34.59600000     37.38000000
H     36.00100000     34.67200000     36.66700000
H     37.35900000     34.09600000     37.00500000
O     32.02500000     13.45600000     27.69700000
H     31.76500000     12.75500000     27.10000000
H     31.43100000     14.17900000     27.49200000
