1471
J. Chem. Phys. 151, 174104 (2019); https://doi.org/10.1063/1.5121396
C     28.07300000     28.07300000     26.76900000
C     28.07300000     29.26500000     27.45400000
C     28.07300000     29.26700000     28.80400000
C     28.07300000     28.07300000     29.51800000
C     28.07300000     26.87800000     28.80400000
C     28.07300000     26.88000000     27.45400000
H     28.07300000     30.20100000     26.90100000
H     28.07300000     30.20900000     29.34500000
H     28.07300000     25.93600000     29.34500000
H     28.07300000     25.94400000     26.90100000
N     28.07300000     28.07200000     30.83600000
H     28.07300000     27.21500000     31.37700000
H     28.07300000     28.93000000     31.37700000
N     28.07300000     28.07300000     25.35000000
O     28.07300000     29.13700000     24.76800000
O     28.07300000     27.00800000     24.76800000
O     30.95600000     34.36000000     18.45100000
H     31.12400000     34.24700000     19.38700000
H     31.09200000     35.29400000     18.29400000
O     24.40700000     22.32700000     19.99500000
H     24.89700000     22.21200000     19.18100000
H     23.48900000     22.33200000     19.72400000
O     38.01100000     33.01300000     23.78700000
H     38.38700000     33.79100000     24.19800000
H     37.86900000     33.26800000     22.87500000
O     30.70700000     19.84900000     28.50800000
H     30.57800000     20.55800000     29.13800000
H     30.85200000     20.29400000     27.67200000
O     40.25100000     26.54300000     32.86700000
H     39.67800000     26.40300000     33.62100000
H     39.93800000     25.92200000     32.20900000
O     28.60300000     36.60900000     34.83400000
H     28.85000000     37.52600000     34.95600000
H     28.12200000     36.59800000     34.00600000
O     19.72500000     31.90200000     36.33500000
H     19.18800000     31.84900000     35.54400000
H     19.98300000     30.99800000     36.51100000
O     32.42500000     17.65600000     31.93100000
H     32.58700000     17.23000000     31.09000000
H     31.49500000     17.88300000     31.91000000
O     21.73100000     16.64500000     34.05900000
H     21.66100000     15.85200000     33.52800000
H     21.29800000     16.42100000     34.88300000
O     24.61200000     32.92000000     23.93900000
H     25.03400000     32.41000000     24.63100000
H     25.32900000     33.18300000     23.36300000
O     26.79100000     24.69900000     35.04300000
H     26.92100000     25.61200000     35.29900000
H     26.42300000     24.28200000     35.82200000
O     32.12900000     32.75900000     16.53000000
H     32.80300000     33.38100000     16.25600000
H     31.62000000     33.23000000     17.19000000
O     19.65100000     29.76100000     16.35100000
H     18.87400000     29.23600000     16.54300000
H     19.52500000     30.56800000     16.84900000
O     26.84700000     36.60300000     32.65300000
H     26.26100000     36.02000000     33.13400000
H     26.29200000     37.00200000     31.98200000
O     31.49000000     24.69000000     14.38500000
H     31.87300000     23.81500000     14.44800000
H     31.97200000     25.21000000     15.02800000
O     33.35300000     16.81800000     36.54600000
H     32.83600000     17.59700000     36.74900000
H     33.17400000     16.64600000     35.62100000
O     28.47200000     25.76000000     32.81300000
H     29.28800000     25.65200000     33.30200000
H     27.83200000     25.23700000     33.29700000
O     18.83900000     23.73200000     19.48800000
H     18.00200000     23.50800000     19.89400000
H     19.13600000     22.91700000     19.08400000
O     24.46400000     20.42100000     30.26300000
H     23.76100000     20.30100000     29.62500000
H     24.43900000     21.35400000     30.47500000
O     40.61700000     26.31600000     26.61900000
H     41.37400000     26.41200000     26.04100000
H     40.73000000     27.00100000     27.27800000
O     30.30900000     28.13000000     39.52000000
H     30.48300000     28.01300000     40.45400000
H     30.94500000     28.78700000     39.23700000
O     18.82800000     27.91800000     24.81400000
H     18.09200000     28.46100000     24.53100000
H     19.17400000     27.54200000     24.00500000
O     21.68200000     33.56000000     37.13400000
H     21.20500000     34.24100000     37.60700000
H     21.01500000     32.91200000     36.90700000
O     25.21300000     38.24700000     20.02400000
H     25.44200000     38.94100000     19.40500000
H     24.32100000     37.99600000     19.78400000
O     35.28100000     32.66200000     22.98200000
H     36.19400000     32.88700000     23.16500000
H     35.11700000     31.88000000     23.50900000
O     26.06800000     34.87100000     17.65600000
H     25.79200000     35.07100000     18.55000000
H     26.85300000     34.33300000     17.76200000
O     15.09200000     29.91100000     29.96700000
H     14.88800000     30.09300000     29.04900000
H     15.53600000     30.70100000     30.27500000
O     22.84400000     28.53300000     32.61900000
H     22.38500000     27.73800000     32.34900000
H     23.48400000     28.23300000     33.26400000
O     20.24400000     16.84200000     27.76400000
H     19.53900000     17.47500000     27.63100000
H     21.03000000     17.28900000     27.45000000
O     24.64300000     37.35300000     36.88700000
H     24.23300000     37.86500000     37.58500000
H     23.96500000     37.27600000     36.21600000
O     17.13900000     28.97300000     35.87600000
H     17.46700000     29.29700000     35.03800000
H     17.89100000     28.53700000     36.27700000
O     27.59400000     19.20200000     38.78400000
H     26.91800000     19.74700000     38.38200000
H     27.85700000     19.68500000     39.56800000
O     29.44700000     26.21500000     37.51300000
H     28.53300000     25.94300000     37.43100000
H     29.44900000     26.83300000     38.24400000
O     33.43200000     24.58800000     33.43500000
H     33.52000000     24.19000000     34.30100000
H     34.11000000     25.26300000     33.41100000
O     33.48100000     20.11200000     18.78400000
H     33.85000000     19.80400000     19.61200000
H     32.75200000     19.51600000     18.61000000
O     36.43000000     30.45400000     28.40300000
H     35.64800000     30.90200000     28.72400000
H     37.15600000     30.88300000     28.85700000
O     27.33500000     37.95200000     21.96200000
H     27.36400000     38.56800000     22.69400000
H     26.72100000     38.34400000     21.34200000
O     28.64200000     13.96600000     28.06100000
H     29.58800000     13.84700000     28.14800000
H     28.43700000     14.69200000     28.65000000
O     23.59500000     33.45300000     18.83800000
H     24.42100000     33.88400000     19.05700000
H     23.85100000     32.70200000     18.30200000
O     40.35600000     20.06800000     28.28400000
H     40.20900000     19.29100000     28.82300000
H     39.66000000     20.04000000     27.62800000
O     39.57100000     24.67600000     30.45900000
H     38.63200000     24.84100000     30.54400000
H     39.69500000     24.47000000     29.53200000
O     37.54100000     35.53300000     30.02900000
H     38.31500000     35.64000000     30.58100000
H     37.22100000     34.65300000     30.23000000
O     30.77900000     24.07100000     21.26400000
H     30.78700000     23.18100000     20.91100000
H     31.29800000     24.58000000     20.64200000
O     36.58200000     21.57300000     28.18000000
H     36.80400000     22.17400000     27.46900000
H     36.95900000     20.73500000     27.91300000
O     33.75600000     26.55500000     41.07300000
H     33.30700000     25.74800000     41.32800000
H     33.94200000     26.44100000     40.14100000
O     25.77900000     32.03100000     28.74000000
H     25.32200000     32.65800000     29.30000000
H     26.29700000     31.50100000     29.34700000
O     40.21400000     26.83900000     21.60700000
H     40.46700000     25.91600000     21.60600000
H     39.50300000     26.89400000     20.96900000
O     34.97300000     27.27600000     34.22600000
H     35.13000000     28.14900000     33.86500000
H     35.80100000     26.81200000     34.10300000
O     21.50600000     25.08500000     25.36300000
H     21.83900000     25.98300000     25.37900000
H     20.61400000     25.15400000     25.70100000
O     35.55100000     27.45000000     18.43900000
H     34.60700000     27.30600000     18.38600000
H     35.70700000     28.21900000     17.89100000
O     21.53000000     21.12500000     33.41200000
H     21.83600000     20.22300000     33.31600000
H     21.71800000     21.53400000     32.56800000
O     25.38700000     35.34600000     20.05200000
H     25.42000000     36.30200000     20.08500000
H     25.93700000     35.06200000     20.78200000
O     38.41200000     23.79400000     23.70800000
H     38.45500000     24.50300000     24.35000000
H     39.23800000     23.32300000     23.81500000
O     30.63100000     33.39700000     37.05800000
H     30.52800000     32.62500000     37.61500000
H     30.61100000     34.13600000     37.66600000
O     28.02400000     19.47200000     26.46400000
H     27.12600000     19.72200000     26.68200000
H     28.43900000     19.30500000     27.31000000
O     20.93400000     38.10600000     27.44800000
H     20.34300000     38.14300000     26.69600000
H     21.81000000     38.07400000     27.06300000
O     29.48200000     15.72800000     25.59400000
H     29.39100000     15.79700000     26.54400000
H     29.71600000     14.81200000     25.44100000
O     29.59900000     28.33400000     33.45800000
H     30.44500000     27.90000000     33.35000000
H     29.02100000     27.65000000     33.79800000
O     37.72100000     21.37000000     21.10600000
H     37.30800000     20.82700000     20.43500000
H     37.26200000     21.14400000     21.91500000
O     22.37000000     40.70900000     25.99400000
H     22.59700000     40.82500000     26.91700000
H     21.51700000     41.13300000     25.90100000
O     26.39700000     25.37200000     38.35800000
H     26.58000000     25.57400000     39.27600000
H     26.47300000     26.21400000     37.90800000
O     23.29400000     37.38900000     25.25100000
H     22.85800000     36.53700000     25.29000000
H     23.71800000     37.40300000     24.39300000
O     23.37900000     32.30300000     40.84300000
H     23.99600000     32.65900000     40.20400000
H     23.90400000     32.16100000     41.63000000
O     25.09500000     17.05500000     30.80500000
H     25.21900000     17.13400000     31.75100000
H     24.18700000     16.76900000     30.70500000
O     38.20200000     26.98100000     37.13700000
H     38.30400000     26.08000000     36.83100000
H     38.05000000     26.90000000     38.07800000
O     27.80300000     30.40200000     38.80400000
H     27.10200000     29.75400000     38.87400000
H     28.26800000     30.16600000     38.00100000
O     26.64600000     20.78200000     20.92300000
H     26.62100000     20.10200000     20.25000000
H     26.18100000     21.52200000     20.53400000
O     25.91400000     22.01900000     23.29500000
H     25.43500000     22.75900000     22.92200000
H     26.09300000     21.44800000     22.54800000
O     26.45400000     26.89000000     42.33300000
H     25.67600000     26.86600000     41.77600000
H     26.31600000     26.18800000     42.96800000
O     33.82500000     34.81400000     29.12400000
H     34.67300000     34.42700000     29.34500000
H     33.60400000     35.35600000     29.88100000
O     38.02400000     33.14500000     27.76600000
H     38.46700000     32.30000000     27.69100000
H     37.11800000     32.92300000     27.98000000
O     15.11700000     30.20100000     27.14200000
H     14.29900000     30.10600000     26.65500000
H     15.57100000     30.92500000     26.71000000
O     35.39500000     26.99700000     25.69100000
H     35.44500000     26.33300000     26.37900000
H     35.07500000     26.52300000     24.92300000
O     26.13600000     36.06700000     29.45400000
H     26.96200000     35.69100000     29.75900000
H     26.26500000     36.20100000     28.51500000
O     29.67700000     38.79800000     36.59400000
H     28.93100000     38.32300000     36.95900000
H     29.66800000     39.64200000     37.04600000
O     36.59400000     19.68300000     23.42800000
H     35.99700000     19.40400000     24.12200000
H     37.45600000     19.69500000     23.84300000
O     32.08100000     30.03900000     17.52500000
H     32.12500000     30.35800000     18.42700000
H     32.40100000     30.77000000     16.99600000
O     34.18900000     30.07400000     38.40800000
H     33.49600000     29.41900000     38.32500000
H     34.10200000     30.61700000     37.62500000
O     17.16300000     22.96600000     31.75200000
H     17.66000000     22.54400000     32.45300000
H     17.72300000     22.88600000     30.97900000
O     39.14600000     24.57700000     35.81300000
H     39.18700000     24.07700000     34.99800000
H     38.63400000     24.02700000     36.40600000
O     27.84600000     19.13100000     18.95600000
H     27.15800000     18.53100000     18.66800000
H     28.25000000     19.44000000     18.14500000
O     37.06500000     25.80200000     30.97600000
H     36.27200000     25.28200000     31.10700000
H     36.76600000     26.58000000     30.50600000
O     28.20700000     33.47600000     28.46900000
H     27.48900000     32.85200000     28.35600000
H     28.89000000     33.16600000     27.87400000
O     18.92300000     16.70800000     30.31900000
H     19.44800000     17.50300000     30.41900000
H     18.91900000     16.54000000     29.37700000
O     20.75500000     24.00200000     21.58900000
H     20.05700000     24.18100000     20.96000000
H     20.59200000     23.10400000     21.88000000
O     39.96200000     21.23200000     31.18100000
H     39.14700000     21.69200000     31.38200000
H     39.89200000     21.01400000     30.25200000
O     33.27400000     27.31400000     28.73600000
H     32.93500000     26.55900000     28.25500000
H     32.50100000     27.84700000     28.92200000
O     31.31700000     36.84000000     35.24500000
H     31.12600000     37.75600000     35.44400000
H     30.47200000     36.39600000     35.32300000
O     24.74600000     35.32500000     15.51200000
H     24.90900000     34.52600000     15.01000000
H     25.21300000     35.18900000     16.33700000
O     34.50100000     36.55200000     31.12600000
H     33.96400000     37.13300000     31.66500000
H     35.24300000     37.09300000     30.85700000
O     21.99200000     19.12900000     28.13400000
H     22.75000000     18.61300000     27.86100000
H     22.28800000     20.03800000     28.08000000
O     29.03100000     18.04600000     31.45700000
H     28.98100000     18.61900000     30.69200000
H     28.62600000     18.55000000     32.16200000
O     36.66000000     28.06100000     23.19400000
H     36.77900000     27.15100000     22.92500000
H     36.46500000     28.01200000     24.13000000
O     22.82100000     34.60700000     24.86200000
H     23.56500000     34.01000000     24.77600000
H     22.43700000     34.39100000     25.71200000
O     26.87800000     32.32000000     40.55900000
H     26.85800000     31.69700000     39.83300000
H     26.88000000     31.77300000     41.34500000
O     34.78000000     25.79500000     20.74100000
H     35.46600000     26.13600000     20.16700000
H     34.76300000     24.85500000     20.56300000
O     29.19100000     28.73700000     20.88600000
H     29.23900000     29.65600000     21.15200000
H     28.32500000     28.45000000     21.17500000
O     26.85500000     23.74500000     28.09800000
H     26.05100000     23.32600000     27.79000000
H     27.47700000     23.62600000     27.38100000
O     37.53700000     36.16000000     27.23800000
H     37.52300000     35.74600000     28.10100000
H     36.66700000     36.54900000     27.14400000
O     17.64500000     18.13500000     27.82900000
H     17.54500000     18.56800000     26.98100000
H     16.75200000     18.06200000     28.16700000
O     26.65100000     42.78500000     27.23300000
H     26.18800000     43.27200000     27.91400000
H     27.45500000     42.48400000     27.65700000
O     37.16900000     25.99400000     33.97200000
H     37.27300000     25.27100000     33.35300000
H     37.17600000     25.57600000     34.83300000
O     22.12400000     21.78700000     27.91600000
H     21.76200000     21.84000000     27.03100000
H     22.29800000     22.69600000     28.16000000
O     33.93400000     22.61300000     24.92700000
H     33.36600000     23.27700000     24.53500000
H     33.41100000     22.23900000     25.63700000
O     22.15800000     26.25000000     31.37700000
H     21.39100000     25.69200000     31.24700000
H     22.34900000     26.60100000     30.50700000
O     35.63100000     34.83900000     34.44000000
H     36.32100000     35.48400000     34.60000000
H     35.60400000     34.31500000     35.24100000
O     19.84900000     35.81200000     25.78400000
H     20.56100000     35.28000000     26.14000000
H     19.05700000     35.44700000     26.17800000
O     16.10300000     36.55300000     23.29800000
H     16.46000000     35.66600000     23.35000000
H     16.09100000     36.86100000     24.20400000
O     25.25600000     31.23000000     26.02600000
H     25.50600000     31.57000000     26.88600000
H     24.94200000     30.34300000     26.20100000
O     34.81500000     22.96400000     17.97300000
H     35.64000000     22.81700000     17.51000000
H     34.60700000     22.11700000     18.36700000
O     30.92900000     26.22000000     30.66700000
H     30.19200000     25.90000000     31.18700000
H     30.67200000     27.10400000     30.40500000
O     26.98400000     33.14300000     22.31000000
H     27.49700000     33.45400000     23.05500000
H     27.20800000     32.21600000     22.23400000
O     37.98900000     26.53300000     19.78600000
H     37.16300000     26.91100000     19.48500000
H     37.73800000     25.71400000     20.21300000
O     28.03100000     20.08500000     32.83900000
H     27.14300000     19.75400000     32.97800000
H     27.93200000     21.03700000     32.82300000
O     24.06800000     37.42500000     27.74600000
H     24.28700000     38.35600000     27.71600000
H     23.92800000     37.18200000     26.83100000
O     30.87400000     25.21500000     34.03200000
H     31.00500000     25.13900000     34.97700000
H     31.75100000     25.12100000     33.65900000
O     42.89700000     30.44700000     31.21800000
H     42.37300000     29.68500000     30.97000000
H     42.89000000     30.44300000     32.17500000
O     34.17300000     23.44100000     39.47500000
H     33.85100000     23.90000000     38.69900000
H     33.44900000     23.48700000     40.09900000
O     31.60500000     15.31200000     21.79300000
H     30.82600000     14.77100000     21.92000000
H     31.31800000     16.20000000     22.00900000
O     28.63500000     38.10100000     19.03000000
H     28.92700000     38.91600000     19.43700000
H     29.36000000     37.49100000     19.16800000
O     28.96300000     33.11300000     15.37200000
H     28.84600000     32.17700000     15.20900000
H     28.62900000     33.24600000     16.26000000
O     33.52200000     38.33400000     37.42300000
H     33.98400000     38.55100000     36.61300000
H     33.51400000     37.37700000     37.44500000
O     30.73600000     27.03800000     42.01800000
H     30.40900000     26.95600000     42.91300000
H     30.92400000     26.14000000     41.74700000
O     39.63900000     35.98200000     31.69500000
H     39.46400000     35.24500000     32.27900000
H     40.45200000     36.36400000     32.02700000
O     30.69000000     20.04200000     33.72900000
H     30.29600000     20.74500000     34.24600000
H     29.94900000     19.61200000     33.30400000
O     24.03700000     24.10200000     26.51500000
H     24.28800000     24.81800000     25.93100000
H     23.49900000     23.52600000     25.97100000
O     26.16200000     30.36000000     18.98800000
H     25.42600000     30.36600000     19.60100000
H     26.79300000     30.97300000     19.36500000
O     26.04900000     18.60800000     28.92100000
H     25.75400000     19.47400000     29.20100000
H     25.73500000     18.01500000     29.60300000
O     20.81100000     27.97500000     14.24300000
H     20.79500000     27.02400000     14.35100000
H     20.62800000     28.31900000     15.11800000
O     33.80900000     19.33600000     27.67400000
H     34.37000000     19.61000000     28.40000000
H     33.05700000     18.92000000     28.09500000
O     20.29400000     36.43700000     23.18100000
H     20.11100000     36.10400000     24.05900000
H     20.96400000     35.84700000     22.83500000
O     33.13700000     38.12400000     32.97000000
H     33.33700000     38.97500000     33.35900000
H     32.61600000     37.67300000     33.63500000
O     37.66900000     36.95100000     21.73600000
H     36.88700000     36.91800000     22.28800000
H     38.04400000     36.07200000     21.79900000
O     28.82700000     15.88500000     33.71000000
H     28.40000000     16.21100000     34.50200000
H     28.82400000     16.63200000     33.11100000
O     17.86000000     32.29900000     34.54400000
H     17.02300000     31.85600000     34.40400000
H     18.22900000     32.39900000     33.66700000
O     20.51900000     22.20800000     38.72600000
H     20.48400000     21.71600000     37.90600000
H     20.99700000     21.63800000     39.32800000
O     22.59700000     15.12200000     30.88800000
H     23.31400000     14.61000000     31.26300000
H     21.80400000     14.67600000     31.18400000
O     27.20100000     37.70200000     37.71900000
H     26.93700000     37.22700000     38.50800000
H     26.45100000     37.62400000     37.13000000
O     17.38300000     33.96500000     36.59000000
H     17.72700000     33.35700000     35.93500000
H     17.64600000     33.58700000     37.42900000
O     18.74600000     21.82500000     33.64900000
H     19.69500000     21.73800000     33.55500000
H     18.63000000     22.59200000     34.21000000
O     32.38200000     25.08300000     27.13700000
H     31.68500000     24.65500000     26.64000000
H     32.85900000     24.36400000     27.55100000
O     31.40500000     24.56800000     38.47700000
H     30.69000000     25.16400000     38.25500000
H     31.55200000     24.70800000     39.41200000
O     39.54400000     30.53100000     27.49900000
H     39.00100000     29.74800000     27.59200000
H     40.44300000     30.20700000     27.56400000
O     28.23800000     24.56800000     19.43300000
H     28.65400000     25.31400000     19.86600000
H     28.43800000     24.68900000     18.50400000
O     34.36500000     38.53800000     28.62900000
H     34.64400000     39.08300000     29.36500000
H     33.64400000     38.01400000     28.97900000
O     23.06700000     30.49800000     18.04700000
H     23.65600000     30.28800000     18.77200000
H     22.20000000     30.23600000     18.35800000
O     41.42200000     36.34600000     26.52600000
H     40.71900000     35.81600000     26.14900000
H     41.00400000     36.82500000     27.24100000
O     29.75600000     34.04300000     23.65300000
H     29.35500000     34.87400000     23.90900000
H     30.04000000     33.65000000     24.47800000
O     24.66300000     27.29900000     34.51100000
H     25.38400000     27.83500000     34.83900000
H     24.36000000     26.80900000     35.27600000
O     36.54500000     22.89500000     25.81800000
H     36.95100000     23.04600000     24.96500000
H     35.60700000     22.84900000     25.63300000
O     31.11400000     33.76000000     21.30300000
H     31.94600000     33.95100000     21.73600000
H     30.44900000     33.97200000     21.95800000
O     27.82400000     23.75700000     25.53300000
H     28.04000000     24.35200000     24.81600000
H     27.54500000     22.95000000     25.10000000
O     28.34000000     28.61000000     16.45700000
H     28.61900000     28.70500000     17.36800000
H     28.93900000     27.96000000     16.09000000
O     15.27100000     34.33700000     32.08800000
H     15.83300000     34.65900000     31.38300000
H     15.24200000     35.05600000     32.71900000
O     32.45200000     36.16800000     24.65000000
H     33.12500000     36.67800000     25.10000000
H     31.81500000     35.95700000     25.33300000
O     33.46200000     20.43300000     32.56200000
H     32.64500000     20.26100000     33.03100000
H     33.43900000     19.83600000     31.81500000
O     24.45600000     26.59300000     40.44400000
H     23.58100000     26.96100000     40.56500000
H     24.33700000     25.65000000     40.55400000
O     31.13800000     34.05800000     31.42400000
H     30.69900000     34.07400000     32.27400000
H     32.06100000     34.20800000     31.62700000
O     26.93100000     39.84200000     26.53300000
H     27.02900000     40.75600000     26.79900000
H     27.28000000     39.81300000     25.64200000
O     26.72200000     16.55300000     35.76700000
H     27.44700000     17.15300000     35.94200000
H     26.54700000     16.13600000     36.61100000
O     22.14300000     37.71800000     19.70600000
H     22.43800000     38.62600000     19.77700000
H     21.26100000     37.72300000     20.07900000
O     33.75100000     29.00200000     26.67500000
H     33.62400000     28.74200000     27.58700000
H     34.13300000     28.23100000     26.25600000
O     32.60600000     27.64700000     37.11900000
H     32.65800000     28.31800000     36.43800000
H     31.73300000     27.26900000     37.01700000
O     38.22300000     26.29000000     25.13400000
H     37.33000000     26.47100000     25.42700000
H     38.77400000     26.52800000     25.87900000
O     23.12000000     30.92000000     15.49600000
H     22.89200000     31.11600000     16.40500000
H     23.97000000     30.48400000     15.55000000
O     18.78600000     28.34200000     33.14500000
H     19.53300000     28.73300000     33.59800000
H     18.90200000     27.39900000     33.26000000
O     33.23100000     15.76600000     33.92100000
H     33.91700000     15.60200000     33.27400000
H     32.53200000     16.19400000     33.42700000
O     16.33700000     23.55900000     23.84200000
H     15.40000000     23.74700000     23.78300000
H     16.38900000     22.60300000     23.84600000
O     32.86600000     30.98900000     14.39000000
H     32.42200000     31.04700000     13.54400000
H     32.37100000     31.57500000     14.96200000
O     22.72400000     27.61500000     24.04300000
H     21.96000000     27.41200000     23.50400000
H     23.47400000     27.40000000     23.48800000
O     28.97800000     30.67600000     18.93400000
H     28.97500000     29.82600000     19.37500000
H     29.78800000     30.68100000     18.42500000
O     18.24600000     20.10200000     29.59600000
H     18.15500000     19.42600000     28.92500000
H     17.50600000     20.69000000     29.44700000
O     33.83800000     34.93600000     22.46500000
H     33.33500000     35.16400000     23.24700000
H     34.35200000     34.17100000     22.72600000
O     22.22100000     35.77000000     29.42700000
H     22.53100000     36.56500000     28.99300000
H     22.83800000     35.63200000     30.14600000
O     26.54900000     21.58400000     37.66900000
H     25.61200000     21.51800000     37.48300000
H     26.59300000     21.82600000     38.59400000
O     28.97900000     16.18800000     22.54700000
H     29.32500000     16.82100000     21.91900000
H     28.85400000     16.69200000     23.35200000
O     29.63500000     22.01100000     30.13800000
H     30.02500000     22.42800000     30.90600000
H     28.69200000     22.04600000     30.29900000
O     30.75400000     17.79700000     24.87400000
H     30.17700000     18.24400000     25.49400000
H     30.54200000     16.86900000     24.97500000
O     23.07600000     40.60200000     33.86600000
H     22.84600000     40.10000000     33.08400000
H     23.23100000     39.94000000     34.53900000
O     22.36300000     37.68700000     35.32700000
H     21.67400000     37.98100000     35.92400000
H     21.92000000     37.08600000     34.72800000
O     22.56800000     33.36800000     31.98900000
H     22.11300000     32.62200000     31.59700000
H     22.80000000     33.07100000     32.86900000
O     36.43800000     31.80900000     38.60100000
H     36.23800000     32.30000000     39.39900000
H     35.73200000     31.16600000     38.53200000
O     32.47100000     36.18000000     15.80400000
H     32.75300000     36.27500000     14.89400000
H     31.53100000     36.00900000     15.74600000
O     34.60300000     35.89500000     26.42000000
H     35.07000000     35.16900000     26.00500000
H     34.02000000     35.47500000     27.05300000
O     30.00500000     23.01100000     32.57400000
H     29.09900000     23.05200000     32.88100000
H     30.40300000     23.82200000     32.88900000
O     31.79200000     20.60500000     26.13800000
H     31.85800000     20.14600000     25.30000000
H     32.59200000     20.36800000     26.60600000
O     31.30000000     37.33300000     19.29000000
H     31.82800000     37.54600000     20.05900000
H     31.79000000     37.70000000     18.55300000
O     19.33000000     27.18400000     27.32500000
H     18.49100000     27.39300000     27.73600000
H     19.19500000     27.37100000     26.39600000
O     27.97000000     26.84800000     39.98400000
H     28.73500000     27.42000000     40.05300000
H     27.59100000     26.84700000     40.86300000
O     26.47500000     24.59400000     21.69100000
H     27.18400000     24.59000000     22.33400000
H     26.91400000     24.47700000     20.84900000
O     37.64000000     31.49900000     33.05600000
H     38.08700000     30.76300000     32.64000000
H     36.83700000     31.12100000     33.41500000
O     32.44400000     23.63600000     36.05800000
H     32.57200000     22.69100000     36.13900000
H     32.26100000     23.93100000     36.95100000
O     34.04900000     22.50200000     28.33900000
H     34.97700000     22.26800000     28.37200000
H     33.76800000     22.49500000     29.25400000
O     34.61100000     36.72100000     20.26900000
H     34.32500000     37.62600000     20.39100000
H     34.11300000     36.22200000     20.91700000
O     30.16700000     39.99900000     27.58200000
H     30.29000000     39.69400000     26.68400000
H     30.32200000     39.22500000     28.12300000
O     28.70700000     29.17200000     42.96200000
H     29.62100000     29.45300000     42.99800000
H     28.72900000     28.25000000     43.21800000
O     25.65100000     32.76800000     36.26400000
H     25.83900000     33.66400000     35.98500000
H     25.49700000     32.83800000     37.20600000
O     23.67700000     29.85000000     30.44000000
H     24.54800000     30.12400000     30.72800000
H     23.30000000     29.40800000     31.20000000
O     33.10900000     42.90800000     29.47900000
H     32.33700000     43.43100000     29.26000000
H     33.04300000     42.13700000     28.91600000
O     17.36900000     19.87400000     24.50500000
H     16.60700000     20.28200000     24.09500000
H     17.68900000     20.53000000     25.12400000
O     34.63700000     20.47900000     37.07300000
H     33.98700000     19.89000000     37.45600000
H     35.47800000     20.06200000     37.25800000
O     33.88900000     15.85600000     25.95300000
H     32.99700000     16.03300000     26.25300000
H     33.92900000     14.90400000     25.86700000
O     31.61300000     39.58800000     25.04500000
H     31.68400000     38.88500000     24.40000000
H     32.50800000     39.71700000     25.35900000
O     31.43200000     22.59500000     18.76600000
H     30.48400000     22.49400000     18.68900000
H     31.71400000     21.83700000     19.27700000
O     26.09000000     31.08800000     31.45700000
H     26.92800000     31.14000000     31.91800000
H     25.70700000     31.95900000     31.55700000
O     17.79100000     30.79700000     18.65100000
H     18.18000000     30.70500000     19.52100000
H     17.09000000     31.43800000     18.76700000
O     13.76800000     27.14100000     29.92900000
H     13.69000000     27.00600000     30.87400000
H     14.21900000     27.98100000     29.84300000
O     29.75100000     21.20100000     20.76700000
H     28.91600000     21.66900000     20.79700000
H     29.58200000     20.37800000     21.22400000
O     16.15600000     27.98300000     21.88800000
H     16.59200000     27.13300000     21.94100000
H     16.23700000     28.35000000     22.76800000
O     27.41800000     13.73100000     22.31100000
H     28.07500000     14.41300000     22.44900000
H     26.94400000     14.01000000     21.52800000
O     37.43000000     18.14800000     30.76700000
H     38.25600000     18.29400000     30.30600000
H     37.69000000     17.95500000     31.66800000
O     39.63200000     33.67600000     33.04900000
H     39.18100000     32.92200000     33.42900000
H     40.56200000     33.47100000     33.14200000
O     33.79000000     31.55700000     36.33700000
H     34.20100000     32.41800000     36.40800000
H     33.09600000     31.67400000     35.68800000
O     23.30900000     14.91900000     28.23000000
H     22.94400000     15.23400000     29.05700000
H     23.54500000     15.71500000     27.75400000
O     31.73600000     31.92800000     29.57500000
H     31.24600000     32.58800000     30.06500000
H     31.33500000     31.92600000     28.70600000
O     36.11400000     25.23100000     27.67200000
H     36.16400000     24.30000000     27.45500000
H     35.52700000     25.27000000     28.42700000
O     40.45100000     26.47100000     18.08900000
H     39.83300000     26.48000000     18.82000000
H     41.24300000     26.88000000     18.43900000
O     34.10400000     39.97300000     23.19200000
H     34.20000000     40.91900000     23.30200000
H     34.15100000     39.62200000     24.08100000
O     21.39800000     26.86100000     28.99500000
H     20.55000000     26.63900000     28.61100000
H     21.67200000     27.65100000     28.52800000
O     17.31800000     28.20400000     28.92800000
H     16.55400000     28.46900000     28.41600000
H     17.44000000     28.91300000     29.56000000
O     27.62300000     15.65300000     30.18400000
H     26.80300000     16.13600000     30.28700000
H     28.28600000     16.21900000     30.57800000
O     30.70400000     20.87100000     38.14500000
H     30.19500000     21.06100000     37.35700000
H     30.84400000     21.72500000     38.55300000
O     22.26400000     29.64400000     21.86900000
H     21.68800000     28.99900000     21.45800000
H     21.95400000     29.69900000     22.77400000
O     36.83700000     18.26600000     33.97300000
H     36.03200000     18.06200000     33.49700000
H     36.88600000     17.60000000     34.65900000
O     30.93800000     17.90700000     21.66700000
H     31.08200000     18.38000000     20.84800000
H     30.88900000     18.59100000     22.33400000
O     30.32300000     41.95100000     23.31600000
H     30.69100000     41.10900000     23.58400000
H     30.44000000     42.51800000     24.07900000
O     31.11500000     30.10600000     25.94900000
H     30.75600000     29.38200000     25.43600000
H     32.01300000     29.83800000     26.14600000
O     29.18700000     21.08700000     35.94500000
H     28.50500000     21.75900000     35.93800000
H     28.72100000     20.27100000     35.76300000
O     26.73500000     35.55600000     40.01100000
H     26.57100000     34.62100000     39.89200000
H     25.87800000     35.92400000     40.22700000
O     16.93300000     31.83900000     25.70900000
H     17.48800000     31.38300000     25.07600000
H     17.51600000     32.03400000     26.44300000
O     19.33200000     32.79000000     32.40800000
H     19.79800000     32.03400000     32.04900000
H     19.39700000     33.45800000     31.72500000
O     38.00800000     29.89700000     19.02600000
H     37.07100000     30.09300000     19.03700000
H     38.24900000     29.82500000     19.95000000
O     25.84700000     22.99500000     30.84100000
H     25.15500000     23.62200000     31.05100000
H     26.23400000     23.32600000     30.03100000
O     26.36600000     27.35600000     19.45100000
H     26.15900000     28.11500000     18.90600000
H     26.66800000     27.73000000     20.27900000
O     24.54600000     30.58000000     20.88500000
H     23.73800000     30.20000000     21.23000000
H     24.77100000     31.27200000     21.50800000
O     37.83000000     36.51300000     35.17100000
H     37.46700000     37.24300000     34.67000000
H     38.47400000     36.11600000     34.58500000
O     17.10200000     31.19800000     38.14400000
H     17.07200000     30.68200000     38.95000000
H     17.78200000     30.78000000     37.61600000
O     22.44500000     22.63300000     24.82300000
H     21.99800000     23.48000000     24.83700000
H     21.90600000     22.08600000     24.25200000
O     32.83800000     38.73600000     21.06800000
H     32.61800000     39.47700000     20.50400000
H     33.18500000     39.13600000     21.86500000
O     31.10300000     24.16200000     41.29300000
H     30.17700000     23.99800000     41.11100000
H     31.19600000     23.99800000     42.23100000
O     18.56800000     33.63400000     19.60000000
H     19.38000000     33.13600000     19.51300000
H     18.07000000     33.16700000     20.27000000
O     23.05200000     18.96000000     34.02000000
H     22.55500000     18.16500000     33.82900000
H     23.06700000     19.01100000     34.97600000
O     39.75600000     24.08100000     27.91600000
H     39.87100000     24.86100000     27.37300000
H     39.36300000     23.43600000     27.32800000
O     25.58700000     16.55600000     22.17000000
H     26.34600000     16.95500000     22.59600000
H     25.95300000     16.06700000     21.43400000
O     26.62000000     32.28300000     13.01100000
H     27.16900000     31.88500000     12.33500000
H     26.74400000     31.72600000     13.77900000
O     22.29300000     19.02800000     21.53600000
H     22.71000000     18.98200000     20.67600000
H     21.36700000     19.18100000     21.34600000
O     34.62500000     26.06900000     14.69100000
H     35.49500000     25.67400000     14.74100000
H     34.70600000     26.89000000     15.17500000
O     25.71300000     21.50700000     25.97200000
H     24.91700000     21.99200000     26.19100000
H     25.75300000     21.53200000     25.01500000
O     34.40100000     38.91000000     25.82100000
H     34.35700000     38.82800000     26.77300000
H     35.33600000     38.86600000     25.61900000
O     37.97200000     30.42300000     25.32100000
H     38.22500000     31.10200000     24.69600000
H     38.65200000     30.45000000     25.99400000
O     17.35200000     19.55000000     32.20900000
H     17.74400000     20.30900000     32.64100000
H     17.61300000     19.63500000     31.29200000
O     27.35200000     37.18600000     16.90500000
H     27.55000000     37.37700000     17.82200000
H     26.79600000     36.40700000     16.93700000
O     34.22200000     19.24600000     21.66200000
H     34.27000000     18.30200000     21.51000000
H     35.05700000     19.46600000     22.07400000
O     17.33900000     25.33100000     21.78700000
H     16.89400000     24.67700000     22.32600000
H     17.03400000     25.15700000     20.89700000
O     29.86000000     33.69900000     33.96100000
H     30.30600000     33.78300000     34.80400000
H     28.97300000     34.02000000     34.12600000
O     18.51300000     17.11700000     24.03800000
H     19.31800000     17.30100000     24.52200000
H     18.09100000     17.97000000     23.94100000
O     35.78100000     28.18400000     30.03000000
H     35.90200000     28.91000000     29.41900000
H     34.95600000     27.77900000     29.76100000
O     36.84200000     38.14400000     30.64800000
H     37.04500000     37.23300000     30.43700000
H     37.64400000     38.62400000     30.43800000
O     22.01900000     28.17500000     37.65800000
H     21.84900000     28.09900000     38.59700000
H     22.27600000     29.08900000     37.53400000
O     24.81200000     17.68000000     24.98600000
H     24.42800000     18.53400000     24.79000000
H     25.35200000     17.47900000     24.22200000
O     21.24800000     36.12200000     33.23100000
H     21.64100000     35.45100000     32.67200000
H     20.47000000     35.70200000     33.59800000
O     34.04400000     25.70400000     23.54100000
H     34.32000000     25.61700000     22.62900000
H     33.28900000     25.12100000     23.61900000
O     19.47200000     37.91400000     20.96200000
H     19.69900000     37.33700000     21.69100000
H     18.52000000     37.99800000     21.01000000
O     34.83200000     32.38700000     20.33300000
H     34.82100000     33.19700000     19.82400000
H     34.95700000     32.67300000     21.23800000
O     15.08400000     24.92100000     32.15600000
H     15.41500000     25.81300000     32.25900000
H     15.86700000     24.38800000     32.01800000
O     19.22800000     29.56700000     37.96100000
H     19.06500000     28.76600000     37.46300000
H     19.00600000     29.33800000     38.86400000
O     25.49100000     28.86300000     38.43500000
H     25.18400000     28.20700000     39.06000000
H     24.74900000     29.45700000     38.32600000
O     32.55600000     32.52400000     34.18500000
H     32.56600000     33.47000000     34.03600000
H     31.90000000     32.19200000     33.57300000
O     19.68500000     30.00300000     27.08000000
H     19.85400000     29.28200000     27.68700000
H     20.53700000     30.18900000     26.68500000
O     20.42200000     21.33200000     23.29500000
H     19.74400000     21.01800000     23.89300000
H     20.36500000     20.74700000     22.54000000
O     35.39000000     30.28900000     18.59900000
H     35.26700000     30.98700000     19.24400000
H     35.31800000     30.73000000     17.75300000
O     28.01700000     40.59800000     30.88600000
H     28.47300000     41.28000000     30.39400000
H     27.12000000     40.62100000     30.55300000
O     32.90500000     30.68600000     41.00500000
H     32.40700000     31.48600000     40.83900000
H     33.36300000     30.51400000     40.18200000
O     18.38600000     24.61800000     25.75100000
H     18.07700000     25.36400000     26.26600000
H     18.01400000     24.75600000     24.88100000
O     24.77400000     28.31300000     26.41200000
H     24.46400000     27.68200000     25.76100000
H     25.53100000     27.88800000     26.81600000
O     25.37000000     26.00400000     24.88500000
H     26.13200000     25.46300000     25.09100000
H     25.25800000     25.91000000     23.93900000
O     19.55300000     18.33300000     33.75100000
H     20.26100000     18.02500000     33.18600000
H     19.02000000     18.89100000     33.18500000
O     37.84100000     19.18100000     27.23500000
H     37.91700000     19.08000000     26.28600000
H     37.60900000     18.30800000     27.55100000
O     34.38200000     31.44000000     30.19400000
H     34.72700000     32.13400000     30.75600000
H     33.51200000     31.74800000     29.93900000
O     32.82400000     35.39800000     37.55100000
H     32.16000000     35.69800000     36.93000000
H     32.32200000     35.06400000     38.29500000
O     41.01000000     28.37200000     31.24300000
H     40.16100000     28.80700000     31.16300000
H     40.88700000     27.73400000     31.94600000
O     39.27800000     34.60600000     25.76500000
H     39.39300000     33.86300000     26.35800000
H     38.51800000     35.07300000     26.11100000
O     16.46900000     21.68500000     28.60900000
H     15.84600000     21.44500000     27.92300000
H     16.08900000     22.46200000     29.01800000
O     30.81800000     15.51800000     30.97700000
H     31.63100000     15.07700000     30.73400000
H     30.44900000     14.97500000     31.67400000
O     24.19100000     22.21900000     34.93000000
H     24.78500000     21.50900000     34.68500000
H     23.84100000     22.53600000     34.09800000
O     22.63400000     19.36300000     18.83000000
H     22.92500000     20.10700000     18.30300000
H     23.02100000     18.60000000     18.40200000
O     20.08700000     28.17000000     20.92800000
H     19.46700000     28.90000000     20.92400000
H     19.65000000     27.48800000     21.43800000
O     40.13200000     22.47200000     25.40500000
H     39.93600000     21.58000000     25.69200000
H     41.07400000     22.46600000     25.23300000
O     19.37400000     31.32000000     24.06800000
H     19.82100000     32.12800000     23.81500000
H     20.07100000     30.75400000     24.39900000
O     32.90900000     16.45800000     29.42000000
H     33.85300000     16.54300000     29.55400000
H     32.82400000     15.83300000     28.70000000
O     27.39600000     30.46000000     22.64800000
H     26.66100000     29.88500000     22.43700000
H     27.82000000     30.04200000     23.39800000
O     40.48100000     28.41800000     36.71900000
H     41.09700000     27.70800000     36.53700000
H     39.66200000     27.97500000     36.93900000
O     38.75500000     20.37600000     34.86500000
H     38.42300000     21.13000000     35.35200000
H     37.97100000     19.88100000     34.62500000
O     21.44400000     33.24100000     22.99600000
H     22.15300000     33.56900000     23.54800000
H     21.51500000     33.74800000     22.18700000
O     21.84000000     30.24900000     24.86200000
H     22.63900000     30.77400000     24.90400000
H     22.09200000     29.39800000     25.22000000
O     30.16300000     16.60200000     28.40600000
H     30.22000000     16.28600000     29.30800000
H     30.04700000     17.54900000     28.49100000
O     23.69100000     26.59600000     15.47000000
H     24.56300000     26.54400000     15.86300000
H     23.65800000     27.46700000     15.07400000
O     28.52800000     13.42700000     31.34600000
H     28.03500000     14.19500000     31.05600000
H     29.26600000     13.37200000     30.73800000
O     26.81100000     13.78400000     33.41600000
H     27.29700000     14.54900000     33.72400000
H     27.28800000     13.49300000     32.63900000
O     31.38700000     29.01800000     29.26000000
H     30.59700000     29.03900000     28.71900000
H     31.68100000     29.92800000     29.29100000
O     18.62900000     29.97400000     30.92400000
H     18.67600000     29.35300000     31.65200000
H     17.81400000     30.45400000     31.07100000
O     40.79600000     33.32700000     21.20200000
H     40.72200000     33.96100000     21.91500000
H     40.76000000     32.47400000     21.63300000
O     22.64400000     24.29700000     28.93400000
H     22.97500000     24.44800000     28.04900000
H     22.20300000     25.11500000     29.16800000
O     19.36900000     24.75700000     38.44700000
H     19.86300000     23.93900000     38.39900000
H     19.44800000     25.03100000     39.36100000
O     23.39700000     19.80800000     24.14600000
H     23.51700000     20.75200000     24.24300000
H     23.21500000     19.68400000     23.21400000
O     24.71900000     40.13700000     28.05700000
H     24.95300000     40.74700000     28.75600000
H     25.55400000     39.91000000     27.64700000
O     35.55200000     33.30400000     26.26000000
H     34.85700000     32.68300000     26.04200000
H     36.32100000     32.97800000     25.79200000
O     43.51300000     24.25300000     27.22500000
H     44.02000000     23.66000000     27.78000000
H     42.60300000     23.99200000     27.36300000
O     19.00800000     27.09000000     36.78500000
H     19.25000000     26.32600000     37.30800000
H     19.12600000     26.80800000     35.87800000
O     30.48000000     23.32500000     25.88300000
H     30.62500000     22.39400000     26.05100000
H     29.53500000     23.40100000     25.75300000
O     34.62000000     29.03200000     14.95800000
H     34.13600000     28.61400000     15.67000000
H     34.01000000     29.67600000     14.59800000
O     16.71000000     32.20500000     21.47300000
H     16.06000000     31.50300000     21.50900000
H     16.56400000     32.70800000     22.27400000
O     13.15200000     30.05200000     31.88300000
H     13.04900000     30.95500000     32.18300000
H     13.93100000     30.07100000     31.32700000
O     28.84300000     24.64700000     23.08300000
H     29.33300000     25.45000000     23.25900000
H     29.36100000     24.19000000     22.42100000
O     28.85700000     18.05700000     36.65700000
H     29.81000000     17.96600000     36.66100000
H     28.63800000     18.32100000     37.55100000
O     42.20000000     29.35500000     28.13300000
H     41.90000000     29.43800000     29.03800000
H     43.03800000     28.89600000     28.19900000
O     24.17200000     24.75100000     32.34000000
H     23.52400000     25.34700000     31.96300000
H     24.65800000     25.28900000     32.96500000
O     32.71700000     40.89900000     27.74200000
H     31.78600000     40.67800000     27.76300000
H     33.16000000     40.09500000     28.01600000
O     26.18800000     35.26600000     35.67700000
H     27.05300000     35.65000000     35.53100000
H     25.64300000     36.00200000     35.95600000
O     17.78300000     25.50000000     29.67900000
H     16.87800000     25.19100000     29.63000000
H     17.71800000     26.44900000     29.57000000
O     29.62800000     36.01000000     15.57600000
H     29.32600000     35.10800000     15.46700000
H     28.86600000     36.47800000     15.92000000
O     34.87100000     18.51100000     25.26800000
H     34.41700000     17.68800000     25.45000000
H     34.79600000     19.01100000     26.08100000
O     16.42300000     29.31600000     24.31100000
H     16.05500000     29.04500000     25.15200000
H     15.79900000     29.95700000     23.97100000
O     30.11100000     35.50400000     29.37700000
H     30.57100000     35.21400000     30.16400000
H     29.39800000     34.87500000     29.27000000
O     31.82000000     20.49200000     23.18600000
H     32.64400000     20.00700000     23.22500000
H     31.91900000     21.07400000     22.43200000
O     22.07500000     24.78300000     17.01900000
H     21.55200000     25.06200000     17.77100000
H     22.47000000     25.58900000     16.68900000
O     16.58700000     31.94400000     31.06700000
H     15.76300000     32.29900000     31.40100000
H     17.23400000     32.62400000     31.25400000
O     28.01400000     39.90100000     24.13900000
H     27.42600000     40.44500000     23.61600000
H     28.89100000     40.21900000     23.92300000
O     37.73600000     27.97200000     27.79500000
H     37.11400000     27.24500000     27.77200000
H     37.20200000     28.75000000     27.63800000
O     29.11500000     20.67100000     16.85800000
H     28.89800000     20.53700000     15.93600000
H     30.06700000     20.76700000     16.87000000
O     18.78000000     32.39000000     27.96600000
H     19.13500000     31.58400000     27.59200000
H     18.62300000     32.17900000     28.88600000
O     36.75800000     20.11400000     18.95800000
H     37.09200000     20.61800000     18.21600000
H     36.49000000     19.27700000     18.57800000
O     20.32200000     38.47600000     32.00600000
H     19.76000000     38.95600000     32.61500000
H     20.82600000     37.88200000     32.56200000
O     37.98900000     33.37700000     20.93900000
H     37.72900000     32.63900000     20.38700000
H     38.94600000     33.37200000     20.91200000
O     24.27700000     26.44900000     22.06300000
H     24.34900000     25.49500000     22.05500000
H     23.68400000     26.65100000     21.33900000
O     32.93600000     35.03900000     33.84000000
H     33.86900000     35.13700000     34.03000000
H     32.51100000     35.70600000     34.37800000
O     34.27500000     16.63600000     20.71700000
H     33.34800000     16.53800000     20.93400000
H     34.73400000     16.15000000     21.40100000
O     31.00500000     37.99100000     29.22900000
H     30.65100000     37.10700000     29.13000000
H     30.50400000     38.37100000     29.95100000
O     26.52000000     22.41300000     18.35200000
H     27.08800000     21.88400000     17.79200000
H     27.06100000     23.16100000     18.60400000
O     32.69900000     25.02100000     18.26100000
H     33.55800000     24.61000000     18.16600000
H     32.08400000     24.28800000     18.29300000
O     35.35000000     30.09300000     33.96300000
H     35.00000000     30.37300000     34.80800000
H     34.64500000     30.27200000     33.34000000
O     19.56600000     34.47900000     30.00100000
H     20.33000000     35.04600000     29.90000000
H     18.83100000     35.01100000     29.69700000
O     20.32100000     24.39300000     14.94300000
H     20.80900000     24.13400000     14.16200000
H     20.97700000     24.41300000     15.64000000
O     39.44700000     19.49900000     24.84400000
H     39.75500000     19.57000000     23.94100000
H     40.00200000     18.82400000     25.23500000
O     37.97000000     30.13800000     21.75400000
H     37.40400000     29.37700000     21.88200000
H     37.57800000     30.82300000     22.29400000
O     20.82700000     18.64100000     30.56000000
H     20.50300000     19.35800000     30.01500000
H     21.46200000     18.18600000     30.00700000
O     22.75900000     16.55900000     22.56700000
H     23.60100000     16.41100000     22.13600000
H     22.52500000     17.45700000     22.33400000
O     20.61900000     35.77900000     38.28600000
H     20.31600000     35.75900000     39.19400000
H     20.36900000     36.64700000     37.96900000
O     19.50600000     26.17400000     22.78500000
H     18.70300000     25.80100000     22.42100000
H     20.16800000     25.49700000     22.64800000
O     23.91800000     37.37200000     22.59500000
H     23.37300000     36.64500000     22.29400000
H     24.49900000     37.55700000     21.85700000
O     23.52000000     23.81700000     22.06300000
H     23.84000000     23.17600000     21.42800000
H     22.57000000     23.81900000     21.94300000
O     24.35300000     37.11500000     31.06000000
H     24.88200000     36.71300000     30.37000000
H     23.96800000     37.88800000     30.64800000
O     37.40900000     24.29400000     21.15100000
H     37.50400000     23.46100000     20.68900000
H     37.70700000     24.11100000     22.04200000
O     32.13300000     31.37600000     20.02700000
H     31.55700000     32.03700000     20.41300000
H     33.01200000     31.74600000     20.10800000
O     26.00700000     25.10000000     16.38800000
H     25.63500000     24.27200000     16.08500000
H     25.60700000     25.24200000     17.24600000
O     23.74800000     23.82800000     40.82300000
H     23.49500000     23.52600000     39.95100000
H     23.85800000     23.02500000     41.33300000
O     23.86100000     34.07100000     38.66900000
H     23.81700000     34.96700000     39.00300000
H     23.05800000     33.96400000     38.16000000
O     15.77700000     36.98700000     25.81900000
H     15.52000000     37.82200000     26.20900000
H     15.98300000     36.42600000     26.56800000
O     32.27200000     28.63000000     34.56100000
H     32.84600000     27.92300000     34.85600000
H     32.66800000     28.93500000     33.74500000
O     37.17500000     35.78900000     37.67100000
H     37.97700000     35.86800000     38.18700000
H     37.43100000     36.05700000     36.78800000
O     19.37600000     25.80700000     34.16800000
H     19.51400000     25.37700000     33.32400000
H     18.96400000     25.13700000     34.71400000
O     20.89400000     40.67200000     29.02700000
H     20.71400000     39.96500000     28.40600000
H     20.14900000     41.26600000     28.93600000
O     28.66600000     36.00900000     25.02200000
H     28.83000000     36.30800000     25.91700000
H     27.89700000     36.50400000     24.74100000
O     22.60800000     22.53600000     31.17000000
H     22.39600000     22.76500000     30.26500000
H     22.92600000     23.35200000     31.55600000
O     30.02200000     31.61200000     39.96700000
H     29.60600000     32.42900000     40.24200000
H     29.29700000     31.05900000     39.67600000
O     25.30500000     41.03200000     30.56800000
H     24.41900000     40.66900000     30.55200000
H     25.30300000     41.63600000     31.31000000
O     28.57900000     24.16600000     40.42100000
H     27.98000000     23.49700000     40.09000000
H     28.26000000     24.98400000     40.04000000
O     40.45200000     21.60600000     21.08400000
H     40.78100000     22.47600000     21.31100000
H     39.49900000     21.69400000     21.11200000
O     18.68300000     23.58600000     35.90900000
H     18.29200000     23.18000000     36.68300000
H     19.62600000     23.55200000     36.07000000
O     22.31900000     39.87700000     23.53400000
H     22.29000000     40.17900000     24.44200000
H     23.03000000     39.23700000     23.51700000
O     28.75000000     37.80700000     30.79900000
H     28.28200000     37.35800000     31.50300000
H     28.43600000     38.71000000     30.84100000
O     14.61600000     30.99600000     23.41500000
H     14.42000000     31.93300000     23.39500000
H     13.75800000     30.57100000     23.42200000
O     25.98400000     41.43800000     22.78700000
H     26.10900000     42.15700000     22.16700000
H     25.32200000     41.76100000     23.39800000
O     30.23400000     32.32900000     27.02900000
H     30.24300000     31.50800000     26.53700000
H     30.93300000     32.85200000     26.63600000
O     26.36700000     30.47600000     34.50200000
H     26.16100000     31.28000000     34.97900000
H     26.00800000     30.61700000     33.62600000
O     22.80400000     23.77800000     38.19000000
H     22.00200000     23.32500000     38.45200000
H     23.43100000     23.07500000     38.02000000
O     20.89000000     29.03400000     34.79500000
H     21.48200000     28.60700000     35.41500000
H     21.47000000     29.46200000     34.16500000
O     34.46300000     34.50200000     18.46900000
H     34.59700000     34.78300000     17.56400000
H     34.68100000     35.27100000     18.99500000
O     30.52600000     27.34500000     22.96900000
H     31.19500000     27.35700000     22.28400000
H     29.81600000     27.88400000     22.62000000
O     26.84100000     27.60000000     36.33700000
H     27.54200000     28.11900000     35.94200000
H     26.43700000     28.18900000     36.97400000
O     37.22300000     32.93000000     30.84600000
H     36.48400000     33.21800000     31.38100000
H     37.78300000     32.44400000     31.45200000
O     14.74300000     24.85800000     28.94300000
H     14.31800000     25.67000000     29.21700000
H     14.32100000     24.17700000     29.46600000
O     26.99100000     27.68500000     22.20800000
H     26.26600000     27.07200000     22.07900000
H     27.39200000     27.41300000     23.03300000
O     30.38100000     27.30700000     19.11600000
H     30.00000000     27.93900000     19.72600000
H     31.31300000     27.29400000     19.33400000
O     34.39400000     21.77400000     34.69200000
H     34.35100000     21.27300000     35.50700000
H     34.20100000     21.13400000     34.00700000
O     23.20600000     32.88700000     34.87100000
H     22.40300000     33.23000000     35.26400000
H     23.89100000     33.08900000     35.50900000
O     13.73400000     27.26900000     24.64200000
H     13.63500000     27.78000000     23.83900000
H     14.02600000     27.90500000     25.29600000
O     22.71500000     35.24900000     21.17700000
H     23.40000000     34.72300000     20.76600000
H     22.44800000     35.86900000     20.49700000
O     25.46100000     29.64500000     16.39000000
H     26.33100000     29.24700000     16.38700000
H     25.39100000     30.06300000     17.24800000
O     40.21400000     27.84000000     24.06300000
H     40.40800000     27.58000000     23.16300000
H     39.43600000     27.33300000     24.29700000
O     37.10800000     39.19700000     33.70000000
H     36.83400000     40.08500000     33.92900000
H     37.10700000     39.18400000     32.74300000
O     42.67900000     23.28300000     30.04400000
H     42.28500000     24.15500000     30.05900000
H     43.10800000     23.19900000     30.89600000
O     21.39600000     17.89200000     25.04900000
H     22.00200000     17.37400000     24.52000000
H     21.88400000     18.68800000     25.26000000
O     19.07100000     37.03600000     29.68700000
H     19.73600000     37.50500000     29.18200000
H     19.29900000     37.20700000     30.60000000
O     35.61800000     16.70000000     29.25500000
H     36.16800000     16.42200000     28.52200000
H     36.13400000     17.37300000     29.70000000
O     37.19600000     21.58400000     31.12200000
H     36.80800000     21.65800000     30.25100000
H     37.18100000     20.64600000     31.31300000
O     37.91500000     23.29900000     33.23200000
H     37.59000000     22.79800000     33.98000000
H     37.64500000     22.79100000     32.46700000
O     32.94300000     29.11200000     31.85800000
H     33.39200000     29.42600000     31.07300000
H     32.43100000     28.36200000     31.55800000
O     37.22000000     38.93600000     25.77600000
H     37.86100000     39.30300000     25.16800000
H     37.54900000     39.17200000     26.64300000
O     16.34400000     36.11100000     34.01400000
H     17.20500000     35.69700000     34.07700000
H     16.47900000     36.99700000     34.34900000
O     33.24700000     27.61000000     16.83500000
H     32.75800000     28.35000000     17.19500000
H     32.74400000     26.83900000     17.09600000
O     40.59800000     30.72100000     22.67300000
H     40.91300000     30.44300000     23.53400000
H     39.93700000     30.07000000     22.43800000
O     21.79200000     34.38600000     27.22400000
H     21.40200000     33.64200000     27.68200000
H     21.99600000     35.01500000     27.91600000
O     23.95800000     21.05900000     37.20700000
H     23.91000000     21.48000000     36.34900000
H     23.94900000     20.12100000     37.01500000
O     19.61200000     22.40200000     30.19400000
H     19.12100000     21.60100000     30.01200000
H     19.90300000     22.70500000     29.33400000
O     16.73800000     34.53100000     27.84900000
H     17.41900000     33.87000000     27.72600000
H     15.91700000     34.05300000     27.73400000
O     20.49100000     20.72300000     36.10100000
H     20.96800000     21.28800000     35.49300000
H     20.23700000     19.96500000     35.57400000
O     38.29400000     17.75500000     21.51500000
H     37.60200000     18.22200000     21.98200000
H     37.85800000     16.98800000     21.14400000
O     36.40600000     27.74200000     41.36900000
H     36.37200000     27.03500000     42.01300000
H     35.60800000     27.63400000     40.85100000
O     41.02100000     23.67400000     32.54700000
H     40.69700000     22.77600000     32.48100000
H     40.65200000     24.11800000     31.78300000
O     28.18300000     33.21600000     18.04300000
H     28.99700000     33.67200000     18.25700000
H     28.32000000     32.32100000     18.35200000
O     16.42400000     35.98800000     30.14900000
H     16.48400000     35.45100000     29.35900000
H     17.26500000     36.44100000     30.19600000
O     25.32500000     20.22600000     32.90700000
H     24.56100000     19.73000000     33.20200000
H     25.33700000     20.10300000     31.95700000
O     27.07200000     18.54100000     23.35700000
H     27.40100000     18.80000000     24.21800000
H     26.86700000     19.36800000     22.92100000
O     30.99100000     34.71000000     39.69200000
H     30.70200000     35.62200000     39.69300000
H     30.99300000     34.45800000     40.61500000
O     31.06600000     27.32700000     25.78900000
H     30.77600000     27.33900000     24.87700000
H     31.25900000     26.40700000     25.96800000
O     34.93900000     33.87700000     37.01000000
H     34.14500000     34.34900000     37.26200000
H     35.41100000     33.74500000     37.83200000
O     16.13100000     33.55100000     23.63300000
H     16.20000000     32.92000000     24.35000000
H     15.21800000     33.83900000     23.65300000
O     21.09400000     30.38200000     40.78400000
H     21.74000000     31.04900000     41.01600000
H     20.49500000     30.82600000     40.18400000
O     29.65600000     26.52200000     12.71400000
H     30.05900000     26.02900000     13.42800000
H     30.01300000     26.12800000     11.91800000
O     36.92400000     22.32400000     35.47300000
H     36.01800000     22.02100000     35.41000000
H     37.05000000     22.51200000     36.40300000
O     39.96700000     30.48700000     34.92400000
H     39.89700000     29.64100000     35.36600000
H     39.15100000     30.93800000     35.13900000
O     40.55400000     34.88200000     23.44300000
H     41.11000000     35.65900000     23.50400000
H     40.07600000     34.86400000     24.27200000
O     31.92000000     34.52500000     27.31500000
H     32.57700000     34.35800000     27.99100000
H     31.23700000     35.02500000     27.76200000
O     16.16500000     27.31200000     32.95300000
H     16.96400000     27.72600000     32.62600000
H     16.14200000     27.53800000     33.88300000
O     28.94100000     42.13700000     28.58500000
H     29.63400000     42.77600000     28.42000000
H     29.22700000     41.34800000     28.12400000
O     25.16600000     22.78500000     15.17500000
H     25.80400000     23.20900000     14.60000000
H     25.02700000     21.92200000     14.78400000
O     31.85200000     19.23300000     36.33200000
H     31.57800000     19.58100000     35.48300000
H     31.59100000     19.90400000     36.96200000
O     14.41800000     22.21200000     32.61900000
H     15.18000000     22.02800000     32.07100000
H     14.20200000     23.12600000     32.43100000
O     29.13800000     20.13500000     40.70800000
H     29.57400000     20.26700000     39.86600000
H     29.51800000     20.80100000     41.28200000
O     17.94600000     21.98000000     26.16200000
H     18.10900000     22.88000000     25.88200000
H     17.46300000     22.06700000     26.98400000
O     35.20600000     16.12300000     23.21000000
H     34.39300000     16.31200000     23.67800000
H     35.84800000     15.96000000     23.90200000
O     42.29800000     30.29600000     33.83600000
H     41.37200000     30.53200000     33.90500000
H     42.49700000     29.85800000     34.66300000
O     24.41900000     42.30500000     24.95400000
H     24.83200000     42.58800000     25.77000000
H     23.72900000     41.70200000     25.23100000
O     21.13200000     32.17500000     19.61600000
H     21.48000000     31.78700000     20.41900000
H     21.78600000     32.82500000     19.36000000
O     32.88700000     27.80700000     20.34100000
H     33.31900000     28.63900000     20.14800000
H     33.60000000     27.21800000     20.58700000
O     28.34300000     24.00300000     16.80000000
H     27.52700000     24.49400000     16.70200000
H     28.36300000     23.41700000     16.04400000
O     28.51200000     37.37400000     27.42500000
H     28.25500000     38.29000000     27.32200000
H     28.65300000     37.26900000     28.36600000
O     35.10400000     30.65300000     24.98200000
H     35.97900000     30.26600000     25.00000000
H     34.59800000     30.12900000     25.60300000
O     28.66200000     29.57700000     36.00300000
H     28.00500000     30.10800000     35.55300000
H     29.27200000     29.31400000     35.31400000
O     34.54600000     25.15400000     29.92700000
H     33.99600000     25.88700000     29.65100000
H     33.92800000     24.49600000     30.24400000
O     26.44500000     22.32800000     40.21100000
H     25.70100000     22.91300000     40.35300000
H     26.72800000     22.08100000     41.09100000
O     32.15200000     21.96000000     15.97800000
H     33.10700000     21.91600000     15.92300000
H     31.96200000     21.90600000     16.91500000
O     31.92500000     24.02000000     23.83300000
H     31.16300000     23.83300000     24.38100000
H     31.59100000     23.98400000     22.93700000
O     34.67300000     26.41600000     38.56800000
H     35.55200000     26.46700000     38.19200000
H     34.08700000     26.59200000     37.83200000
O     25.50500000     17.51100000     33.43900000
H     25.97400000     16.99700000     34.09500000
H     24.64300000     17.66400000     33.82400000
O     20.27900000     25.92600000     18.88700000
H     19.62900000     26.62400000     18.97300000
H     19.78500000     25.11900000     19.02900000
O     19.28900000     38.92100000     24.76200000
H     18.63600000     38.26000000     24.53200000
H     20.08700000     38.63300000     24.31800000
O     15.30000000     30.85000000     34.29000000
H     14.37100000     30.90600000     34.06400000
H     15.31200000     30.44600000     35.15800000
O     35.07500000     33.93600000     31.95400000
H     34.97200000     34.87600000     31.80900000
H     35.46000000     33.86800000     32.82800000
O     38.80600000     32.72400000     36.93100000
H     38.87200000     33.67600000     36.85500000
H     38.07100000     32.58200000     37.52800000
O     29.93600000     26.47300000     16.44500000
H     29.51500000     25.61500000     16.48300000
H     30.14100000     26.68200000     17.35600000
O     19.04700000     35.08800000     34.39100000
H     19.04400000     34.16500000     34.13700000
H     18.73600000     35.08900000     35.29600000
O     22.85500000     39.50500000     30.77400000
H     22.17200000     38.94600000     31.14400000
H     22.48700000     39.82000000     29.94900000
O     23.33200000     22.16800000     17.41600000
H     22.83200000     22.97700000     17.52000000
H     23.88100000     22.32200000     16.64700000
O     21.21700000     31.19600000     31.00200000
H     21.89300000     30.69500000     30.54600000
H     20.43900000     30.64000000     30.96500000
O     25.27600000     28.57900000     12.70400000
H     24.42500000     28.99700000     12.57600000
H     25.71300000     29.12100000     13.36100000
O     37.88000000     23.37400000     38.06700000
H     38.25600000     24.12000000     38.53500000
H     37.17000000     23.07100000     38.63200000
O     19.81500000     24.67000000     31.58700000
H     19.13200000     24.76500000     30.92300000
H     20.29900000     23.88700000     31.32400000
O     40.81300000     34.49600000     29.46400000
H     40.73500000     34.19800000     30.37000000
H     39.94500000     34.35100000     29.08800000
O     23.22900000     30.76800000     38.56900000
H     23.18200000     31.11500000     39.46000000
H     23.07500000     31.52700000     38.00700000
O     28.92000000     30.96300000     32.21900000
H     29.30000000     31.72900000     32.64900000
H     29.50600000     30.24200000     32.45400000
O     24.79300000     25.30800000     18.71100000
H     24.91300000     24.74700000     19.47700000
H     25.21100000     26.13500000     18.95100000
O     23.37300000     25.91200000     36.57300000
H     22.73400000     26.57500000     36.83600000
H     23.23000000     25.18700000     37.18100000
O     29.26100000     20.80100000     24.07500000
H     29.04900000     20.66300000     24.99800000
H     30.18900000     20.57500000     24.00500000
O     22.73500000     27.02300000     19.82100000
H     21.79100000     26.91400000     19.70200000
H     23.12200000     26.63500000     19.03600000
O     24.03500000     17.47100000     27.45200000
H     24.78900000     17.81200000     27.93300000
H     24.36200000     17.32400000     26.56500000
O     23.23700000     18.52200000     36.82000000
H     23.71100000     17.70300000     36.96600000
H     22.56900000     18.53800000     37.50500000
O     42.83800000     26.08900000     30.59900000
H     43.19000000     26.32300000     31.45800000
H     42.74900000     26.92400000     30.14000000
O     35.07000000     36.32900000     39.15500000
H     34.39500000     36.21800000     38.48600000
H     35.89300000     36.15600000     38.69800000
O     35.10900000     31.80500000     16.14600000
H     34.18000000     31.74400000     15.92600000
H     35.56300000     31.65600000     15.31700000
O     36.11700000     36.83800000     23.70500000
H     35.26300000     36.47800000     23.94600000
H     36.38100000     37.35800000     24.46400000
O     38.01800000     28.95400000     31.98300000
H     37.24200000     29.00700000     31.42600000
H     37.90300000     28.14300000     32.47900000
O     22.49500000     29.10000000     27.97700000
H     23.33500000     28.85300000     27.59100000
H     22.72800000     29.65500000     28.72200000
O     27.29300000     22.75000000     33.09300000
H     26.82800000     23.23300000     33.77600000
H     26.75400000     22.86400000     32.31000000
O     19.48000000     19.84300000     20.87700000
H     18.67100000     19.33200000     20.90700000
H     19.35500000     20.44800000     20.14500000
O     18.68000000     30.61400000     21.39700000
H     19.25800000     30.68400000     22.15700000
H     17.99200000     31.26000000     21.55900000
O     42.41700000     29.10700000     24.79400000
H     41.59800000     28.73600000     24.46600000
H     42.64900000     28.55400000     25.54100000
O     21.89600000     27.67300000     40.74900000
H     21.36800000     27.11700000     41.32300000
H     21.57500000     28.55900000     40.91200000
O     24.93100000     33.74400000     30.76300000
H     25.07400000     34.68900000     30.71100000
H     24.02200000     33.65300000     31.04900000
O     31.06100000     18.75500000     19.17600000
H     30.89800000     17.85500000     18.89200000
H     30.22500000     19.20200000     19.04500000
O     21.64500000     23.44100000     35.29800000
H     21.95500000     24.34500000     35.34700000
H     22.44300000     22.91800000     35.22200000
O     32.87600000     23.39000000     30.93700000
H     31.95400000     23.17400000     30.79800000
H     32.95800000     23.49300000     31.88500000
O     25.57500000     12.69300000     29.60100000
H     25.68600000     12.87700000     30.53400000
H     25.13500000     13.46900000     29.25400000
O     28.29100000     30.57900000     14.48200000
H     28.13300000     29.90100000     15.14000000
H     28.83700000     30.15000000     13.82300000
