1516
J. Chem. Phys. 151, 174104 (2019); https://doi.org/10.1063/1.5121396
C     28.07300000     28.07300000     26.76900000
C     28.07300000     29.26500000     27.45400000
C     28.07300000     29.26700000     28.80400000
C     28.07300000     28.07300000     29.51800000
C     28.07300000     26.87800000     28.80400000
C     28.07300000     26.88000000     27.45400000
H     28.07300000     30.20100000     26.90100000
H     28.07300000     30.20900000     29.34500000
H     28.07300000     25.93600000     29.34500000
H     28.07300000     25.94400000     26.90100000
N     28.07300000     28.07200000     30.83600000
H     28.07300000     27.21500000     31.37700000
H     28.07300000     28.93000000     31.37700000
N     28.07300000     28.07300000     25.35000000
O     28.07300000     29.13700000     24.76800000
O     28.07300000     27.00800000     24.76800000
O     26.22100000     14.23300000     24.31500000
H     26.77100000     14.80000000     24.85500000
H     26.26900000     13.37600000     24.73900000
O     29.32000000     24.17600000     25.42500000
H     28.65200000     24.00100000     24.76200000
H     29.51100000     23.31800000     25.80500000
O     31.13200000     42.19100000     25.61200000
H     31.04400000     42.43600000     26.53300000
H     31.80700000     42.77800000     25.27100000
O     23.65700000     36.45300000     18.68500000
H     23.39900000     36.85500000     17.85600000
H     23.14100000     36.91500000     19.34600000
O     35.20200000     28.38400000     22.24000000
H     35.83400000     28.03900000     21.60900000
H     35.12100000     29.31100000     22.01600000
O     26.99900000     21.60100000     40.22800000
H     27.60100000     21.09600000     39.68100000
H     27.44000000     21.66400000     41.07500000
O     20.82500000     26.06300000     33.13700000
H     21.32900000     25.37900000     33.57600000
H     21.43500000     26.79500000     33.05200000
O     35.30700000     17.30500000     29.70200000
H     36.00900000     17.11300000     30.32300000
H     34.51900000     17.37000000     30.24200000
O     18.56000000     25.88900000     38.52900000
H     17.86900000     25.22800000     38.51700000
H     19.33000000     25.42600000     38.85800000
O     26.09200000     21.30200000     31.10900000
H     26.86800000     21.50700000     31.63100000
H     25.83300000     20.42700000     31.39800000
O     25.80100000     41.81000000     23.25900000
H     26.17100000     41.05600000     22.79900000
H     26.55800000     42.24900000     23.64800000
O     23.04500000     31.41900000     16.69900000
H     22.35800000     31.12200000     16.10200000
H     23.66600000     31.88300000     16.13800000
O     26.51500000     39.39600000     21.94400000
H     27.04800000     39.07100000     21.21900000
H     25.74500000     38.82800000     21.95000000
O     26.64100000     30.48300000     14.76200000
H     26.26500000     31.16900000     15.31400000
H     26.11100000     29.70800000     14.94800000
O     17.98300000     19.83900000     21.94800000
H     18.00000000     19.05700000     21.39700000
H     17.11800000     19.82400000     22.35900000
O     40.29300000     18.46500000     29.80300000
H     40.21900000     17.90200000     30.57300000
H     39.66900000     19.17400000     29.96200000
O     27.50800000     40.54400000     27.84000000
H     28.31300000     40.03400000     27.92500000
H     26.91500000     39.97600000     27.34800000
O     25.73100000     15.42500000     19.90700000
H     25.35500000     15.71700000     20.73700000
H     25.79500000     16.22000000     19.37900000
O     25.80000000     17.73300000     24.36000000
H     26.01100000     18.54300000     24.82400000
H     26.10300000     17.03700000     24.94300000
O     36.74200000     32.36500000     36.10500000
H     37.41900000     33.03400000     36.00300000
H     36.70100000     31.93300000     35.25200000
O     21.72900000     32.87500000     28.43400000
H     22.17400000     32.44700000     29.16500000
H     21.79800000     33.81000000     28.62500000
O     37.29500000     37.69900000     27.43500000
H     36.39400000     37.69800000     27.11400000
H     37.29000000     37.08000000     28.16600000
O     24.97800000     25.37400000     33.50700000
H     25.37400000     24.58000000     33.86600000
H     25.10800000     26.03500000     34.18700000
O     17.07700000     28.13500000     37.95000000
H     17.68500000     28.72000000     38.40300000
H     17.41100000     27.25700000     38.13000000
O     24.65400000     28.74200000     15.50300000
H     24.16000000     29.23300000     16.15900000
H     24.80200000     27.88600000     15.90600000
O     20.74400000     26.80900000     23.70100000
H     21.42000000     26.32700000     24.17900000
H     20.59600000     27.59700000     24.22400000
O     32.74200000     20.98600000     19.00400000
H     32.90000000     21.93000000     19.02600000
H     32.40000000     20.77900000     19.87300000
O     27.62900000     14.96500000     28.91500000
H     26.75500000     15.29000000     28.70200000
H     27.47200000     14.18200000     29.44200000
O     35.86800000     28.63600000     16.18500000
H     35.17600000     29.23800000     16.45600000
H     35.40400000     27.84600000     15.90600000
O     18.66200000     31.43400000     25.19900000
H     18.55600000     31.61300000     24.26400000
H     17.77200000     31.27800000     25.51600000
O     34.80600000     17.88000000     32.83100000
H     35.41100000     17.28500000     32.38800000
H     35.37300000     18.50100000     33.29000000
O     34.61300000     33.08400000     16.19900000
H     35.15300000     33.36200000     15.45900000
H     34.90600000     33.63100000     16.92800000
O     24.47400000     22.30600000     28.95300000
H     23.72400000     22.03700000     29.48400000
H     25.22500000     22.23000000     29.54100000
O     16.86100000     31.10700000     32.91500000
H     16.66700000     30.90400000     32.00000000
H     17.80900000     31.23500000     32.93700000
O     33.44600000     20.61500000     32.98000000
H     33.55600000     21.44000000     33.45300000
H     34.33500000     20.36000000     32.73300000
O     20.72600000     33.09100000     17.67200000
H     21.61100000     32.75000000     17.54500000
H     20.40600000     33.26300000     16.78600000
O     21.38800000     34.71600000     21.37900000
H     21.05600000     34.42400000     22.22800000
H     20.62900000     34.67800000     20.79800000
O     31.99200000     31.28000000     23.34300000
H     31.81100000     30.89000000     24.19800000
H     31.22500000     31.82200000     23.15900000
O     32.34600000     24.02600000     18.86700000
H     32.03000000     23.97600000     19.77000000
H     31.55300000     24.12700000     18.34100000
O     35.88800000     41.06900000     24.19600000
H     36.18700000     40.16500000     24.10200000
H     34.93300000     41.01100000     24.16600000
O     38.31200000     32.91700000     22.57000000
H     38.81100000     32.89200000     23.38600000
H     38.60700000     33.71500000     22.13200000
O     27.86400000     41.87200000     32.31900000
H     27.92000000     40.97700000     31.98400000
H     28.65400000     42.30100000     31.98900000
O     28.46300000     26.61400000     35.93800000
H     28.87300000     27.42100000     36.24800000
H     27.83500000     26.90300000     35.27600000
O     20.79800000     31.26000000     39.17800000
H     20.57400000     31.55400000     38.29500000
H     19.96000000     31.00900000     39.56700000
O     24.49800000     16.47100000     22.06900000
H     25.01500000     16.61400000     22.86200000
H     24.04000000     17.29900000     21.92900000
O     38.51300000     20.14100000     27.08700000
H     38.00600000     19.32900000     27.10900000
H     38.08400000     20.70900000     27.72700000
O     21.55400000     25.75700000     41.50200000
H     21.54200000     26.71300000     41.44800000
H     22.43200000     25.51100000     41.21300000
O     31.08500000     25.42000000     30.41600000
H     31.60900000     25.84200000     31.09700000
H     30.20000000     25.38800000     30.78000000
O     23.45100000     28.02800000     26.85800000
H     24.23700000     28.18800000     26.33500000
H     23.00400000     28.87400000     26.88500000
O     33.09700000     24.97200000     23.91000000
H     33.47900000     24.09700000     23.98500000
H     33.85000000     25.55500000     23.81200000
O     39.06100000     31.17100000     32.04300000
H     39.27600000     31.87600000     32.65400000
H     38.48400000     30.59100000     32.53900000
O     31.38400000     18.60500000     26.62300000
H     31.76800000     17.86500000     26.15200000
H     32.06900000     18.88300000     27.23200000
O     26.85800000     21.22100000     16.45800000
H     26.22600000     21.12700000     17.17000000
H     26.64400000     20.51100000     15.85200000
O     30.26200000     21.70400000     35.36900000
H     30.17100000     22.61100000     35.07900000
H     29.36900000     21.42500000     35.57100000
O     25.16600000     15.52200000     28.42600000
H     24.47400000     14.87700000     28.57600000
H     24.82200000     16.08600000     27.73400000
O     30.13200000     27.35400000     42.56800000
H     29.80900000     26.61100000     42.05900000
H     29.40400000     27.97500000     42.57400000
O     33.46200000     18.46200000     36.61800000
H     34.13100000     18.60500000     37.28800000
H     33.53800000     17.53300000     36.39700000
O     26.34200000     27.97200000     34.34700000
H     25.73400000     28.07700000     33.61600000
H     26.22800000     28.76600000     34.87000000
O     31.35900000     14.72200000     22.60200000
H     31.01900000     14.44800000     21.75100000
H     31.85800000     13.96700000     22.91600000
O     14.64300000     25.37000000     27.72400000
H     15.28700000     25.15500000     27.04900000
H     14.58100000     26.32500000     27.70200000
O     33.94400000     15.29700000     24.09200000
H     33.42800000     15.62300000     23.35400000
H     34.78100000     15.04200000     23.70500000
O     32.78300000     18.66800000     30.80800000
H     33.12400000     18.67700000     31.70200000
H     31.83700000     18.56400000     30.91300000
O     25.52500000     18.96800000     27.74200000
H     25.71200000     18.11300000     27.35500000
H     24.99800000     18.77000000     28.51700000
O     16.74600000     34.30900000     27.80100000
H     17.65300000     34.01000000     27.73100000
H     16.39800000     33.84000000     28.55900000
O     29.17700000     36.75000000     25.54300000
H     28.71000000     37.46100000     25.98200000
H     29.17400000     36.99600000     24.61800000
O     14.00900000     22.03400000     25.48300000
H     13.47300000     22.81900000     25.59300000
H     14.86700000     22.36500000     25.21600000
O     33.70900000     32.29300000     34.22600000
H     33.74600000     31.79500000     35.04300000
H     32.78900000     32.54600000     34.14100000
O     35.83100000     27.92000000     37.31800000
H     36.56600000     28.33600000     36.86800000
H     35.39300000     27.40600000     36.63900000
O     42.80400000     29.02100000     25.61700000
H     42.08900000     28.65700000     25.09600000
H     42.75600000     28.55300000     26.45100000
O     26.57700000     33.65100000     28.26400000
H     26.16900000     33.57800000     27.40100000
H     26.23800000     32.90200000     28.75400000
O     13.12900000     23.79100000     29.04200000
H     12.75000000     24.47400000     29.59500000
H     13.84100000     24.22800000     28.57500000
O     26.38000000     33.64200000     37.89400000
H     25.45900000     33.90100000     37.90500000
H     26.75300000     34.11100000     37.14800000
O     21.97500000     37.85400000     31.20900000
H     22.00500000     38.81000000     31.16100000
H     22.62900000     37.56100000     30.57500000
O     28.90200000     32.23600000     25.54100000
H     29.61600000     31.91500000     26.09100000
H     28.42800000     32.85300000     26.09900000
O     16.80000000     20.55100000     34.64700000
H     17.68600000     20.65000000     34.99500000
H     16.53300000     21.44000000     34.41500000
O     34.72700000     38.76900000     26.46000000
H     33.97000000     38.73800000     25.87500000
H     34.67800000     39.63200000     26.87100000
O     27.54100000     20.88900000     28.75400000
H     27.21900000     20.99600000     29.64900000
H     26.80100000     20.51300000     28.27700000
O     35.60400000     28.43700000     32.87100000
H     35.52200000     27.72600000     32.23600000
H     35.27900000     29.21000000     32.41000000
O     21.70700000     28.46300000     41.82900000
H     21.96300000     28.99000000     41.07200000
H     20.88700000     28.85700000     42.12900000
O     19.13800000     24.98100000     31.30200000
H     19.89300000     25.53100000     31.51000000
H     19.44100000     24.08700000     31.45900000
O     40.49700000     29.78800000     29.99800000
H     39.88000000     30.30200000     30.51800000
H     39.96700000     29.42100000     29.28900000
O     35.25600000     37.62500000     34.98200000
H     34.76400000     38.26800000     35.49400000
H     35.53800000     36.97300000     35.62200000
O     30.80200000     16.26400000     33.74100000
H     31.09100000     17.17300000     33.82400000
H     31.61200000     15.75500000     33.72500000
O     43.05400000     29.04900000     30.63600000
H     42.14800000     29.35900000     30.61400000
H     43.50800000     29.67500000     31.20000000
O     13.86900000     27.26900000     25.24300000
H     14.75900000     27.56700000     25.42800000
H     13.91900000     26.89800000     24.36200000
O     41.38200000     20.96800000     32.75300000
H     42.32200000     20.87500000     32.59800000
H     41.05000000     21.39400000     31.96200000
O     29.43000000     21.05800000     26.68900000
H     29.85800000     20.24500000     26.95700000
H     28.68300000     21.14300000     27.28100000
O     22.76000000     23.08400000     26.79400000
H     23.10700000     22.99600000     27.68200000
H     22.26000000     23.90000000     26.81200000
O     27.15400000     26.64600000     19.46600000
H     26.61700000     26.92400000     20.20800000
H     27.95400000     26.30300000     19.86500000
O     19.21600000     24.29500000     25.72700000
H     19.00600000     23.60500000     26.35700000
H     19.78200000     24.89600000     26.21100000
O     28.51700000     33.60300000     20.07300000
H     27.75600000     33.72000000     20.64200000
H     29.17000000     34.21200000     20.41700000
O     16.48700000     28.48300000     25.21200000
H     17.26100000     28.23700000     24.70600000
H     16.37300000     29.41700000     25.03700000
O     33.43300000     28.18100000     30.13100000
H     34.25300000     27.68700000     30.09200000
H     33.05100000     28.07900000     29.25900000
O     24.38200000     26.48700000     38.40800000
H     25.33400000     26.44200000     38.50000000
H     24.05000000     26.38500000     39.30000000
O     41.18600000     30.95400000     23.34700000
H     41.76800000     31.68500000     23.55600000
H     40.53200000     30.96000000     24.04500000
O     31.89300000     21.65600000     30.60800000
H     31.53500000     21.35100000     29.77400000
H     32.33300000     20.89000000     30.97500000
O     21.87300000     32.53400000     25.77100000
H     21.88900000     32.72800000     26.70800000
H     21.72000000     31.59000000     25.72300000
O     26.38600000     34.23000000     22.36000000
H     26.16100000     35.14700000     22.51600000
H     26.86600000     33.96400000     23.14400000
O     27.66200000     23.25800000     34.59900000
H     27.17400000     22.44000000     34.50400000
H     27.94000000     23.26700000     35.51500000
O     36.90800000     17.97900000     27.35000000
H     36.35600000     17.59800000     28.03300000
H     36.30100000     18.19200000     26.64100000
O     25.79500000     34.81900000     14.43900000
H     25.12200000     34.13900000     14.40600000
H     26.41300000     34.51200000     15.10200000
O     25.74500000     32.30100000     16.39100000
H     26.65800000     32.21000000     16.66400000
H     25.36300000     32.90300000     17.03000000
O     17.32500000     33.71500000     34.69300000
H     16.55900000     33.39800000     35.17200000
H     17.70900000     32.92900000     34.30500000
O     23.42300000     18.50400000     18.86600000
H     23.22000000     19.12500000     18.16500000
H     24.30500000     18.19400000     18.66400000
O     21.32900000     34.43000000     31.07600000
H     21.81000000     34.96800000     30.44600000
H     22.00900000     33.96500000     31.56300000
O     15.55100000     28.20200000     27.81200000
H     15.89300000     28.19100000     26.91800000
H     15.11600000     29.05100000     27.89200000
O     20.01700000     19.07400000     36.07300000
H     20.10000000     19.96600000     36.40800000
H     20.91200000     18.73300000     36.07300000
O     22.42000000     26.74400000     21.36400000
H     21.75200000     26.85500000     22.04100000
H     21.94200000     26.40600000     20.60800000
O     31.81000000     34.50000000     41.77100000
H     32.55600000     34.59900000     42.36300000
H     32.19300000     34.17400000     40.95600000
O     31.63600000     33.78900000     35.59000000
H     32.21900000     34.23000000     36.20800000
H     31.07700000     33.23900000     36.13900000
O     25.81400000     36.22400000     34.21500000
H     24.86700000     36.19400000     34.35500000
H     26.04100000     37.14900000     34.30700000
O     41.49800000     24.26800000     32.14000000
H     41.06400000     23.91000000     32.91500000
H     41.63900000     25.19100000     32.34900000
O     28.13200000     17.84200000     19.78500000
H     28.87500000     18.44300000     19.72100000
H     27.75600000     18.01700000     20.64700000
O     33.63100000     28.89100000     38.47700000
H     34.44600000     28.44600000     38.24700000
H     33.62000000     28.89200000     39.43500000
O     31.87000000     13.96500000     27.79500000
H     31.99400000     14.83800000     27.42200000
H     32.32500000     13.37900000     27.19000000
O     31.69900000     30.09600000     30.96100000
H     31.47200000     29.76100000     31.82900000
H     32.30200000     29.44600000     30.60200000
O     32.86000000     30.95400000     19.18200000
H     33.44000000     31.04500000     19.93800000
H     32.01900000     30.69000000     19.55500000
O     21.82200000     39.63800000     23.77800000
H     21.04400000     40.16900000     23.60900000
H     22.20300000     39.48600000     22.91300000
O     27.85200000     38.68700000     19.56500000
H     28.07500000     37.85300000     19.15100000
H     27.62600000     39.26400000     18.83600000
O     29.59700000     23.58600000     17.68500000
H     28.84800000     23.76400000     17.11600000
H     29.90600000     22.72200000     17.41300000
O     28.21900000     22.59700000     37.16000000
H     28.49300000     21.77000000     37.55700000
H     27.37500000     22.79100000     37.56700000
O     21.05300000     16.49000000     29.84800000
H     20.35000000     17.03300000     30.20400000
H     20.64600000     16.01400000     29.12400000
O     21.27700000     23.03500000     29.42900000
H     20.42800000     23.04200000     28.98900000
H     21.31100000     22.18700000     29.87300000
O     37.07500000     20.40700000     22.01800000
H     36.99400000     19.53700000     21.62600000
H     37.99600000     20.63900000     21.89800000
O     27.57700000     34.56600000     35.42500000
H     27.03300000     35.13100000     34.87700000
H     27.84500000     33.85400000     34.84400000
O     34.78500000     26.88500000     26.95900000
H     34.38200000     27.00100000     27.82000000
H     34.80900000     27.76600000     26.58600000
O     18.98400000     28.57700000     30.28400000
H     19.80700000     28.18500000     29.99100000
H     18.35000000     27.86100000     30.24300000
O     16.29200000     27.94900000     35.19900000
H     16.99500000     27.73000000     34.58700000
H     16.74400000     28.18100000     36.01000000
O     32.16000000     35.14900000     17.88100000
H     31.62400000     35.73400000     18.41700000
H     31.59900000     34.39100000     17.71800000
O     18.16700000     26.44600000     33.72700000
H     18.28900000     26.00700000     32.88500000
H     19.05400000     26.66100000     34.01600000
O     18.75300000     36.91600000     20.34200000
H     19.09900000     36.61300000     19.50200000
H     19.44800000     36.72400000     20.97100000
O     16.83600000     35.08900000     32.43500000
H     16.62900000     34.45800000     33.12500000
H     17.76800000     35.27300000     32.55000000
O     38.87800000     32.66700000     34.39800000
H     39.61800000     32.75800000     34.99800000
H     38.78000000     33.53400000     34.00400000
O     13.42900000     31.70600000     26.74800000
H     13.84600000     31.23900000     27.47200000
H     12.51200000     31.43600000     26.78500000
O     29.11100000     29.09400000     37.01600000
H     29.35700000     29.35200000     37.90400000
H     29.34600000     29.84600000     36.47300000
O     34.99000000     35.99300000     24.43600000
H     34.28500000     36.60400000     24.22200000
H     34.67100000     35.14300000     24.13200000
O     22.89000000     36.68500000     22.47700000
H     22.60300000     35.89900000     22.01200000
H     22.95300000     37.35700000     21.79800000
O     21.64700000     25.80900000     26.79400000
H     22.03100000     26.64100000     26.51700000
H     21.93300000     25.70400000     27.70200000
O     20.88500000     33.42100000     23.63300000
H     20.28900000     32.70400000     23.42100000
H     21.44700000     33.07000000     24.32400000
O     21.88300000     33.92800000     40.65900000
H     21.73700000     33.37100000     39.89500000
H     21.49600000     34.77000000     40.41900000
O     31.58000000     23.23500000     32.80100000
H     31.87000000     22.75200000     32.02700000
H     30.65300000     23.41300000     32.64000000
O     17.53000000     19.54000000     29.49400000
H     16.72900000     19.97000000     29.19300000
H     18.10800000     19.55000000     28.73200000
O     31.71900000     33.98300000     32.43100000
H     32.23400000     34.28100000     33.18100000
H     30.85700000     34.37800000     32.56000000
O     22.93400000     41.65100000     32.40500000
H     23.24500000     42.55600000     32.42500000
H     23.55500000     41.17200000     32.95400000
O     25.13300000     22.14600000     20.98400000
H     26.01800000     22.16900000     21.34800000
H     25.20900000     21.59800000     20.20300000
O     24.12900000     20.44200000     23.24500000
H     24.30300000     21.04900000     22.52600000
H     24.78600000     20.65800000     23.90700000
O     29.55800000     39.85000000     35.97000000
H     30.06100000     39.29600000     35.37300000
H     29.59800000     39.39500000     36.81100000
O     30.05000000     16.53500000     29.45300000
H     29.19400000     16.12800000     29.32300000
H     30.67700000     15.87400000     29.15700000
O     28.08100000     31.88700000     17.71500000
H     28.15700000     32.42300000     18.50400000
H     28.83800000     32.13400000     17.18300000
O     29.02600000     31.23300000     31.50600000
H     29.57200000     31.63000000     30.82800000
H     29.65000000     30.86400000     32.13100000
O     14.68700000     29.99700000     34.18500000
H     15.45800000     30.55000000     34.05700000
H     15.03600000     29.17700000     34.53600000
O     27.52600000     16.20800000     26.10000000
H     27.90800000     16.24800000     26.97600000
H     28.10800000     15.62600000     25.61100000
O     34.92700000     33.80600000     30.34000000
H     34.22700000     34.35500000     29.98700000
H     34.89000000     33.94700000     31.28600000
O     19.23400000     24.29200000     17.54600000
H     19.00700000     24.14900000     16.62700000
H     18.52300000     24.83500000     17.88700000
O     30.11800000     27.47800000     18.48500000
H     29.28000000     27.56200000     18.03000000
H     29.88100000     27.32100000     19.39900000
O     16.49100000     24.80800000     25.79400000
H     16.11000000     25.18400000     25.00100000
H     17.37600000     24.55000000     25.53600000
O     27.63400000     23.51700000     15.14800000
H     27.46000000     22.66600000     15.54900000
H     26.76800000     23.86200000     14.93100000
O     24.71700000     25.01100000     21.24600000
H     24.63500000     24.07300000     21.41800000
H     23.86300000     25.37400000     21.48100000
O     35.57500000     26.32000000     24.02100000
H     35.32900000     27.14800000     23.60700000
H     36.04300000     26.57900000     24.81500000
O     37.19600000     24.58900000     27.67600000
H     37.74500000     25.01000000     27.01500000
H     36.39700000     25.11600000     27.69600000
O     37.07500000     31.86700000     25.69400000
H     37.75900000     32.51600000     25.52700000
H     37.19000000     31.63000000     26.61500000
O     39.73900000     22.45200000     23.02200000
H     39.54700000     22.48700000     23.95900000
H     39.36400000     23.26000000     22.67000000
O     30.87900000     32.45100000     29.94200000
H     31.17000000     33.06700000     30.61400000
H     31.38800000     31.65700000     30.10800000
O     42.58800000     28.07900000     28.05500000
H     42.53600000     28.56500000     28.87800000
H     42.06900000     27.28900000     28.21000000
O     28.00300000     15.20100000     22.44200000
H     27.33100000     14.71900000     22.92300000
H     27.57800000     16.02000000     22.19100000
O     25.42200000     30.17800000     40.57300000
H     25.30000000     30.30800000     41.51300000
H     24.54700000     29.97400000     40.24300000
O     25.05700000     40.37200000     29.97200000
H     25.89200000     39.90400000     29.97900000
H     24.61900000     40.06900000     29.17700000
O     18.05800000     27.64700000     22.87800000
H     18.89200000     27.26100000     23.14400000
H     18.14600000     27.78200000     21.93500000
O     34.76000000     22.40700000     16.01800000
H     34.27400000     23.18700000     15.74900000
H     35.65700000     22.71600000     16.14400000
O     39.47100000     28.27400000     19.55100000
H     40.33500000     28.66900000     19.66700000
H     39.65200000     27.39000000     19.23100000
O     36.27800000     20.68900000     32.71300000
H     36.86100000     20.24300000     32.09900000
H     36.77600000     21.45300000     33.00400000
O     29.11400000     20.53800000     19.73600000
H     29.79400000     20.15300000     20.28900000
H     28.98500000     21.41700000     20.09200000
O     27.06900000     26.34800000     22.27000000
H     27.05200000     26.16500000     23.20900000
H     26.41000000     25.76000000     21.89900000
O     21.82300000     38.39000000     26.11700000
H     21.69200000     37.46400000     25.91200000
H     21.86700000     38.82000000     25.26300000
O     28.60700000     23.30300000     29.64000000
H     29.34900000     23.52600000     29.07800000
H     28.10100000     22.67000000     29.13100000
O     14.21100000     34.32400000     26.26300000
H     14.00700000     33.38900000     26.24000000
H     15.08800000     34.36900000     26.64400000
O     24.76300000     28.31500000     20.45000000
H     24.03000000     27.74900000     20.69300000
H     24.35600000     29.05600000     20.00200000
O     21.88800000     35.64100000     28.55200000
H     22.67300000     36.18900000     28.56600000
H     21.22900000     36.17700000     28.11200000
O     26.05800000     32.83700000     42.19500000
H     26.39000000     33.19900000     41.37400000
H     26.69200000     33.11700000     42.85500000
O     20.79600000     28.10100000     37.80300000
H     19.98200000     27.89400000     38.26200000
H     21.09200000     27.26200000     37.44900000
O     40.45800000     32.94600000     29.92600000
H     40.00900000     33.79100000     29.89800000
H     39.84700000     32.36500000     30.38000000
O     22.94600000     32.39300000     20.69400000
H     23.79600000     32.26300000     21.11500000
H     22.54300000     33.11000000     21.18200000
O     26.37700000     30.80600000     34.93000000
H     26.49200000     31.75200000     35.01400000
H     26.53300000     30.46600000     35.81200000
O     19.87400000     31.61800000     33.76300000
H     19.86300000     31.59900000     32.80600000
H     20.61800000     31.06700000     34.00500000
O     31.42800000     19.01800000     34.10400000
H     32.18000000     19.53300000     33.80900000
H     30.78000000     19.67100000     34.36900000
O     41.20300000     26.94600000     23.15300000
H     40.69700000     26.38900000     22.56000000
H     40.99100000     27.83900000     22.88200000
O     34.15300000     33.37600000     24.06600000
H     34.93500000     32.88300000     23.81600000
H     33.67600000     32.78700000     24.65100000
O     37.91800000     28.04400000     25.08300000
H     38.47900000     28.49400000     24.45100000
H     38.25100000     27.14600000     25.10200000
O     23.67300000     18.94600000     37.56400000
H     23.13300000     18.15600000     37.56100000
H     23.10200000     19.62500000     37.92500000
O     39.71000000     20.42300000     21.29400000
H     39.86000000     21.04600000     22.00400000
H     39.89400000     20.91900000     20.49600000
O     20.55500000     34.96700000     37.21400000
H     20.36600000     35.62900000     36.54800000
H     20.68300000     35.46700000     38.02000000
O     35.32200000     29.18700000     24.97600000
H     35.30800000     29.10500000     24.02200000
H     36.22400000     28.98100000     25.22100000
O     38.17800000     26.43900000     36.28300000
H     38.88500000     25.97500000     35.83400000
H     37.55500000     25.75300000     36.52100000
O     28.41500000     16.44500000     34.85100000
H     29.32500000     16.51200000     34.56100000
H     27.92300000     16.97600000     34.22400000
O     21.98600000     24.24300000     15.30100000
H     21.34700000     23.65700000     14.89500000
H     22.20200000     23.82300000     16.13300000
O     32.84300000     38.94700000     29.90400000
H     32.37400000     39.76600000     30.06500000
H     33.36700000     39.12100000     29.12200000
O     32.35700000     22.37700000     25.62300000
H     31.54200000     22.57000000     26.08500000
H     33.04000000     22.77000000     26.16600000
O     21.94100000     35.95900000     25.09900000
H     21.15200000     35.41900000     25.14800000
H     22.28300000     35.80600000     24.21800000
O     23.68400000     35.86400000     39.40700000
H     23.48200000     36.76800000     39.16500000
H     23.95100000     35.91400000     40.32400000
O     35.03400000     32.53500000     27.90700000
H     35.10700000     32.99500000     28.74300000
H     35.43600000     33.12600000     27.27100000
O     19.23500000     36.36400000     34.91600000
H     19.11000000     36.32300000     33.96800000
H     18.63100000     35.71000000     35.26700000
O     30.61200000     29.62700000     39.30200000
H     29.96400000     29.95000000     39.92800000
H     31.44900000     29.70800000     39.75800000
O     15.80800000     33.37100000     30.52500000
H     16.13300000     34.07500000     31.08600000
H     14.89700000     33.25000000     30.79500000
O     40.15000000     26.24900000     28.09200000
H     40.28500000     25.98500000     27.18200000
H     39.81100000     27.14200000     28.03500000
O     32.76800000     20.08800000     23.83000000
H     32.70900000     20.73000000     24.53800000
H     32.82100000     19.24300000     24.27700000
O     28.67200000     25.11500000     42.06600000
H     27.86200000     25.61200000     42.18200000
H     28.45200000     24.44300000     41.42200000
O     19.12500000     17.93100000     31.33800000
H     18.48100000     18.44000000     30.84500000
H     19.49000000     18.55300000     31.96800000
O     39.09800000     35.00000000     33.01700000
H     38.28000000     35.46000000     32.82900000
H     39.78000000     35.56500000     32.65400000
O     33.20600000     40.54900000     23.78600000
H     32.31900000     40.31600000     24.06000000
H     33.13700000     41.45900000     23.49700000
O     16.01500000     30.02900000     22.49400000
H     16.46300000     29.19400000     22.36100000
H     15.84600000     30.35500000     21.61000000
O     33.97000000     30.92300000     21.64300000
H     33.22900000     30.94600000     22.24900000
H     34.73500000     31.09600000     22.19200000
O     30.28500000     37.48800000     16.43900000
H     30.39700000     37.48500000     17.38900000
H     30.02700000     38.38600000     16.23000000
O     34.87000000     39.46300000     32.45800000
H     33.97100000     39.67500000     32.70700000
H     34.88500000     38.50800000     32.40100000
O     16.14600000     25.82700000     23.16500000
H     16.39200000     25.17400000     22.51000000
H     16.74400000     26.55900000     23.01100000
O     15.79500000     23.18500000     34.12200000
H     16.07700000     23.77500000     34.82100000
H     16.04900000     23.63100000     33.31400000
O     33.54100000     27.35900000     14.90000000
H     32.94500000     26.94100000     14.27800000
H     33.07100000     27.34000000     15.73300000
O     22.31500000     17.95200000     33.93900000
H     22.30600000     17.37800000     33.17200000
H     22.45500000     17.36100000     34.67900000
O     26.71500000     35.72800000     18.24000000
H     25.82400000     35.96700000     18.49600000
H     26.99400000     35.09600000     18.90300000
O     23.81800000     33.83600000     32.47400000
H     24.30400000     34.57900000     32.11500000
H     23.98100000     33.87600000     33.41600000
O     41.37600000     26.10500000     35.90100000
H     42.30900000     26.03500000     35.69700000
H     41.06700000     26.83200000     35.36100000
O     39.92900000     23.24200000     34.24100000
H     40.16500000     22.31500000     34.21100000
H     40.27700000     23.55200000     35.07700000
O     19.62900000     21.92200000     23.06000000
H     19.92300000     21.86100000     23.96900000
H     19.25400000     21.06200000     22.87100000
O     15.90700000     31.39800000     25.56000000
H     15.00300000     31.39500000     25.87400000
H     16.06800000     32.30500000     25.29900000
O     30.93100000     37.90100000     34.30800000
H     31.80000000     37.52000000     34.17800000
H     30.35300000     37.14800000     34.42300000
O     19.90600000     40.46800000     25.79000000
H     20.33100000     39.62200000     25.93200000
H     20.57000000     41.11300000     26.03200000
O     31.38500000     27.67800000     35.44100000
H     32.32900000     27.52000000     35.42000000
H     31.13200000     27.50000000     36.34700000
O     37.85500000     23.46500000     32.66900000
H     38.12800000     23.87400000     31.84800000
H     38.63200000     23.50400000     33.22700000
O     15.01200000     22.57700000     30.67000000
H     15.46900000     23.34200000     31.02000000
H     14.16300000     22.91400000     30.38400000
O     30.99300000     23.78100000     28.09700000
H     31.23000000     24.48500000     28.70000000
H     31.10400000     24.16300000     27.22600000
O     32.62300000     33.08600000     39.44600000
H     33.36900000     32.56900000     39.14100000
H     32.21400000     33.41300000     38.64500000
O     30.57400000     37.70400000     19.23400000
H     30.91900000     37.16700000     19.94800000
H     30.83900000     38.59700000     19.45700000
O     26.51000000     43.24000000     28.01500000
H     25.91900000     43.16800000     28.76500000
H     27.09600000     42.48700000     28.09900000
O     40.73500000     28.44800000     34.16100000
H     41.18800000     29.19700000     34.54800000
H     39.80900000     28.68700000     34.19100000
O     39.19600000     26.36100000     38.71000000
H     40.15100000     26.41100000     38.74000000
H     38.98100000     26.41700000     37.77900000
O     28.66000000     25.91700000     14.06900000
H     28.82700000     25.06900000     14.48000000
H     27.70600000     25.97200000     14.01300000
O     24.55700000     28.85300000     36.65700000
H     24.37200000     28.01000000     37.07000000
H     24.81000000     29.42500000     37.38200000
O     31.79100000     40.04700000     20.10800000
H     32.03100000     40.81100000     19.58300000
H     32.59700000     39.80600000     20.56300000
O     29.51800000     12.53500000     28.08500000
H     30.43600000     12.80500000     28.06600000
H     29.03000000     13.35100000     28.19400000
O     35.92000000     26.29700000     30.98500000
H     35.59300000     25.61400000     31.57100000
H     36.73800000     25.94200000     30.63600000
O     24.87800000     36.14600000     26.15800000
H     25.36100000     35.33300000     26.00800000
H     24.01500000     35.98600000     25.77700000
O     15.96600000     22.91300000     21.80000000
H     15.37700000     22.25300000     21.43400000
H     16.81200000     22.47100000     21.86500000
O     31.14100000     28.66300000     22.63700000
H     31.30900000     29.54800000     22.31300000
H     31.78100000     28.11500000     22.18200000
O     41.11200000     31.18400000     26.57200000
H     40.86100000     30.79200000     27.40900000
H     41.88700000     30.69200000     26.30000000
O     38.74600000     28.67900000     27.75700000
H     38.44500000     28.36200000     26.90600000
H     37.94600000     28.94400000     28.21200000
O     18.70800000     22.78200000     27.92600000
H     17.77400000     22.66500000     27.75200000
H     18.76400000     22.88700000     28.87600000
O     34.27900000     23.09800000     37.83800000
H     33.50300000     23.42300000     38.29500000
H     34.00700000     22.25700000     37.47100000
O     29.83500000     15.10100000     25.02700000
H     30.59400000     15.07600000     25.60900000
H     30.18300000     14.86200000     24.16800000
O     27.02200000     17.03700000     31.79600000
H     27.76000000     16.53100000     31.45500000
H     26.26700000     16.45700000     31.69400000
O     34.65300000     34.58200000     18.70000000
H     33.73600000     34.66900000     18.44100000
H     34.62100000     34.15900000     19.55800000
O     29.87100000     26.69800000     32.91900000
H     29.51600000     25.80900000     32.95000000
H     30.22000000     26.84800000     33.79800000
O     39.51800000     33.16300000     25.36400000
H     40.19200000     33.69900000     24.94500000
H     39.99900000     32.60900000     25.97900000
O     32.97800000     21.30000000     36.01800000
H     32.08900000     21.64100000     35.91900000
H     32.88500000     20.35400000     35.90600000
O     30.99200000     32.96900000     18.27900000
H     31.59000000     32.24700000     18.08200000
H     30.29300000     32.56700000     18.79400000
O     27.91700000     33.75500000     40.03700000
H     28.48200000     34.52600000     40.09300000
H     27.38700000     33.90200000     39.25300000
O     35.67200000     25.45000000     39.46600000
H     35.15200000     24.75100000     39.06900000
H     35.82300000     26.07100000     38.75300000
O     33.18000000     35.71900000     29.11500000
H     32.63200000     36.37000000     29.55200000
H     32.72200000     35.53000000     28.29600000
O     36.65200000     30.93600000     18.72500000
H     36.54000000     31.88600000     18.68400000
H     36.09200000     30.59800000     18.02600000
O     32.90600000     22.17000000     22.04600000
H     32.08100000     22.54800000     22.35000000
H     33.01000000     21.37300000     22.56500000
O     23.86700000     38.91500000     20.88700000
H     22.92500000     38.93800000     20.72100000
H     24.24200000     39.49000000     20.21900000
O     36.15000000     31.33200000     23.12900000
H     36.89500000     31.84800000     22.82300000
H     36.44300000     30.95500000     23.95800000
O     38.44800000     20.20000000     30.59900000
H     38.95400000     20.93400000     30.94600000
H     38.05500000     20.53800000     29.79500000
O     24.45100000     42.99300000     29.86600000
H     24.47500000     42.04100000     29.95600000
H     24.56100000     43.32200000     30.75800000
O     27.03700000     38.66200000     34.28900000
H     27.69900000     38.80000000     33.61100000
H     27.33500000     39.19300000     35.02700000
O     28.96500000     20.26800000     38.59200000
H     29.64400000     19.79300000     38.11300000
H     29.32500000     20.37800000     39.47200000
O     24.40800000     25.33800000     41.05400000
H     24.33800000     24.43700000     41.37100000
H     25.03500000     25.75200000     41.64600000
O     29.13500000     31.46400000     40.63300000
H     29.42300000     31.60600000     41.53500000
H     28.37700000     32.03900000     40.52900000
O     22.67400000     28.37000000     17.58000000
H     23.01300000     29.19600000     17.92600000
H     22.87900000     27.72400000     18.25600000
O     22.89500000     29.66500000     39.46900000
H     22.57100000     28.95800000     38.91100000
H     22.26800000     30.37700000     39.34300000
O     18.84400000     36.54100000     27.41600000
H     17.96400000     36.20500000     27.24500000
H     18.81800000     37.44800000     27.11300000
O     28.52300000     42.56300000     24.49100000
H     29.25600000     42.44100000     25.09300000
H     28.83400000     42.20900000     23.65800000
O     31.10900000     19.15900000     21.07900000
H     30.78600000     18.63800000     21.81400000
H     31.95600000     18.77000000     20.86200000
O     33.72500000     23.84700000     41.08400000
H     33.42200000     24.54300000     41.66700000
H     32.95600000     23.62000000     40.56200000
O     25.13500000     33.20700000     25.71800000
H     24.21600000     33.09600000     25.96100000
H     25.47100000     32.31400000     25.63800000
O     21.01400000     29.33600000     20.92100000
H     21.59500000     29.28000000     21.68000000
H     21.14100000     30.22400000     20.58700000
O     36.81400000     17.04400000     23.82600000
H     35.96800000     17.27300000     24.21300000
H     36.99500000     17.75200000     23.20800000
O     35.58400000     22.70400000     21.43000000
H     36.12300000     21.91300000     21.40900000
H     34.68800000     22.38200000     21.52700000
O     38.18000000     34.17000000     27.63200000
H     37.26800000     34.16100000     27.34300000
H     38.68700000     34.03200000     26.83200000
O     25.71700000     36.63000000     23.37900000
H     24.81600000     36.45600000     23.10700000
H     25.64400000     36.89000000     24.29800000
O     20.08900000     21.37500000     37.37500000
H     20.89900000     21.58000000     37.84200000
H     19.64500000     22.21800000     37.28300000
O     28.00100000     22.24200000     22.80900000
H     28.09300000     22.73200000     21.99200000
H     28.70300000     21.59100000     22.77900000
O     32.00900000     41.20700000     33.57300000
H     32.16000000     42.02500000     34.04700000
H     31.18100000     40.87700000     33.92200000
O     22.42500000     16.29200000     32.05700000
H     22.08800000     16.30300000     31.16100000
H     23.23400000     15.78300000     32.00300000
O     21.64800000     25.80300000     37.15400000
H     21.85200000     25.29800000     37.94100000
H     22.20500000     25.42400000     36.47400000
O     39.53100000     36.71700000     26.19700000
H     39.01500000     36.85900000     26.99000000
H     40.40700000     36.50300000     26.51600000
O     21.15800000     29.45600000     25.10700000
H     20.35700000     29.97900000     25.15000000
H     21.55800000     29.69900000     24.27200000
O     34.78500000     36.55500000     21.41900000
H     34.29600000     35.80200000     21.08700000
H     35.69300000     36.38000000     21.17200000
O     31.75900000     22.66900000     39.52500000
H     31.59900000     21.85400000     40.00200000
H     30.92000000     22.87500000     39.11400000
O     19.27400000     33.23700000     19.96300000
H     19.88600000     33.30700000     19.23000000
H     18.47000000     32.89700000     19.57200000
O     24.31500000     21.69400000     18.18600000
H     24.50600000     22.63200000     18.16100000
H     23.42500000     21.62100000     17.84300000
O     19.70300000     19.25500000     24.45800000
H     20.44800000     18.65800000     24.52000000
H     19.19100000     18.92300000     23.72000000
O     33.17700000     30.22900000     41.16700000
H     34.07500000     29.93100000     41.31100000
H     33.26800000     31.14500000     40.90400000
O     23.96800000     16.60500000     26.25600000
H     23.58700000     17.32700000     25.75500000
H     23.22400000     16.04000000     26.46400000
O     35.87700000     24.80200000     36.34700000
H     35.11900000     24.31700000     36.02100000
H     36.23000000     24.25300000     37.04800000
O     30.75800000     29.58000000     16.34200000
H     30.59900000     28.89700000     16.99400000
H     31.68700000     29.49700000     16.12800000
O     26.53700000     30.51900000     32.24900000
H     27.44200000     30.74600000     32.03300000
H     26.45500000     30.72100000     33.18100000
O     28.44200000     36.52500000     38.45000000
H     29.19900000     36.46400000     39.03200000
H     28.81500000     36.72600000     37.59200000
O     25.57800000     25.92900000     16.49200000
H     26.14000000     26.43700000     17.07900000
H     24.97400000     25.47100000     17.07600000
O     19.46600000     37.95000000     30.07200000
H     20.36800000     37.68300000     30.25100000
H     19.15500000     37.32100000     29.42100000
O     22.55400000     22.02000000     38.18800000
H     23.35300000     22.20200000     38.68200000
H     22.80600000     22.13400000     37.27200000
O     29.82500000     32.12600000     15.28300000
H     30.08300000     31.33500000     15.75600000
H     29.36200000     31.80300000     14.51000000
O     39.94600000     34.79700000     21.55200000
H     40.43500000     35.38900000     20.97900000
H     40.55300000     34.59900000     22.26600000
O     33.60000000     30.89900000     36.57900000
H     33.94100000     31.42700000     37.30100000
H     33.28000000     30.10000000     36.99600000
O     24.39400000     39.79400000     34.59900000
H     25.27300000     39.42400000     34.51700000
H     24.38100000     40.19100000     35.47000000
O     33.25700000     15.23500000     34.13600000
H     33.97100000     15.79800000     33.83700000
H     33.15500000     15.44800000     35.06300000
O     30.95100000     35.44200000     21.01100000
H     30.89900000     35.61100000     21.95200000
H     31.70400000     34.86000000     20.91300000
O     27.66800000     28.90900000     42.48300000
H     27.93400000     29.68100000     41.98400000
H     27.53500000     29.23300000     43.37400000
O     26.97800000     25.26300000     37.82800000
H     27.57300000     25.38500000     37.08800000
H     27.11100000     26.03800000     38.37400000
O     14.71600000     30.72000000     29.15100000
H     15.63300000     30.53400000     29.35300000
H     14.25700000     30.59100000     29.98000000
O     25.96200000     17.53500000     18.11400000
H     26.70900000     17.72600000     18.68100000
H     26.12300000     18.05000000     17.32300000
O     28.69300000     30.79200000     13.15300000
H     29.11000000     29.97900000     12.86600000
H     27.96800000     30.50600000     13.70900000
O     23.13500000     36.19900000     34.75700000
H     22.57200000     35.95500000     34.02300000
H     23.01300000     35.49800000     35.39700000
O     25.85900000     37.32200000     38.03200000
H     26.72500000     37.04900000     38.33600000
H     25.29600000     36.56700000     38.20000000
O     30.73900000     17.32900000     23.17000000
H     29.89200000     17.20400000     23.59800000
H     30.98900000     16.45400000     22.87300000
O     25.27600000     20.58300000     35.87600000
H     24.68300000     20.63900000     35.12700000
H     24.89500000     19.90600000     36.43500000
O     18.68600000     28.24000000     20.12400000
H     18.35900000     28.85800000     19.47000000
H     19.57200000     28.54500000     20.32000000
O     25.24200000     22.87100000     38.78400000
H     25.51500000     23.74800000     39.05300000
H     25.78000000     22.28000000     39.31100000
O     35.74000000     22.43900000     26.06100000
H     36.56600000     22.45400000     26.54500000
H     35.23000000     23.15800000     26.43400000
O     30.27200000     32.27200000     37.47900000
H     29.57800000     32.54600000     38.07800000
H     30.69700000     31.53800000     37.92300000
O     35.62300000     25.40900000     15.30500000
H     34.75200000     25.76800000     15.47100000
H     35.70800000     25.41600000     14.35200000
O     42.64400000     25.33300000     24.95200000
H     42.89200000     24.72500000     24.25400000
H     41.95000000     25.86800000     24.56800000
O     38.08000000     28.43700000     33.89500000
H     37.22000000     28.64900000     33.53200000
H     37.90000000     27.79300000     34.58000000
O     28.53400000     20.73800000     32.11900000
H     29.20700000     20.16100000     31.75700000
H     28.34000000     20.36900000     32.98100000
O     17.21400000     32.10700000     18.81900000
H     17.03200000     32.10400000     17.87900000
H     16.65600000     31.41400000     19.17300000
O     40.21500000     22.48600000     30.64800000
H     40.75400000     23.16000000     31.06100000
H     40.09100000     22.79400000     29.75100000
O     19.77300000     36.09600000     18.01600000
H     19.39600000     36.24300000     17.14800000
H     20.25900000     35.27600000     17.93100000
O     25.17100000     28.23700000     23.42900000
H     25.29700000     27.46700000     23.98400000
H     25.37700000     27.93200000     22.54500000
O     37.31600000     34.21100000     18.94600000
H     37.40800000     34.58600000     19.82200000
H     36.40000000     34.36500000     18.71400000
O     35.62800000     37.01800000     17.06300000
H     36.42600000     37.24700000     17.54000000
H     35.10000000     36.53400000     17.69800000
O     20.57800000     19.89400000     32.88100000
H     21.01600000     19.27700000     33.46700000
H     21.28200000     20.25300000     32.34200000
O     16.10700000     25.32000000     36.00800000
H     15.54000000     25.58200000     36.73400000
H     16.01100000     26.02100000     35.36400000
O     41.38100000     34.47300000     27.52900000
H     41.05900000     33.67500000     27.95000000
H     42.22200000     34.22200000     27.14900000
O     28.64700000     35.58400000     28.80700000
H     27.96000000     34.97300000     28.54200000
H     29.27800000     35.56300000     28.08800000
O     19.23400000     36.01100000     32.23100000
H     19.68300000     36.74500000     31.81200000
H     19.78100000     35.25100000     32.03400000
O     19.30700000     22.29500000     33.19800000
H     19.39600000     22.82700000     33.98900000
H     19.71700000     21.45900000     33.42300000
O     25.91000000     38.83600000     26.46200000
H     25.99300000     37.99000000     26.90300000
H     24.99800000     39.09100000     26.60300000
O     39.38100000     22.48700000     25.67300000
H     39.14100000     21.59100000     25.91200000
H     39.94400000     22.78300000     26.38800000
O     31.73800000     22.00700000     14.40600000
H     31.07500000     21.46100000     14.82900000
H     32.09000000     22.54700000     15.11300000
O     39.37500000     29.77600000     17.15700000
H     39.20000000     29.44900000     18.04000000
H     38.51300000     30.00200000     16.81000000
O     32.34500000     35.77500000     37.86100000
H     33.15700000     35.92500000     38.34600000
H     31.79000000     36.52100000     38.08700000
O     30.29100000     24.49300000     36.25900000
H     29.74100000     25.21600000     35.95800000
H     29.67900000     23.87800000     36.66400000
O     37.67700000     36.16900000     21.57900000
H     37.59800000     36.32600000     22.52000000
H     38.55200000     35.79700000     21.47100000
O     31.16000000     19.04500000     17.59800000
H     31.88600000     19.54700000     17.22800000
H     31.52200000     18.64800000     18.39100000
O     38.07300000     36.17900000     24.14600000
H     37.61300000     35.53100000     24.68000000
H     38.83500000     36.42500000     24.67000000
O     32.87100000     27.54600000     20.96600000
H     33.18400000     27.02700000     20.22500000
H     33.66700000     27.88200000     21.37800000
O     22.89000000     18.71500000     21.83700000
H     23.25600000     19.49300000     22.25700000
H     23.08900000     18.82800000     20.90700000
O     21.22600000     25.50700000     19.32700000
H     20.57000000     25.39800000     18.63800000
H     20.74700000     25.35300000     20.14100000
O     24.28000000     33.80900000     18.40100000
H     24.01300000     34.72100000     18.28500000
H     23.72900000     33.48700000     19.11400000
O     16.85100000     36.80400000     24.52100000
H     17.18000000     37.54400000     25.03100000
H     15.89800000     36.88800000     24.56400000
O     33.93200000     19.52400000     28.39900000
H     33.38900000     19.07400000     29.04500000
H     34.82200000     19.46100000     28.74700000
O     26.35800000     37.30000000     29.89200000
H     26.83100000     36.81500000     29.21500000
H     26.19200000     36.65300000     30.57800000
O     36.72200000     29.69700000     29.26900000
H     35.81200000     29.62700000     28.98200000
H     36.66500000     29.88400000     30.20600000
O     16.55800000     33.68500000     24.55600000
H     16.86700000     34.49000000     24.97100000
H     16.36500000     33.93900000     23.65400000
O     31.30900000     25.76500000     25.94600000
H     30.47500000     25.37700000     25.68100000
H     31.94600000     25.41300000     25.32500000
O     29.95200000     39.10400000     28.00000000
H     30.34400000     38.23700000     28.10400000
H     30.69800000     39.70300000     27.97600000
O     27.71600000     29.67600000     19.52300000
H     27.85900000     30.35700000     18.86500000
H     26.83900000     29.34300000     19.33700000
O     22.51900000     24.81400000     34.63300000
H     23.08200000     25.20900000     33.96700000
H     23.10800000     24.26700000     35.15200000
O     21.83100000     28.02700000     29.99800000
H     22.27300000     27.17900000     29.93900000
H     22.28900000     28.58000000     29.36600000
O     21.17700000     29.69700000     35.75100000
H     21.03000000     29.03500000     36.42700000
H     21.21100000     30.52500000     36.23000000
O     23.82600000     33.18600000     34.98200000
H     23.66700000     33.29700000     35.91900000
H     23.89400000     32.23900000     34.86100000
O     27.41700000     30.33800000     22.28900000
H     27.70800000     29.71900000     22.95900000
H     27.49500000     29.85400000     21.46600000
O     23.66600000     20.11100000     33.52400000
H     23.26300000     19.31800000     33.87800000
H     24.23000000     19.79900000     32.81600000
O     25.30900000     25.56800000     24.17500000
H     25.47300000     24.85100000     24.78700000
H     24.45100000     25.37000000     23.79900000
O     22.35700000     20.83200000     30.72200000
H     22.11700000     20.12900000     30.11900000
H     23.16500000     20.52800000     31.13500000
O     32.74000000     31.01500000     13.68000000
H     32.29800000     31.60700000     13.07200000
H     32.96200000     31.56300000     14.43200000
O     21.82700000     20.49900000     17.06300000
H     21.34200000     19.73300000     17.37100000
H     21.65000000     20.53300000     16.12300000
O     30.79300000     38.07700000     31.44200000
H     30.67800000     38.44600000     32.31800000
H     31.45900000     38.63000000     31.03400000
O     16.28400000     24.75700000     31.53700000
H     16.00500000     25.63100000     31.26500000
H     17.23600000     24.76700000     31.43700000
O     35.07400000     32.24300000     38.74300000
H     35.58200000     32.30300000     39.55200000
H     35.72700000     32.09700000     38.05900000
O     17.60500000     26.33100000     18.33100000
H     17.97000000     27.03400000     18.86900000
H     16.83100000     26.03800000     18.81200000
O     38.20700000     24.94400000     30.35400000
H     38.37500000     24.75000000     29.43200000
H     38.66500000     25.77000000     30.51300000
O     31.37300000     40.94800000     30.84100000
H     30.94200000     41.80300000     30.82400000
H     31.96300000     40.99200000     31.59400000
O     24.12800000     23.20000000     36.01800000
H     24.77800000     23.37200000     36.69900000
H     24.45500000     22.42300000     35.56500000
O     21.21300000     26.88100000     15.84700000
H     21.65600000     27.47400000     16.45400000
H     21.67000000     26.04600000     15.95000000
O     37.34700000     24.30100000     22.76700000
H     36.69700000     24.71800000     23.33200000
H     36.88200000     23.56800000     22.36600000
O     24.18000000     41.88200000     25.53500000
H     24.86500000     41.75100000     26.19000000
H     24.63900000     41.84600000     24.69600000
O     35.23300000     30.83600000     31.84900000
H     35.29300000     31.66800000     31.38000000
H     34.29300000     30.68200000     31.94400000
O     34.96100000     40.93100000     28.06900000
H     34.58200000     41.68200000     28.52500000
H     35.90300000     41.00700000     28.22100000
O     29.85700000     19.65200000     29.72300000
H     29.02900000     20.13200000     29.73600000
H     29.67100000     18.86600000     29.20900000
O     34.19300000     19.93100000     17.15200000
H     33.64400000     20.19700000     17.89000000
H     34.41300000     20.75100000     16.70900000
O     32.51500000     26.14400000     42.06400000
H     31.89600000     26.70600000     42.53100000
H     32.30200000     26.26900000     41.13900000
O     28.49800000     34.64100000     15.81400000
H     28.93600000     35.12300000     16.51500000
H     29.13900000     33.98800000     15.53300000
O     19.05200000     19.06300000     27.30200000
H     19.13100000     19.25300000     26.36800000
H     18.91300000     18.11600000     27.34400000
O     24.58200000     39.64900000     37.31000000
H     23.80300000     39.42900000     37.82100000
H     25.21400000     38.96400000     37.52900000
O     29.87500000     36.18900000     36.11200000
H     30.64900000     35.65900000     35.92000000
H     29.17600000     35.55000000     36.25100000
O     31.29100000     24.91000000     21.85900000
H     31.18400000     25.76500000     21.44200000
H     31.88700000     25.07300000     22.59000000
O     25.78700000     25.67300000     30.70200000
H     25.61800000     25.68800000     31.64400000
H     25.81100000     26.59500000     30.44700000
O     33.28700000     33.85100000     21.26000000
H     33.05300000     32.97900000     20.94400000
H     33.44900000     33.73200000     22.19600000
O     27.26700000     16.96900000     37.72500000
H     28.16800000     17.19300000     37.49300000
H     26.98500000     16.36600000     37.03800000
O     39.28600000     27.60500000     31.38100000
H     38.88800000     27.91400000     32.19500000
H     40.06300000     28.15300000     31.27000000
O     25.18200000     18.79700000     31.47100000
H     25.99700000     18.29400000     31.47700000
H     24.60100000     18.30700000     30.88900000
O     32.67500000     24.45800000     15.65700000
H     32.24700000     25.09200000     16.23100000
H     32.70200000     24.88800000     14.80200000
O     34.72800000     18.62800000     25.90700000
H     34.25300000     19.17800000     26.53100000
H     35.17400000     19.24900000     25.33200000
O     22.65900000     24.37200000     23.70000000
H     22.67300000     23.58800000     24.24900000
H     21.88400000     24.26400000     23.14800000
O     18.82000000     31.65500000     22.36800000
H     18.79300000     32.18200000     21.56900000
H     18.07800000     31.05600000     22.28500000
O     32.59700000     16.10500000     26.25300000
H     32.96000000     15.72500000     25.45300000
H     33.31000000     16.63200000     26.61300000
O     25.05000000     14.68900000     31.73400000
H     24.86100000     14.29700000     32.58600000
H     25.41200000     13.97100000     31.21500000
O     23.70000000     33.38000000     37.96500000
H     23.13100000     32.68300000     38.29200000
H     23.54400000     34.11500000     38.55900000
O     25.57600000     23.72600000     26.46800000
H     24.98700000     23.07100000     26.84200000
H     25.80700000     24.29100000     27.20500000
O     21.18500000     38.32900000     35.16700000
H     22.08200000     38.10000000     34.92500000
H     20.64000000     37.71300000     34.67600000
O     16.04100000     22.28800000     28.21700000
H     15.90700000     22.16600000     29.15700000
H     15.65300000     23.14300000     28.02900000
O     29.50600000     20.91600000     16.21900000
H     28.57800000     20.89700000     16.45200000
H     29.86300000     20.10800000     16.58800000
O     22.77400000     25.23100000     29.28700000
H     22.27900000     24.45200000     29.54000000
H     23.60600000     25.14900000     29.75400000
O     32.54900000     25.35200000     37.86600000
H     33.32800000     25.26200000     37.31800000
H     31.82100000     25.12500000     37.28800000
O     30.15200000     41.85600000     21.74500000
H     30.27900000     41.06000000     21.22900000
H     31.02700000     42.23900000     21.81300000
O     37.41800000     24.49800000     17.52500000
H     36.95900000     24.80000000     16.74100000
H     37.74100000     23.62700000     17.29300000
O     33.84500000     23.59400000     29.44400000
H     34.31700000     23.66400000     30.27400000
H     33.06400000     23.08200000     29.65500000
O     22.89600000     28.91300000     13.38200000
H     23.37100000     28.91500000     12.55100000
H     23.58000000     28.87500000     14.05000000
O     36.67200000     28.16300000     20.05700000
H     37.61100000     28.19900000     19.87500000
H     36.32900000     28.98600000     19.71100000
O     21.11900000     15.78700000     22.35700000
H     21.09300000     14.89800000     22.00400000
H     21.80000000     16.22800000     21.84800000
O     17.23900000     30.66800000     30.18500000
H     17.67600000     31.35000000     29.67600000
H     17.88200000     29.96100000     30.24000000
O     35.36700000     34.12100000     32.96300000
H     34.88300000     33.38600000     33.33900000
H     36.28700000     33.86400000     33.03300000
O     39.14600000     35.35500000     29.78900000
H     38.32800000     35.76600000     30.06900000
H     38.94100000     34.96900000     28.93700000
O     22.30700000     18.52400000     24.87500000
H     22.53400000     18.61900000     23.95000000
H     22.54200000     19.36500000     25.26700000
O     23.84400000     24.72100000     18.56200000
H     24.31600000     25.03500000     19.33400000
H     22.95400000     25.05400000     18.67400000
O     26.36900000     30.88900000     38.25700000
H     26.37600000     30.78100000     39.20800000
H     26.44000000     31.83400000     38.12300000
O     29.45500000     35.47000000     31.34500000
H     30.06000000     36.21200000     31.34700000
H     29.13300000     35.42500000     30.44500000
O     23.43400000     39.73400000     27.72600000
H     22.74000000     40.16300000     28.22500000
H     22.98000000     39.30900000     26.99800000
O     31.19200000     31.02100000     26.49200000
H     31.53700000     30.87900000     27.37400000
H     30.97200000     30.14400000     26.17600000
O     21.51900000     29.93500000     31.98700000
H     22.00400000     29.39400000     32.61000000
H     21.18500000     29.31400000     31.33900000
O     18.55200000     27.10000000     15.83000000
H     19.48800000     27.13500000     16.02500000
H     18.14200000     26.86800000     16.66400000
O     28.52000000     37.12400000     22.51100000
H     27.60100000     37.07700000     22.77500000
H     28.51300000     37.64900000     21.71100000
O     35.57200000     35.10600000     26.98200000
H     35.45300000     35.48600000     26.11100000
H     34.99400000     35.61800000     27.54800000
O     20.48200000     32.23000000     36.54700000
H     20.14900000     32.00900000     35.67700000
H     20.55300000     33.18400000     36.54200000
O     25.07700000     31.75700000     22.23800000
H     25.82400000     31.16700000     22.13500000
H     25.46900000     32.62200000     22.35700000
O     36.04800000     20.38000000     24.46200000
H     36.54600000     20.71000000     23.71500000
H     35.93400000     21.14200000     25.03100000
O     22.97900000     31.93600000     30.58100000
H     23.24700000     32.34800000     31.40200000
H     22.28900000     31.32300000     30.83400000
O     20.29300000     18.01800000     20.31300000
H     21.09900000     18.11300000     20.82100000
H     19.73300000     17.46100000     20.85300000
O     21.76200000     41.20700000     29.39600000
H     20.94800000     41.04700000     29.87300000
H     22.31100000     41.69100000     30.01300000
O     19.31300000     23.62300000     35.76500000
H     19.94500000     24.34100000     35.74500000
H     18.46500000     24.04500000     35.62800000
O     18.77700000     32.33900000     27.97400000
H     19.69500000     32.48500000     28.20200000
H     18.80600000     31.93600000     27.10700000
O     40.73900000     22.97200000     27.96600000
H     40.81900000     23.78900000     28.45800000
H     41.59600000     22.55300000     28.05500000
O     33.77800000     23.56000000     34.57500000
H     32.89800000     23.68800000     34.22000000
H     33.71500000     22.75500000     35.08800000
O     28.25500000     33.40500000     32.79000000
H     28.73800000     34.18700000     32.52200000
H     28.60200000     32.70700000     32.23400000
O     28.83700000     24.33400000     32.39400000
H     28.34500000     23.92300000     33.10500000
H     28.75800000     23.72300000     31.66200000
O     29.03000000     28.13800000     12.41800000
H     28.13200000     27.82100000     12.32200000
H     29.31500000     27.79800000     13.26600000
O     27.30900000     27.40600000     39.37900000
H     27.20200000     27.38000000     40.33000000
H     27.74500000     28.24100000     39.21000000
O     35.93900000     35.75900000     36.68900000
H     36.56500000     35.04600000     36.81900000
H     35.64500000     35.98500000     37.57100000
O     39.23000000     28.91900000     22.91100000
H     39.90100000     29.59200000     22.79500000
H     38.99000000     28.66400000     22.02000000
O     13.52400000     29.87600000     24.08000000
H     14.29200000     30.17100000     23.59200000
H     13.79800000     29.05400000     24.48600000
O     36.60300000     36.75300000     30.22400000
H     35.82900000     36.19100000     30.20700000
H     36.67700000     37.03200000     31.13700000
O     37.65500000     40.33000000     28.64300000
H     37.85900000     40.19200000     29.56800000
H     37.57100000     39.44700000     28.28100000
O     24.83800000     28.46500000     31.96700000
H     25.53500000     29.10700000     31.83300000
H     24.40300000     28.74800000     32.77200000
O     37.59900000     39.91600000     31.81100000
H     36.72600000     39.60500000     32.05200000
H     38.18500000     39.50300000     32.44500000
O     31.26800000     28.44500000     25.58400000
H     31.38300000     28.41000000     24.63400000
H     31.27700000     27.52800000     25.86000000
O     27.84700000     20.18700000     35.35700000
H     28.29900000     19.67200000     36.02600000
H     26.91800000     20.02200000     35.51600000
O     33.34800000     36.04300000     34.03000000
H     33.92700000     35.35100000     33.71100000
H     33.92500000     36.63700000     34.50900000
O     32.74900000     37.56000000     24.73900000
H     32.23800000     37.10800000     25.41000000
H     32.15600000     38.22900000     24.39700000
O     32.45300000     27.04200000     17.44200000
H     31.66900000     27.12700000     17.98400000
H     33.17400000     26.98500000     18.06900000
O     41.98700000     33.30700000     32.78400000
H     41.46200000     33.85800000     33.36600000
H     41.54900000     33.36900000     31.93500000
O     23.56200000     17.83900000     29.65300000
H     22.69900000     18.07700000     29.31400000
H     23.53300000     16.88600000     29.73600000
O     28.16300000     38.77000000     31.63900000
H     27.58800000     38.21800000     31.11000000
H     29.03900000     38.41000000     31.49700000
O     29.24100000     32.15600000     22.86300000
H     29.14600000     32.17000000     23.81600000
H     28.50600000     31.62700000     22.55500000
O     23.20600000     28.57200000     34.29200000
H     22.32400000     28.69100000     34.64400000
H     23.78600000     28.76300000     35.03000000
O     23.67000000     30.41600000     19.15200000
H     23.45900000     31.06200000     19.82600000
H     23.41700000     30.83500000     18.33000000
O     27.64900000     18.17500000     22.38400000
H     27.07100000     18.27400000     23.14100000
H     28.19800000     18.95900000     22.39900000
O     32.26200000     26.81500000     28.24500000
H     31.96200000     26.47500000     27.40200000
H     31.65900000     26.43700000     28.88400000
O     24.66700000     24.50600000     14.53900000
H     23.79500000     24.87400000     14.39400000
H     25.06200000     25.07800000     15.19600000
O     21.49200000     38.11500000     19.96100000
H     21.00700000     37.91100000     19.16200000
H     20.94200000     38.75100000     20.42000000
O     35.15200000     23.86900000     32.19100000
H     34.71700000     23.67100000     33.02000000
H     36.02700000     23.49100000     32.28300000
O     20.26500000     24.62000000     21.76700000
H     20.14900000     25.08600000     22.59500000
H     20.06100000     23.70800000     21.97400000
O     21.38700000     19.22300000     28.83600000
H     20.46600000     19.04000000     28.65000000
H     21.72000000     19.62200000     28.03200000
O     24.49100000     20.27800000     40.48700000
H     24.69300000     20.58000000     39.60200000
H     25.24800000     20.54400000     41.00900000
O     30.59800000     18.28200000     37.75300000
H     30.71400000     17.79500000     38.56900000
H     31.47900000     18.34900000     37.38500000
O     23.00600000     20.37400000     26.63300000
H     23.85700000     20.32900000     27.06900000
H     22.95100000     21.27300000     26.30700000
O     30.69100000     39.68100000     24.71800000
H     29.74600000     39.52900000     24.70300000
H     30.78500000     40.58100000     25.03100000
O     34.02100000     30.53800000     16.66100000
H     33.57900000     30.72900000     17.48800000
H     34.39200000     31.37800000     16.38800000
O     31.35600000     36.39700000     27.10400000
H     30.74400000     36.60200000     26.39700000
H     31.46600000     35.44700000     27.05700000
O     33.80400000     24.47300000     26.75400000
H     33.95800000     25.41200000     26.85300000
H     33.76500000     24.14000000     27.65000000
O     36.75100000     38.50600000     24.30100000
H     35.90800000     38.41800000     24.74600000
H     37.00500000     37.60800000     24.08700000
O     37.10300000     21.64500000     28.75200000
H     36.16900000     21.84600000     28.80700000
H     37.52900000     22.49900000     28.68000000
O     39.51700000     25.48800000     21.18200000
H     39.57300000     25.20700000     20.26900000
H     38.68500000     25.13000000     21.49300000
O     33.63100000     18.23400000     20.35500000
H     33.59000000     17.43800000     19.82500000
H     34.36200000     18.73000000     19.98600000
O     29.78500000     20.48600000     23.57000000
H     29.73800000     20.28900000     24.50500000
H     30.70500000     20.35300000     23.34200000
O     34.66400000     26.40300000     18.89900000
H     35.49900000     26.82500000     19.10100000
H     34.90700000     25.55700000     18.52200000
O     39.54600000     25.89200000     18.48100000
H     38.67900000     25.62900000     18.17100000
H     40.15600000     25.37300000     17.95700000
O     29.00400000     23.23700000     20.52000000
H     29.12900000     23.45800000     19.59700000
H     29.74400000     23.64800000     20.96700000
O     26.45700000     26.58700000     42.20600000
H     25.95000000     26.32200000     42.97300000
H     26.68500000     27.50200000     42.37300000
O     23.81000000     37.40100000     28.98900000
H     23.84600000     38.07500000     28.31000000
H     24.69700000     37.37500000     29.34800000
O     34.08000000     30.03500000     27.25700000
H     34.27200000     30.97100000     27.31700000
H     34.26500000     29.81000000     26.34500000
O     34.10600000     27.15100000     34.94500000
H     34.29200000     26.22400000     34.79700000
H     34.61600000     27.60800000     34.27500000
O     25.47100000     31.57600000     29.70700000
H     24.57200000     31.54000000     30.03300000
H     25.99600000     31.19200000     30.40900000
O     16.29000000     27.54400000     30.49500000
H     15.86200000     28.36000000     30.75300000
H     16.05000000     27.42800000     29.57500000
O     29.41100000     27.04400000     21.00200000
H     28.74100000     26.65100000     21.56000000
H     29.88000000     27.64800000     21.57800000
O     17.56300000     38.74500000     32.18000000
H     18.18800000     38.57300000     31.47500000
H     16.70900000     38.53800000     31.80000000
O     28.97700000     14.87500000     32.22900000
H     29.50900000     14.31400000     31.66500000
H     29.59400000     15.51800000     32.57800000
O     34.32300000     39.31700000     21.40300000
H     33.92200000     39.75100000     22.15600000
H     34.43100000     38.40700000     21.68000000
O     22.90200000     29.68500000     22.70300000
H     23.35700000     30.50300000     22.50300000
H     23.60300000     29.05000000     22.84800000
O     25.78600000     30.52600000     25.08400000
H     25.32700000     29.94500000     24.47700000
H     26.71200000     30.42000000     24.86500000
O     42.33500000     26.68300000     32.59000000
H     41.72100000     27.13400000     33.17000000
H     42.89300000     27.37900000     32.24300000
O     28.14700000     39.41300000     24.51800000
H     27.76500000     39.53400000     23.64900000
H     27.43000000     39.60100000     25.12400000
O     31.62400000     33.80400000     27.56300000
H     31.66500000     33.62300000     28.50200000
H     31.19500000     33.03500000     27.18900000
O     18.56400000     22.12700000     30.76600000
H     18.34300000     21.30800000     30.32300000
H     18.72600000     21.87300000     31.67500000
O     30.39300000     30.85900000     20.27900000
H     29.57600000     30.50500000     19.92800000
H     30.13400000     31.30400000     21.08700000
O     26.06400000     21.69200000     24.65200000
H     26.63300000     21.96000000     23.93100000
H     26.11800000     22.41300000     25.28100000
O     38.89000000     25.14400000     25.06700000
H     38.99800000     24.20500000     25.21700000
H     38.43400000     25.20300000     24.22800000
O     26.01200000     35.34700000     31.72800000
H     26.22100000     35.85600000     32.51100000
H     26.42900000     34.49800000     31.87500000
O     20.34900000     23.94800000     39.80600000
H     20.57800000     23.02900000     39.94100000
H     20.83300000     24.41900000     40.48500000
O     16.11200000     37.03300000     30.31100000
H     16.44500000     36.28200000     30.80200000
H     15.34800000     36.69400000     29.84400000
O     37.09600000     36.98800000     32.94200000
H     37.94400000     37.38700000     33.13500000
H     36.54400000     37.22700000     33.68700000
O     30.66000000     29.44400000     33.19500000
H     30.10700000     28.66700000     33.11400000
H     31.05800000     29.36700000     34.06200000
