1486
J. Chem. Phys. 151, 174104 (2019); https://doi.org/10.1063/1.5121396
C     28.07300000     28.07300000     26.76900000
C     28.07300000     29.26500000     27.45400000
C     28.07300000     29.26700000     28.80400000
C     28.07300000     28.07300000     29.51800000
C     28.07300000     26.87800000     28.80400000
C     28.07300000     26.88000000     27.45400000
H     28.07300000     30.20100000     26.90100000
H     28.07300000     30.20900000     29.34500000
H     28.07300000     25.93600000     29.34500000
H     28.07300000     25.94400000     26.90100000
N     28.07300000     28.07200000     30.83600000
H     28.07300000     27.21500000     31.37700000
H     28.07300000     28.93000000     31.37700000
N     28.07300000     28.07300000     25.35000000
O     28.07300000     29.13700000     24.76800000
O     28.07300000     27.00800000     24.76800000
O     23.60000000     25.81200000     23.85500000
H     23.69300000     26.75700000     23.73100000
H     22.66000000     25.65000000     23.77300000
O     42.04500000     24.72000000     33.81600000
H     41.93900000     24.25100000     32.98900000
H     41.15100000     24.91700000     34.09700000
O     25.42200000     30.26600000     36.71500000
H     25.62300000     31.14700000     36.39900000
H     25.82000000     30.22600000     37.58500000
O     21.85300000     25.88500000     33.50700000
H     21.02600000     26.05700000     33.95700000
H     21.79100000     24.97000000     33.23100000
O     14.15600000     28.49500000     32.37400000
H     14.79000000     28.78600000     31.71800000
H     14.61800000     28.57900000     33.20800000
O     17.47800000     26.53000000     22.29100000
H     16.75500000     26.10700000     21.82800000
H     17.94700000     25.81100000     22.71400000
O     27.42800000     15.12200000     25.12500000
H     27.07100000     15.43900000     24.29600000
H     28.35700000     15.34900000     25.08800000
O     30.46300000     33.80600000     14.05200000
H     31.29900000     33.58400000     13.64100000
H     30.31000000     33.09900000     14.68000000
O     36.83200000     34.94600000     17.70500000
H     36.55500000     35.36700000     18.51900000
H     36.04400000     34.51200000     17.37800000
O     23.90200000     22.21100000     30.73600000
H     24.71600000     21.86300000     31.09800000
H     23.86600000     23.11400000     31.05000000
O     39.11100000     25.01000000     34.32400000
H     39.17500000     24.07100000     34.49800000
H     38.56800000     25.07100000     33.53800000
O     25.69300000     40.89700000     24.31300000
H     25.33400000     40.50500000     23.51700000
H     26.59600000     41.11800000     24.08600000
O     31.15200000     30.27000000     14.28200000
H     32.02700000     30.59700000     14.49100000
H     31.26400000     29.79200000     13.46000000
O     31.85200000     34.81300000     36.11900000
H     31.80800000     34.73800000     37.07300000
H     31.60000000     35.71900000     35.93900000
O     25.84700000     20.15100000     21.91500000
H     25.13800000     20.77800000     21.77300000
H     26.59600000     20.69000000     22.17300000
O     32.76700000     32.49900000     15.56600000
H     32.31500000     31.75900000     15.97100000
H     33.15100000     32.97700000     16.30100000
O     30.54400000     34.21300000     21.41100000
H     30.09200000     35.05400000     21.46800000
H     30.36700000     33.78700000     22.25000000
O     19.80400000     27.07700000     18.64600000
H     19.59200000     27.37300000     19.53100000
H     20.01800000     26.14900000     18.74800000
O     33.20900000     36.29600000     26.34000000
H     33.10300000     35.52800000     25.77900000
H     33.14200000     35.95500000     27.23100000
O     36.86500000     24.05200000     37.36900000
H     37.73600000     24.42200000     37.51500000
H     36.86300000     23.23600000     37.87000000
O     28.45500000     25.64700000     19.37700000
H     28.53100000     25.68000000     18.42400000
H     27.75200000     25.01800000     19.54000000
O     26.37700000     33.00600000     39.78400000
H     26.39200000     33.71500000     39.14100000
H     25.84900000     33.34900000     40.50600000
O     37.46900000     36.46400000     31.11900000
H     37.19600000     35.79400000     30.49300000
H     37.04200000     36.21600000     31.93900000
O     26.86600000     16.19800000     22.16100000
H     26.56700000     16.02100000     21.26900000
H     26.12500000     16.63500000     22.58000000
O     16.81300000     34.00100000     23.63800000
H     17.46500000     33.99100000     22.93700000
H     16.99900000     33.21400000     24.15100000
O     27.50300000     32.72400000     25.03600000
H     26.71800000     32.33900000     24.64600000
H     28.22800000     32.34100000     24.54300000
O     24.59400000     16.50300000     30.66800000
H     25.46000000     16.24600000     30.35100000
H     24.19900000     16.97300000     29.93500000
O     16.57600000     21.04700000     26.41900000
H     16.05200000     21.82800000     26.23900000
H     17.41200000     21.21300000     25.98300000
O     21.71700000     19.26000000     21.77500000
H     21.81500000     18.81300000     20.93500000
H     21.87000000     18.57800000     22.42900000
O     27.61600000     25.54600000     40.21900000
H     27.88000000     25.04500000     40.99100000
H     28.23600000     26.27400000     40.18100000
O     39.37000000     31.69500000     27.84200000
H     39.54600000     31.10700000     27.10800000
H     39.82600000     31.29600000     28.58300000
O     39.72300000     27.91300000     35.50800000
H     39.57600000     27.09700000     35.03000000
H     40.04400000     28.52500000     34.84600000
O     33.42800000     29.10500000     41.34800000
H     33.59100000     28.18400000     41.14500000
H     34.18500000     29.37300000     41.86900000
O     18.29800000     29.48500000     38.48600000
H     18.36700000     30.31600000     38.95500000
H     17.41300000     29.17500000     38.67700000
O     34.84800000     29.50000000     31.82700000
H     34.95700000     28.58700000     32.09400000
H     35.40900000     29.59300000     31.05700000
O     15.61700000     25.30500000     35.07900000
H     16.15600000     24.52500000     34.95200000
H     15.84900000     25.87900000     34.34900000
O     38.52500000     30.55300000     35.60100000
H     38.69300000     30.18100000     34.73500000
H     38.65400000     29.82200000     36.20500000
O     29.73800000     37.46000000     18.84500000
H     29.75600000     38.28100000     18.35200000
H     29.88700000     36.78100000     18.18600000
O     31.80100000     30.52500000     38.02500000
H     32.75500000     30.44700000     38.05200000
H     31.62700000     31.07700000     37.26300000
O     35.07100000     25.23800000     25.63300000
H     35.68800000     24.52600000     25.79900000
H     34.64100000     24.99800000     24.81200000
O     34.21000000     38.51500000     21.17600000
H     35.00100000     38.87200000     20.77100000
H     33.50100000     39.06400000     20.84400000
O     37.34900000     25.71200000     28.28600000
H     37.32600000     25.06900000     27.57800000
H     37.93000000     26.40200000     27.96500000
O     37.18000000     26.15800000     18.65500000
H     36.61500000     25.93500000     17.91500000
H     37.05700000     27.10000000     18.77600000
O     26.52100000     21.90300000     37.49400000
H     26.25400000     21.04400000     37.16700000
H     27.21700000     21.71400000     38.12300000
O     20.50400000     24.73800000     39.55500000
H     20.73400000     25.28500000     38.80400000
H     20.34500000     25.35900000     40.26500000
O     19.81100000     36.43400000     29.25100000
H     19.03000000     36.15900000     28.77100000
H     20.54100000     36.20200000     28.67600000
O     19.22600000     33.21100000     27.50600000
H     19.86700000     33.50200000     28.15500000
H     19.54000000     33.57700000     26.67800000
O     22.97600000     20.05600000     26.77600000
H     22.60200000     20.45000000     27.56400000
H     22.21900000     19.85600000     26.22500000
O     23.18600000     41.07900000     31.88700000
H     22.54800000     41.15100000     32.59700000
H     23.10400000     41.90300000     31.40600000
O     30.69400000     28.34300000     41.49700000
H     30.43300000     28.04000000     40.62700000
H     31.62300000     28.55400000     41.40900000
O     21.91700000     21.84400000     33.03500000
H     21.94800000     22.29600000     32.19200000
H     21.02900000     21.49100000     33.08500000
O     33.01600000     26.22600000     34.81900000
H     33.81200000     26.39400000     35.32200000
H     32.32200000     26.66000000     35.31500000
O     37.43100000     38.94600000     30.34100000
H     37.28500000     38.00100000     30.30400000
H     38.21400000     39.04800000     30.88100000
O     15.25900000     31.82900000     33.15500000
H     15.79200000     31.09900000     33.47200000
H     15.71100000     32.61100000     33.47200000
O     24.54100000     27.83600000     30.32800000
H     24.14300000     27.12000000     29.83400000
H     25.17300000     27.40800000     30.90500000
O     17.57800000     29.91400000     35.36900000
H     17.77200000     30.81200000     35.09900000
H     18.41900000     29.56400000     35.66200000
O     25.27500000     16.93900000     38.33000000
H     26.06900000     16.46900000     38.07600000
H     25.32000000     17.76500000     37.84800000
O     18.89900000     23.51600000     20.98500000
H     19.29600000     22.95200000     21.64900000
H     17.96300000     23.32200000     21.03400000
O     32.40500000     39.60400000     24.45300000
H     32.93700000     40.38500000     24.29500000
H     33.02900000     38.87900000     24.42500000
O     25.73800000     31.36300000     18.27300000
H     25.63900000     31.41100000     17.32200000
H     26.59900000     31.74400000     18.44300000
O     27.62000000     33.50200000     32.53500000
H     28.34200000     33.57800000     31.91000000
H     26.91100000     34.01200000     32.14400000
O     32.28700000     15.56100000     31.31300000
H     32.42700000     15.05400000     30.51400000
H     31.36300000     15.80800000     31.28200000
O     23.75700000     20.06800000     38.50000000
H     23.24900000     20.86800000     38.64000000
H     24.01800000     19.79300000     39.37900000
O     34.45700000     29.16000000     20.79400000
H     34.25100000     28.85800000     19.90900000
H     33.69800000     29.68300000     21.05200000
O     22.59100000     28.44400000     24.72000000
H     22.45400000     29.27500000     24.26500000
H     23.26700000     28.63500000     25.37000000
O     34.45300000     16.97400000     30.68500000
H     33.61500000     16.53100000     30.82400000
H     34.25600000     17.66700000     30.05500000
O     24.42900000     28.08300000     20.93600000
H     23.47200000     28.08100000     20.90400000
H     24.63800000     28.27200000     21.85100000
O     40.12300000     33.47900000     30.54500000
H     40.32800000     34.18000000     31.16300000
H     40.91800000     32.94800000     30.51100000
O     32.13800000     29.99900000     32.72100000
H     31.95800000     29.07100000     32.57400000
H     33.07400000     30.09300000     32.54400000
O     29.55700000     34.20700000     30.32400000
H     30.27300000     33.61000000     30.54300000
H     29.06100000     33.74700000     29.64700000
O     25.40000000     28.66700000     23.39500000
H     25.09500000     28.57500000     24.29700000
H     26.34300000     28.81600000     23.47400000
O     23.99500000     34.40200000     36.95600000
H     24.68800000     34.74300000     37.52200000
H     24.42200000     34.26700000     36.11000000
O     32.14300000     22.35600000     36.69400000
H     31.86100000     21.45000000     36.82200000
H     31.57100000     22.86800000     37.26500000
O     23.76800000     21.08900000     18.18600000
H     24.22500000     21.62400000     18.83500000
H     24.44700000     20.84200000     17.55700000
O     40.44100000     36.51100000     27.82500000
H     40.16200000     35.60600000     27.96500000
H     39.80400000     36.86500000     27.20500000
O     16.09500000     29.94300000     30.35200000
H     16.59000000     30.65400000     30.75900000
H     16.15400000     30.11700000     29.41200000
O     18.12400000     24.31600000     23.93400000
H     18.09600000     23.36800000     24.06100000
H     17.76800000     24.67800000     24.74500000
O     39.49700000     35.03000000     20.67000000
H     38.56000000     34.99300000     20.86300000
H     39.88100000     34.33900000     21.21000000
O     31.63300000     21.10600000     29.29600000
H     31.05100000     21.76100000     28.90900000
H     31.27000000     20.94800000     30.16800000
O     31.99700000     39.51100000     19.99800000
H     31.46600000     39.41000000     19.20800000
H     31.57400000     40.22000000     20.48300000
O     35.08100000     24.48600000     33.46900000
H     35.31800000     23.84700000     34.14100000
H     34.33200000     24.95500000     33.83700000
O     25.61400000     28.77000000     18.65700000
H     25.21700000     28.60900000     19.51300000
H     25.59800000     29.72200000     18.55900000
O     25.03400000     31.24500000     15.62300000
H     25.60500000     31.55900000     14.92100000
H     24.36600000     31.92500000     15.71100000
O     27.47400000     20.73700000     28.10100000
H     27.18700000     20.75800000     29.01400000
H     28.42600000     20.82500000     28.14700000
O     19.22500000     38.95000000     28.41400000
H     19.81400000     38.83800000     27.66700000
H     19.23800000     38.10200000     28.85800000
O     22.59600000     26.15500000     14.01200000
H     22.17400000     26.22400000     14.86800000
H     22.64500000     27.05700000     13.69500000
O     29.72400000     18.92200000     25.38000000
H     30.65600000     18.70900000     25.34300000
H     29.43000000     18.87600000     24.47000000
O     15.23500000     35.01900000     26.00000000
H     15.93500000     34.82800000     25.37500000
H     14.91400000     34.16000000     26.27200000
O     26.79900000     24.70300000     24.21200000
H     26.75600000     25.08800000     23.33700000
H     27.12100000     25.41100000     24.77000000
O     18.08700000     31.32200000     32.11800000
H     18.48700000     31.72100000     32.89100000
H     18.14600000     31.99700000     31.44200000
O     28.09000000     23.51000000     42.12400000
H     27.27400000     23.02500000     42.24700000
H     28.53300000     23.45400000     42.97000000
O     29.99600000     13.75700000     29.93800000
H     30.85300000     13.72400000     30.36100000
H     30.18600000     13.98900000     29.02900000
O     30.75800000     15.85600000     27.34100000
H     31.46800000     15.94600000     26.70500000
H     30.37700000     14.99800000     27.15600000
O     23.42400000     25.89600000     18.82400000
H     23.78800000     26.33500000     19.59200000
H     22.65600000     26.41700000     18.59100000
O     24.46200000     40.29300000     21.99400000
H     24.06800000     41.10100000     21.66400000
H     24.56600000     39.74200000     21.21800000
O     30.49700000     28.16100000     22.98800000
H     30.26000000     27.30200000     22.63900000
H     29.69300000     28.48500000     23.39400000
O     23.61000000     37.16500000     34.17500000
H     23.39100000     37.29100000     33.25200000
H     23.61400000     38.04900000     34.54300000
O     29.06800000     17.79500000     23.04400000
H     29.31700000     18.36600000     22.31700000
H     28.50800000     17.12900000     22.64600000
O     25.69900000     23.09300000     14.79200000
H     25.61200000     23.95600000     14.38600000
H     25.42200000     23.22600000     15.69800000
O     26.80700000     18.42000000     19.87000000
H     26.53800000     18.76300000     20.72200000
H     27.76300000     18.46000000     19.88500000
O     14.95900000     20.41400000     30.18500000
H     15.14300000     21.30600000     30.48000000
H     15.30900000     19.85500000     30.87800000
O     19.15000000     27.20200000     25.09500000
H     19.65900000     26.45700000     24.77600000
H     18.29500000     26.83300000     25.31600000
O     32.85300000     25.69500000     28.51500000
H     32.17900000     25.12700000     28.88800000
H     33.08700000     25.27700000     27.68600000
O     36.68800000     28.24800000     34.32200000
H     36.66100000     27.83000000     35.18300000
H     36.48000000     27.54400000     33.70700000
O     26.39000000     28.62700000     15.84600000
H     26.18400000     28.24700000     16.69900000
H     26.03100000     29.51400000     15.88500000
O     31.54100000     26.16300000     13.30400000
H     32.19100000     26.30500000     12.61600000
H     31.92100000     25.48000000     13.85700000
O     18.60000000     21.98800000     29.72400000
H     19.20900000     22.12000000     28.99700000
H     17.96600000     21.35200000     29.39300000
O     23.01100000     37.66700000     19.39400000
H     22.38000000     38.30900000     19.06800000
H     22.69700000     36.82900000     19.05700000
O     30.94400000     19.99300000     36.73100000
H     30.23600000     19.75300000     37.32900000
H     31.18800000     19.17100000     36.30600000
O     17.68100000     27.29900000     36.72900000
H     18.00600000     28.11500000     37.11200000
H     17.05800000     26.96300000     37.37200000
O     21.52200000     35.22700000     27.62600000
H     21.81400000     35.11600000     26.72200000
H     22.19700000     35.77100000     28.03200000
O     24.90400000     19.04900000     16.68500000
H     24.75100000     18.11200000     16.56200000
H     25.62200000     19.09400000     17.31700000
O     24.05600000     23.93900000     17.00000000
H     24.17000000     24.69700000     17.57400000
H     23.14100000     23.98500000     16.72100000
O     24.46000000     16.98900000     20.17700000
H     25.01200000     17.74400000     19.97400000
H     23.58200000     17.25200000     19.90100000
O     25.94500000     36.06700000     28.09400000
H     26.78500000     36.48100000     27.89800000
H     25.83200000     35.41500000     27.40200000
O     31.23400000     22.81700000     20.31300000
H     30.51000000     22.24200000     20.06800000
H     31.02600000     23.09800000     21.20400000
O     37.08600000     19.16700000     27.37500000
H     36.80400000     18.36800000     27.82200000
H     37.84200000     19.46900000     27.87900000
O     37.07000000     35.88500000     26.96300000
H     36.22800000     35.74700000     27.39700000
H     37.70500000     35.44300000     27.52700000
O     30.48000000     17.27700000     29.67700000
H     30.57500000     16.84800000     28.82600000
H     30.80000000     18.16800000     29.53300000
O     29.22100000     31.56600000     15.60900000
H     29.81800000     31.06300000     15.05500000
H     28.52500000     30.95000000     15.83400000
O     25.69000000     38.55000000     30.44800000
H     25.93800000     38.54000000     29.52400000
H     26.48700000     38.29900000     30.91300000
O     15.23000000     25.78700000     32.20200000
H     16.12200000     26.02200000     32.46100000
H     14.78200000     26.62700000     32.09700000
O     29.50800000     29.34400000     36.92500000
H     28.79600000     29.17100000     37.54100000
H     30.15300000     29.83500000     37.43400000
O     18.36100000     28.59100000     16.66200000
H     18.97800000     28.35100000     17.35200000
H     17.57700000     28.07500000     16.85000000
O     28.06500000     33.96900000     15.99500000
H     27.46600000     34.06400000     15.25400000
H     28.56900000     33.18000000     15.79600000
O     21.67200000     35.71500000     36.02000000
H     22.29400000     35.17000000     36.50100000
H     22.21800000     36.34700000     35.55300000
O     19.93900000     38.55000000     24.37700000
H     20.59800000     38.78100000     23.72300000
H     19.16400000     39.05100000     24.12400000
O     32.99600000     15.34200000     25.98800000
H     32.74500000     14.65700000     25.36900000
H     33.61500000     15.88800000     25.50400000
O     21.88100000     34.91600000     25.00900000
H     21.99300000     33.98900000     25.22000000
H     21.00100000     34.97400000     24.63700000
O     18.86700000     20.70300000     32.69200000
H     18.83200000     20.10200000     31.94800000
H     18.34400000     21.45600000     32.41600000
O     19.52500000     26.59400000     34.73100000
H     19.89900000     27.36000000     35.16600000
H     18.77700000     26.35000000     35.27600000
O     22.73600000     17.49800000     37.10300000
H     22.58100000     18.29000000     37.61700000
H     22.38500000     16.78900000     37.64200000
O     27.26300000     15.72100000     29.38500000
H     26.87000000     15.48800000     28.54300000
H     28.20600000     15.64500000     29.23800000
O     25.64700000     34.39500000     26.07400000
H     26.35900000     33.90800000     25.65900000
H     25.02700000     34.56700000     25.36500000
O     29.67300000     18.73800000     20.49500000
H     29.77300000     19.52100000     19.95400000
H     29.86100000     18.01100000     19.90200000
O     35.65000000     32.78900000     32.84900000
H     35.51900000     32.08700000     33.48700000
H     36.59100000     32.78300000     32.67600000
O     25.56600000     34.98500000     23.50500000
H     25.19800000     35.74800000     23.95100000
H     26.27200000     35.34000000     22.96500000
O     39.94400000     29.58800000     33.11900000
H     39.47200000     30.30700000     32.69900000
H     39.88600000     28.86500000     32.49400000
O     30.93200000     24.06200000     22.99600000
H     30.32900000     24.80600000     22.99500000
H     31.80100000     24.45800000     22.92800000
O     41.35100000     24.11000000     28.82700000
H     41.25300000     25.06000000     28.75300000
H     40.61100000     23.83400000     29.36900000
O     39.93100000     35.76900000     32.33300000
H     39.49200000     36.22100000     31.61200000
H     39.25300000     35.66700000     33.00100000
O     22.18600000     23.57600000     25.97500000
H     22.37200000     22.92700000     25.29700000
H     23.04700000     23.82600000     26.31100000
O     25.09300000     30.14100000     28.99700000
H     25.01400000     29.23700000     29.30000000
H     25.21800000     30.65200000     29.79700000
O     28.71500000     22.19400000     35.69300000
H     28.25700000     22.16400000     36.53300000
H     29.56400000     21.78800000     35.86900000
O     35.29000000     35.17400000     36.22800000
H     35.98500000     35.05600000     36.87500000
H     34.78800000     34.35900000     36.26300000
O     20.46600000     21.46100000     22.41300000
H     21.19000000     21.75600000     22.96500000
H     20.76700000     20.63100000     22.04300000
O     33.46200000     25.41100000     22.85300000
H     33.20800000     26.10000000     23.46600000
H     33.96000000     25.86600000     22.17400000
O     29.40000000     41.74300000     27.54300000
H     29.61400000     42.27400000     26.77700000
H     28.94500000     40.98000000     27.18700000
O     30.24900000     23.89200000     38.12200000
H     29.77700000     23.20200000     38.58900000
H     30.23000000     24.64100000     38.71700000
O     25.81300000     24.47600000     19.48200000
H     26.13600000     24.06100000     18.68200000
H     24.86000000     24.46200000     19.39200000
O     31.43900000     22.25900000     25.51400000
H     31.02200000     22.83800000     24.87600000
H     31.98600000     21.67600000     24.98700000
O     18.54100000     23.93900000     31.84900000
H     17.94200000     24.59000000     31.48300000
H     18.49300000     23.20100000     31.24100000
O     22.25900000     18.87000000     19.08100000
H     22.75400000     19.66000000     18.86300000
H     22.17000000     18.40500000     18.25000000
O     29.89900000     24.02900000     26.80000000
H     30.61500000     23.50300000     26.44100000
H     29.10500000     23.56900000     26.52800000
O     24.44300000     22.94100000     34.29700000
H     24.58700000     22.10400000     34.73700000
H     23.53100000     22.90800000     34.01100000
O     17.11600000     34.46700000     32.57400000
H     17.17900000     34.70400000     33.49900000
H     17.95600000     34.05100000     32.37600000
O     35.30000000     14.80100000     32.16000000
H     34.91600000     15.41400000     31.53300000
H     35.79100000     14.18200000     31.62000000
O     33.33700000     40.22800000     35.33600000
H     33.03900000     40.56700000     34.49100000
H     34.25100000     40.50600000     35.39700000
O     20.60300000     21.40000000     36.39100000
H     21.17100000     21.09600000     35.68400000
H     20.16400000     20.60900000     36.70300000
O     26.18000000     35.64900000     38.12900000
H     26.61500000     35.96900000     37.33800000
H     26.26300000     36.36800000     38.75500000
O     28.95000000     22.41400000     39.74200000
H     28.73800000     22.97100000     40.49100000
H     29.51300000     21.72900000     40.10400000
O     26.40500000     25.55700000     21.84800000
H     26.23400000     25.03900000     21.06200000
H     26.19800000     26.45600000     21.59200000
O     37.15300000     22.61100000     21.78100000
H     37.85600000     22.19000000     21.28700000
H     37.33500000     23.54700000     21.70700000
O     33.87500000     22.20900000     16.61600000
H     34.06900000     21.76700000     15.78900000
H     34.72900000     22.32700000     17.03100000
O     27.16300000     37.70600000     17.01700000
H     26.31300000     37.63000000     16.58200000
H     27.49900000     36.81100000     17.04600000
O     27.28700000     20.67400000     16.13500000
H     26.88400000     21.04000000     15.34700000
H     28.11700000     20.30700000     15.83100000
O     22.10400000     21.27400000     28.94800000
H     21.52200000     22.02700000     28.84800000
H     22.75500000     21.55700000     29.59000000
O     21.59900000     30.11600000     30.65800000
H     21.89400000     30.74800000     30.00300000
H     22.40000000     29.68000000     30.94900000
O     15.35700000     25.63800000     20.80400000
H     15.61500000     25.30500000     19.94400000
H     14.44800000     25.91900000     20.68900000
O     25.63100000     40.02300000     33.65100000
H     24.98000000     39.89300000     34.34100000
H     25.20000000     39.71800000     32.85300000
O     28.13400000     20.16700000     33.33200000
H     28.52800000     19.34300000     33.62100000
H     27.97200000     20.65200000     34.14100000
O     22.00100000     29.08300000     40.87800000
H     22.50700000     29.87300000     40.68900000
H     22.58700000     28.36200000     40.65000000
O     36.97700000     28.89200000     38.24000000
H     37.89700000     28.84100000     38.49900000
H     36.61700000     28.03400000     38.46600000
O     29.09700000     21.30400000     19.64600000
H     28.40200000     21.86900000     19.30900000
H     29.56200000     21.00400000     18.86500000
O     41.77400000     26.76200000     28.60400000
H     42.69300000     26.67600000     28.35100000
H     41.80100000     26.97600000     29.53700000
O     27.64600000     33.20400000     28.45300000
H     26.71400000     33.41300000     28.52000000
H     27.85100000     33.31900000     27.52500000
O     34.68800000     18.23500000     20.59300000
H     35.18000000     17.87900000     21.33300000
H     34.33000000     19.06100000     20.91800000
O     24.76500000     23.34800000     23.13000000
H     24.11000000     24.04000000     23.04700000
H     25.57300000     23.80900000     23.35800000
O     41.58200000     22.84600000     32.00200000
H     41.80600000     22.30300000     31.24600000
H     40.80600000     23.33300000     31.72500000
O     27.89500000     33.24900000     18.65200000
H     28.10400000     33.42200000     17.73400000
H     27.47600000     34.05300000     18.95900000
O     23.03800000     41.39300000     24.76100000
H     23.98700000     41.47500000     24.67200000
H     22.69700000     41.57800000     23.88600000
O     32.48500000     18.37000000     22.62900000
H     32.33300000     17.94800000     21.78300000
H     31.81000000     19.04700000     22.68500000
O     42.26500000     23.61400000     26.40700000
H     41.55600000     24.03300000     25.91900000
H     42.07000000     23.80300000     27.32500000
O     29.40400000     25.96700000     22.09300000
H     28.51600000     25.71700000     22.35000000
H     29.36600000     26.04100000     21.14000000
O     24.17800000     28.45800000     14.76600000
H     25.03100000     28.31500000     15.17600000
H     23.97600000     29.37600000     14.94500000
O     13.91700000     32.12300000     30.20800000
H     14.55600000     31.58000000     30.66900000
H     13.74000000     31.64900000     29.39500000
O     23.47600000     21.12300000     15.03500000
H     24.22400000     20.52900000     15.09900000
H     23.84500000     21.99100000     15.20100000
O     40.34400000     33.18900000     22.79700000
H     41.17900000     33.06600000     23.25000000
H     40.35000000     32.53100000     22.10200000
O     19.11100000     28.41100000     21.45900000
H     18.45100000     28.99300000     21.08100000
H     18.60500000     27.74600000     21.92600000
O     23.27500000     27.51900000     38.81200000
H     22.95000000     28.33700000     38.43600000
H     23.95200000     27.22700000     38.20100000
O     39.13400000     22.19400000     34.48700000
H     38.20400000     22.30900000     34.68500000
H     39.28400000     21.25300000     34.57600000
O     28.64100000     36.86300000     26.84900000
H     29.55900000     37.13400000     26.89100000
H     28.62500000     36.17300000     26.18600000
O     30.18900000     20.22600000     17.51800000
H     29.85400000     20.08500000     16.63300000
H     30.82100000     19.51900000     17.65100000
O     27.97500000     39.63200000     26.57700000
H     27.05300000     39.66900000     26.83000000
H     28.15900000     38.69800000     26.47500000
O     42.27900000     25.80500000     23.16300000
H     41.59500000     25.85900000     23.83100000
H     42.09900000     26.54000000     22.57600000
O     33.47100000     41.60700000     28.47400000
H     34.07500000     41.44700000     29.20000000
H     32.61600000     41.33900000     28.81000000
O     28.73200000     23.12700000     31.09800000
H     28.18200000     22.85800000     31.83400000
H     28.13200000     23.16800000     30.35300000
O     18.91700000     30.30900000     19.00400000
H     18.03300000     30.00400000     19.21200000
H     18.81500000     30.79700000     18.18700000
O     27.89000000     39.17700000     22.52100000
H     28.70100000     38.66900000     22.49100000
H     27.71300000     39.40100000     21.60700000
O     20.42300000     34.11300000     38.52200000
H     19.84000000     34.36700000     39.23800000
H     19.89200000     34.21700000     37.73300000
O     36.38000000     22.74600000     17.44600000
H     36.46500000     23.55700000     16.94400000
H     36.76000000     22.95200000     18.30000000
O     34.51000000     32.67900000     36.38900000
H     33.68500000     32.27500000     36.11800000
H     35.18600000     32.16000000     35.95400000
O     27.53700000     28.67300000     38.62900000
H     27.22000000     29.17500000     39.37900000
H     26.75900000     28.22800000     38.29100000
O     31.53100000     29.92400000     17.44100000
H     31.52200000     30.52800000     18.18500000
H     30.61100000     29.69800000     17.30600000
O     38.37800000     37.48800000     25.00500000
H     38.73800000     37.25600000     24.14900000
H     38.11300000     36.65200000     25.38900000
O     29.72000000     42.65300000     33.92800000
H     29.03200000     42.73200000     33.26800000
H     30.04500000     41.75800000     33.82900000
O     28.20900000     40.57400000     30.95600000
H     28.60500000     39.83300000     30.49700000
H     27.48400000     40.84500000     30.39200000
O     19.96900000     37.62500000     36.76900000
H     20.66900000     36.97200000     36.74800000
H     20.29100000     38.33900000     36.21900000
O     19.98100000     29.17000000     36.47100000
H     20.91100000     29.23700000     36.68800000
H     19.52800000     29.42300000     37.27600000
O     28.52700000     21.72000000     25.25900000
H     29.00300000     21.01300000     25.69500000
H     28.75700000     21.62900000     24.33500000
O     36.51100000     29.04000000     29.57600000
H     35.88700000     28.36000000     29.32100000
H     36.91500000     29.31500000     28.75300000
O     34.72300000     22.66900000     22.97100000
H     35.56400000     22.32800000     22.66600000
H     34.73600000     23.59400000     22.72400000
O     21.33600000     31.76100000     19.17300000
H     20.97600000     31.02400000     18.68000000
H     21.03600000     31.61800000     20.07100000
O     35.20500000     20.11800000     35.92300000
H     35.20800000     19.24700000     36.31900000
H     34.29900000     20.25400000     35.64700000
O     32.32100000     27.37300000     32.27300000
H     32.54800000     26.93800000     33.09500000
H     32.30000000     26.66700000     31.62600000
O     33.32700000     25.80000000     16.55000000
H     32.50900000     26.17800000     16.22700000
H     33.06700000     24.96900000     16.94800000
O     17.60300000     36.01100000     27.79700000
H     16.67200000     36.11700000     27.59900000
H     18.03200000     36.02000000     26.94200000
O     17.39400000     23.03900000     37.64100000
H     18.16500000     23.36600000     37.17700000
H     17.67900000     22.95400000     38.55000000
O     28.03900000     34.60100000     35.06900000
H     28.20900000     34.14600000     34.24500000
H     27.33900000     35.22000000     34.86100000
O     29.81300000     39.89800000     33.02500000
H     29.25800000     40.38000000     32.41100000
H     29.22300000     39.26900000     33.43900000
O     35.41600000     18.54500000     33.14400000
H     35.00400000     17.98600000     32.48500000
H     34.90300000     19.35300000     33.12800000
O     19.59400000     30.31800000     24.85000000
H     20.53400000     30.37100000     24.67500000
H     19.38700000     29.38700000     24.76700000
O     25.80800000     22.60900000     26.12100000
H     26.03000000     21.90000000     26.72600000
H     26.59100000     22.71600000     25.58000000
O     13.68900000     25.25000000     25.22100000
H     13.62500000     26.13800000     25.57200000
H     13.51400000     25.34900000     24.28500000
O     25.87700000     34.82500000     31.01600000
H     24.92800000     34.93200000     30.95500000
H     26.20700000     35.11200000     30.16500000
O     34.82400000     36.04400000     19.72200000
H     34.58600000     36.86100000     20.15900000
H     34.07000000     35.83800000     19.16900000
O     24.64300000     17.46200000     35.29400000
H     24.02000000     17.31400000     36.00500000
H     24.10000000     17.52300000     34.50800000
O     24.61500000     25.03000000     26.25500000
H     24.99400000     24.15800000     26.14500000
H     24.36300000     25.29600000     25.37100000
O     25.04800000     37.72800000     23.46100000
H     25.12000000     38.68300000     23.46300000
H     25.17300000     37.47900000     22.54500000
O     36.89900000     34.92400000     21.52500000
H     36.41900000     34.09600000     21.54100000
H     36.37400000     35.49500000     20.96300000
O     33.20400000     20.71400000     24.10100000
H     33.84100000     21.30200000     23.69400000
H     33.66900000     20.33600000     24.84800000
O     35.17700000     26.58900000     29.76500000
H     35.94000000     26.24100000     29.30300000
H     34.43700000     26.38600000     29.19200000
O     24.06800000     22.28300000     20.74000000
H     23.12200000     22.13700000     20.71500000
H     24.22300000     22.70900000     21.58300000
O     33.38100000     22.79300000     31.48200000
H     33.11400000     23.48800000     32.08500000
H     32.62400000     22.67100000     30.90800000
O     24.34600000     37.70900000     38.32600000
H     24.49700000     38.31200000     39.05300000
H     24.02100000     36.91000000     38.74000000
O     31.19100000     40.85700000     29.77300000
H     30.77500000     40.10600000     30.19600000
H     30.49900000     41.24600000     29.23900000
O     31.52900000     31.23400000     40.93500000
H     32.17600000     30.54200000     40.79400000
H     30.84500000     31.05800000     40.28800000
O     20.51900000     35.65700000     22.25000000
H     20.88400000     36.45300000     22.63700000
H     19.61200000     35.88500000     22.04600000
O     39.28400000     32.81800000     37.03500000
H     40.11000000     32.74100000     36.55700000
H     38.64000000     32.38800000     36.47300000
O     35.15300000     15.86400000     24.43000000
H     34.87200000     15.39000000     23.64800000
H     35.59000000     16.64600000     24.09200000
O     36.57700000     32.18400000     28.31800000
H     37.45300000     31.99600000     27.97900000
H     36.15600000     31.32700000     28.38300000
O     23.71600000     24.88900000     31.34400000
H     23.73900000     25.01500000     30.39500000
H     24.55900000     25.22100000     31.65100000
O     40.25400000     25.36000000     25.22000000
H     39.64800000     24.85800000     24.67500000
H     39.72700000     26.08200000     25.56200000
O     24.92900000     28.74000000     26.27700000
H     25.19000000     29.35000000     26.96700000
H     24.97300000     27.87700000     26.68800000
O     21.96700000     38.74200000     26.36400000
H     21.40700000     38.50300000     25.62600000
H     22.42200000     39.53300000     26.07400000
O     37.51700000     22.17400000     28.82100000
H     37.36900000     21.24000000     28.97400000
H     36.93000000     22.61300000     29.43600000
O     23.83800000     13.70300000     31.33700000
H     24.40700000     14.46000000     31.19800000
H     22.95000000     14.05100000     31.25100000
O     31.40100000     31.88000000     19.46300000
H     30.77400000     32.48100000     19.86600000
H     31.53600000     31.19800000     20.12100000
O     17.35300000     25.45600000     29.46100000
H     16.58900000     26.00700000     29.29100000
H     17.76800000     25.35000000     28.60500000
O     35.23200000     30.53100000     23.03000000
H     35.37800000     29.77300000     22.46300000
H     34.34000000     30.41700000     23.35800000
O     28.78500000     31.18900000     20.76300000
H     28.56600000     30.38300000     20.29500000
H     28.43400000     31.88900000     20.21300000
O     26.81700000     18.71300000     36.04600000
H     26.07500000     18.17700000     35.76600000
H     27.57900000     18.29900000     35.63900000
O     30.29500000     20.55200000     31.66000000
H     29.81600000     21.35100000     31.88100000
H     29.63200000     19.86200000     31.67300000
O     37.27100000     31.40300000     24.77800000
H     37.19300000     32.32700000     25.01500000
H     36.56600000     31.25600000     24.14700000
O     23.48300000     28.44800000     33.20100000
H     23.05300000     27.59800000     33.29600000
H     24.23400000     28.40400000     33.79300000
O     18.89200000     36.21100000     25.33100000
H     19.08400000     37.14400000     25.23900000
H     18.43700000     35.97800000     24.52100000
O     28.85800000     17.57600000     34.86200000
H     29.69400000     17.52600000     35.32600000
H     28.59000000     16.66400000     34.75200000
O     22.37400000     32.38400000     25.81500000
H     22.93700000     31.83200000     25.27300000
H     22.66500000     32.21800000     26.71200000
O     22.23800000     37.41900000     23.37600000
H     22.08600000     36.63400000     23.90300000
H     23.13200000     37.68300000     23.59200000
O     35.48200000     27.98200000     25.52200000
H     35.33700000     27.06100000     25.73800000
H     34.70100000     28.24000000     25.03300000
O     32.24100000     36.87800000     39.45200000
H     31.91700000     37.60400000     39.98700000
H     31.45700000     36.38200000     39.22100000
O     32.76000000     27.78400000     24.47900000
H     32.15900000     28.05600000     23.78500000
H     32.22400000     27.78100000     25.27200000
O     31.95400000     23.72200000     34.30400000
H     32.20700000     23.25300000     35.10000000
H     31.93500000     24.64300000     34.56400000
O     20.84400000     26.34100000     30.92800000
H     21.13600000     26.45600000     31.83300000
H     20.01900000     26.82300000     30.88000000
O     22.65400000     30.87500000     23.35900000
H     23.43700000     31.40200000     23.19600000
H     22.13300000     30.96600000     22.56100000
O     32.13200000     30.08300000     21.59200000
H     31.71000000     29.26000000     21.84000000
H     32.20100000     30.57300000     22.41200000
O     24.19100000     34.82500000     18.35700000
H     24.23300000     34.84700000     17.40100000
H     23.25600000     34.86800000     18.55700000
O     27.28200000     39.02400000     19.77700000
H     27.87200000     38.57700000     19.17000000
H     26.89600000     38.32000000     20.29800000
O     32.76800000     34.56100000     28.55100000
H     32.01400000     34.02700000     28.30100000
H     33.14000000     34.11100000     29.31000000
O     37.15800000     39.00300000     33.74500000
H     36.56700000     38.56800000     33.12900000
H     37.17400000     38.42700000     34.50900000
O     30.97000000     31.78100000     30.81300000
H     30.68400000     31.18700000     31.50700000
H     31.91300000     31.87300000     30.94800000
O     38.72000000     27.90900000     30.79300000
H     38.32700000     27.23400000     31.34600000
H     37.97400000     28.36600000     30.40400000
O     26.74200000     20.67200000     30.84300000
H     27.08700000     20.70500000     31.73500000
H     26.33400000     19.80800000     30.77500000
O     19.26200000     28.82500000     31.15000000
H     18.77000000     29.62000000     31.35300000
H     20.12800000     29.13800000     30.88800000
O     35.49200000     40.58600000     30.82300000
H     35.21200000     39.91100000     31.44300000
H     36.26500000     40.21500000     30.39800000
O     26.87700000     23.80600000     28.96200000
H     26.12700000     23.22700000     28.82300000
H     26.81300000     24.45400000     28.26000000
O     36.67700000     39.03300000     22.81600000
H     37.30200000     38.44600000     23.24200000
H     35.82800000     38.78400000     23.18000000
O     24.45500000     25.70100000     34.62500000
H     23.58300000     25.71600000     34.23100000
H     24.82600000     24.86100000     34.35400000
O     29.86400000     35.56500000     39.44100000
H     29.61500000     36.07000000     38.66700000
H     29.47600000     34.70100000     39.30000000
O     15.66700000     36.97800000     30.07400000
H     16.47200000     36.47900000     29.93300000
H     14.97100000     36.40900000     29.74500000
O     14.52800000     30.70500000     24.27400000
H     15.26300000     30.17100000     23.97400000
H     14.03800000     30.90900000     23.47700000
O     33.48600000     34.04300000     24.62300000
H     34.40300000     33.92000000     24.87000000
H     33.48900000     34.82500000     24.07100000
O     37.70100000     17.56600000     29.56000000
H     37.00000000     17.80100000     30.16800000
H     38.37600000     17.17100000     30.11200000
O     24.18900000     18.35100000     28.41200000
H     23.80500000     19.21100000     28.24400000
H     24.94100000     18.30400000     27.82100000
O     37.45600000     23.88300000     26.45900000
H     37.49300000     23.16600000     27.09100000
H     37.89700000     23.54200000     25.68200000
O     28.51900000     21.16500000     22.38800000
H     28.78600000     21.94100000     21.89600000
H     29.10100000     20.47200000     22.07700000
O     27.63600000     22.96700000     17.73800000
H     28.32500000     23.46500000     17.29600000
H     27.60700000     22.13200000     17.27200000
O     32.59400000     41.11100000     32.94300000
H     32.06300000     40.84800000     32.19100000
H     32.93600000     41.97200000     32.70600000
O     32.50800000     16.53900000     19.59700000
H     33.29000000     17.08100000     19.48300000
H     32.24200000     16.31200000     18.70600000
O     31.55300000     24.17600000     41.13100000
H     31.00100000     23.90700000     41.86500000
H     32.42500000     23.85300000     41.35500000
O     28.39400000     25.60800000     32.47900000
H     28.71800000     24.80700000     32.06500000
H     28.60100000     25.49900000     33.40700000
O     18.10000000     33.34600000     18.92700000
H     17.69800000     34.02800000     18.38900000
H     17.89300000     32.52900000     18.47300000
O     38.68300000     32.70700000     32.88700000
H     38.86400000     32.93900000     31.97600000
H     39.03200000     33.44000000     33.39500000
O     30.23800000     15.49000000     24.44100000
H     29.94600000     16.32700000     24.07900000
H     30.91400000     15.18900000     23.83400000
O     23.10100000     34.64600000     31.28300000
H     23.11200000     35.52800000     30.91000000
H     22.32000000     34.62800000     31.83600000
O     36.26000000     22.88200000     31.27300000
H     35.33100000     23.06600000     31.41100000
H     36.41900000     22.07400000     31.76200000
O     32.05500000     35.55100000     19.34700000
H     31.58000000     34.89800000     19.86100000
H     31.39900000     35.91200000     18.75100000
O     20.64100000     25.01100000     24.13800000
H     19.80600000     24.54400000     24.11600000
H     21.09700000     24.65200000     24.89900000
O     18.63600000     33.35700000     21.65000000
H     18.53000000     33.37300000     20.69900000
H     19.47900000     33.78300000     21.80500000
O     22.82100000     21.58700000     24.13400000
H     22.65900000     20.96700000     24.84500000
H     23.77400000     21.64100000     24.07500000
O     30.75800000     32.44200000     27.88500000
H     30.71200000     32.02400000     28.74500000
H     29.84900000     32.65900000     27.67500000
O     24.00500000     23.33400000     37.30800000
H     24.86300000     22.93100000     37.17400000
H     23.88200000     23.89700000     36.54400000
O     25.27500000     37.25400000     20.74200000
H     24.45500000     37.26800000     20.24900000
H     25.61800000     36.36900000     20.61400000
O     27.22400000     27.01800000     13.56500000
H     26.35000000     26.67200000     13.38300000
H     27.08200000     27.68500000     14.23700000
O     42.19700000     28.21400000     31.06000000
H     41.54200000     27.75200000     31.58300000
H     42.55100000     28.87900000     31.65100000
O     20.19100000     34.08400000     34.07200000
H     20.41400000     34.56400000     33.27400000
H     20.89300000     34.30100000     34.68600000
O     30.45100000     37.50800000     21.79300000
H     31.30900000     37.40200000     22.20400000
H     30.62300000     38.02800000     21.00800000
O     20.71600000     19.82400000     25.21400000
H     20.73700000     18.94300000     24.84100000
H     19.81600000     20.12000000     25.08100000
O     20.65400000     26.29300000     37.29000000
H     21.57100000     26.52700000     37.14600000
H     20.22500000     27.12100000     37.50800000
O     16.45700000     28.79500000     23.56200000
H     17.10500000     29.45500000     23.31400000
H     16.90100000     27.95900000     23.42400000
O     21.83100000     28.38700000     21.17200000
H     20.88500000     28.29900000     21.29100000
H     22.12300000     28.89100000     21.93200000
O     17.12600000     25.37500000     26.43300000
H     16.77300000     24.50300000     26.60900000
H     16.55200000     25.96800000     26.91800000
O     33.98700000     28.39200000     18.13000000
H     34.06000000     27.56900000     17.64600000
H     33.41400000     28.93700000     17.59100000
O     17.51400000     23.59000000     34.18900000
H     17.79400000     23.59600000     33.27400000
H     18.30800000     23.78800000     34.68400000
O     28.97100000     19.43500000     38.80200000
H     29.08700000     19.38200000     39.75100000
H     28.15300000     18.96800000     38.63300000
O     25.20000000     32.37800000     23.07700000
H     25.20000000     32.31400000     22.12200000
H     25.46300000     33.28100000     23.25700000
O     31.34400000     14.96700000     21.53000000
H     31.61600000     15.56300000     20.83100000
H     30.83300000     14.29200000     21.08500000
O     23.14400000     16.97300000     32.81800000
H     23.71400000     16.76800000     32.07700000
H     22.81500000     17.85300000     32.63300000
O     27.79500000     38.71600000     35.54000000
H     27.39600000     39.03800000     34.73200000
H     27.98800000     39.50700000     36.04400000
O     22.27300000     30.78500000     33.65600000
H     21.32900000     30.64600000     33.58400000
H     22.66200000     29.99100000     33.28900000
O     37.27200000     17.84900000     24.64500000
H     36.61100000     18.38300000     24.20400000
H     37.47700000     18.33300000     25.44500000
O     36.39700000     31.53600000     17.07500000
H     36.71800000     30.80900000     17.60800000
H     35.80600000     32.01700000     17.65400000
O     28.65600000     25.16900000     35.28200000
H     29.16100000     24.42400000     35.60700000
H     28.00100000     25.33000000     35.96200000
O     36.02900000     32.22200000     20.97700000
H     35.57800000     31.56500000     21.50800000
H     36.85300000     31.80400000     20.72700000
O     37.13800000     25.16100000     21.13400000
H     37.24300000     25.13600000     20.18300000
H     37.45000000     26.03000000     21.38700000
O     25.80000000     27.50500000     41.93800000
H     25.60600000     26.92700000     41.20000000
H     25.79700000     26.92800000     42.70200000
O     42.51500000     33.89400000     28.56000000
H     42.61700000     33.91400000     29.51100000
H     41.57000000     33.83400000     28.42100000
O     34.04700000     32.98800000     18.28200000
H     33.80300000     33.70700000     18.86500000
H     33.80000000     32.19700000     18.76100000
O     30.73200000     32.96700000     42.67400000
H     31.05000000     32.30900000     42.05600000
H     30.37900000     32.45900000     43.40500000
O     39.18000000     23.56400000     30.41800000
H     38.77900000     24.43100000     30.48000000
H     38.55700000     23.04700000     29.90700000
O     24.24900000     32.43700000     20.52800000
H     23.35400000     32.77500000     20.51000000
H     24.48200000     32.32400000     19.60600000
O     26.94300000     24.83100000     37.48000000
H     27.28900000     24.91000000     38.36900000
H     26.62500000     23.92900000     37.42600000
O     18.18900000     17.61100000     29.22000000
H     18.54200000     16.91600000     28.66500000
H     17.47700000     17.99100000     28.70500000
O     17.45700000     32.01500000     25.51000000
H     17.71500000     32.38800000     26.35300000
H     18.14100000     31.37500000     25.31200000
O     32.74200000     14.37600000     28.95300000
H     33.55600000     14.02900000     28.58900000
H     32.43700000     15.00700000     28.30000000
O     26.04800000     34.57400000     20.28500000
H     25.64700000     33.73100000     20.49800000
H     25.59800000     34.86000000     19.49100000
O     29.35100000     38.39200000     30.00000000
H     29.44900000     38.14200000     29.08100000
H     29.71100000     37.65300000     30.49000000
O     21.32800000     39.85900000     22.19600000
H     21.84800000     40.57300000     21.82800000
H     21.80400000     39.06500000     21.95200000
O     19.49300000     23.97600000     18.54000000
H     19.32400000     23.76900000     19.45900000
H     20.12200000     23.31300000     18.25600000
O     41.04400000     21.19700000     26.81100000
H     40.40600000     21.05100000     27.51000000
H     41.64800000     21.84700000     27.17000000
O     33.44700000     33.53600000     31.22100000
H     33.04300000     34.09700000     31.88200000
H     34.08100000     33.01000000     31.70700000
O     21.05400000     26.35000000     16.09400000
H     20.72300000     26.74700000     16.90000000
H     20.42800000     26.61500000     15.42100000
O     35.65500000     26.49500000     36.44000000
H     36.12100000     25.65900000     36.42000000
H     35.66300000     26.75200000     37.36200000
O     36.26600000     22.45100000     35.16000000
H     36.04300000     21.57700000     35.48000000
H     36.24800000     23.00500000     35.94000000
O     32.62100000     23.83300000     14.69500000
H     33.02100000     23.17200000     14.13100000
H     32.66600000     23.45800000     15.57500000
O     36.96000000     28.88200000     18.04400000
H     37.13200000     28.67300000     17.12600000
H     36.02400000     28.71500000     18.15600000
O     31.78300000     21.07500000     40.17600000
H     32.30700000     21.74600000     39.73800000
H     32.42000000     20.55900000     40.67100000
O     30.70100000     24.11200000     29.39500000
H     30.05300000     23.81500000     30.03400000
H     30.21800000     24.16300000     28.57000000
O     33.23700000     20.89500000     20.78200000
H     32.47400000     21.38900000     20.48400000
H     33.89300000     21.56400000     20.98200000
O     21.53800000     14.96900000     33.93300000
H     22.12000000     15.59700000     33.50600000
H     20.72100000     15.02300000     33.43800000
O     35.19900000     26.52500000     39.14700000
H     34.42000000     25.97900000     39.04500000
H     35.85000000     25.94500000     39.54100000
O     37.92200000     30.06000000     20.42800000
H     38.83400000     30.21700000     20.18300000
H     37.50300000     29.77300000     19.61700000
O     29.72200000     34.81900000     25.20800000
H     29.51800000     34.93500000     24.28000000
H     29.96300000     33.89700000     25.28700000
O     22.57800000     32.20100000     38.03400000
H     23.32800000     32.74000000     37.78200000
H     21.84700000     32.81800000     38.09000000
O     15.06800000     28.88000000     34.80800000
H     15.98000000     29.16300000     34.86700000
H     14.90700000     28.41600000     35.63000000
O     35.59100000     26.92400000     32.33800000
H     35.23300000     26.10900000     32.69000000
H     35.53300000     26.82100000     31.38900000
O     27.22100000     22.87100000     33.32000000
H     27.69500000     22.89900000     34.15000000
H     26.29800000     22.93700000     33.56700000
O     21.85900000     14.57100000     26.15400000
H     22.81200000     14.53900000     26.24200000
H     21.70500000     14.54400000     25.20900000
O     31.86500000     32.19600000     35.68300000
H     31.90900000     33.12800000     35.89600000
H     31.42100000     32.16400000     34.83600000
O     20.67100000     25.82200000     28.02800000
H     21.08400000     26.36400000     28.70000000
H     20.18500000     26.44200000     27.48400000
O     31.65900000     30.03200000     26.39400000
H     31.46300000     30.88400000     26.78500000
H     31.53700000     29.40600000     27.10800000
O     31.04900000     38.18500000     26.58000000
H     31.48300000     39.03300000     26.48800000
H     31.76500000     37.55000000     26.60600000
O     28.23600000     28.84900000     19.42300000
H     27.32500000     28.73900000     19.14900000
H     28.53100000     27.96400000     19.63600000
O     25.41800000     27.00600000     37.23200000
H     25.41100000     27.12000000     36.28200000
H     25.82200000     26.14800000     37.36800000
O     32.15800000     31.54900000     24.10900000
H     32.14600000     31.01400000     24.90200000
H     32.39500000     32.42500000     24.41300000
O     25.86500000     28.88900000     34.50400000
H     26.30700000     29.65400000     34.13500000
H     25.93900000     29.00300000     35.45100000
O     23.33800000     31.25900000     40.38300000
H     23.13500000     31.49000000     39.47700000
H     23.64200000     32.07600000     40.77800000
O     23.09800000     31.83100000     28.45000000
H     23.40400000     32.66000000     28.81700000
H     23.88500000     31.29000000     28.38900000
O     19.88900000     38.13200000     33.29700000
H     20.55700000     38.71900000     33.65000000
H     19.63000000     38.53300000     32.46700000
O     41.54200000     31.23200000     35.31500000
H     40.82400000     30.98000000     34.73400000
H     41.91700000     32.01400000     34.91000000
O     34.47600000     19.43600000     26.02500000
H     35.25400000     19.30500000     26.56700000
H     33.74600000     19.40300000     26.64300000
O     39.42300000     27.42300000     27.21300000
H     39.50200000     28.17000000     26.62000000
H     40.32100000     27.23600000     27.48500000
O     33.35500000     36.31000000     23.02700000
H     34.04500000     36.56200000     23.64000000
H     33.41800000     36.95000000     22.31800000
O     22.56500000     29.70100000     37.02200000
H     22.53600000     30.59600000     37.35900000
H     23.44900000     29.60700000     36.66600000
O     34.72200000     37.45800000     37.95600000
H     33.84100000     37.53300000     38.32400000
H     34.64400000     36.78000000     37.28500000
O     14.56600000     32.55000000     26.15300000
H     13.69600000     32.19200000     26.32600000
H     14.89600000     32.03400000     25.41800000
O     36.38600000     34.42700000     29.74000000
H     36.32600000     33.60700000     29.24900000
H     35.99100000     34.22800000     30.58900000
O     22.04700000     39.36700000     29.06900000
H     21.78000000     38.91000000     28.27200000
H     22.40200000     40.20100000     28.76100000
O     28.75400000     42.49600000     22.39300000
H     28.93100000     41.76500000     22.98500000
H     28.38000000     43.17500000     22.95400000
O     22.92500000     35.48900000     39.56800000
H     22.03600000     35.15400000     39.45100000
H     23.46100000     34.96200000     38.97500000
O     32.52600000     17.56800000     35.44600000
H     32.89800000     16.69300000     35.34000000
H     32.91300000     17.89800000     36.25700000
O     37.90500000     21.11600000     25.09200000
H     38.85100000     20.97300000     25.06300000
H     37.63500000     20.76200000     25.93900000
O     38.99300000     34.31900000     28.30400000
H     38.68100000     34.21100000     29.20200000
H     39.11100000     33.42500000     27.98200000
O     29.05400000     36.17400000     36.95400000
H     28.70700000     35.50600000     36.36200000
H     28.79100000     37.00500000     36.55700000
O     20.45200000     31.00000000     21.63000000
H     19.88900000     31.43600000     22.26800000
H     19.95800000     30.22500000     21.36300000
O     20.21700000     22.95300000     27.85000000
H     20.81200000     23.05700000     27.10700000
H     19.90000000     23.83800000     28.03000000
O     13.31800000     30.20000000     28.31200000
H     13.80400000     29.67100000     27.68000000
H     13.16600000     29.61200000     29.05100000
O     37.69200000     18.44800000     21.22100000
H     37.12000000     19.21500000     21.25100000
H     38.57400000     18.80200000     21.33600000
O     32.01300000     38.00800000     32.39400000
H     31.67300000     37.28300000     31.86900000
H     31.33600000     38.68300000     32.33800000
O     25.46000000     31.47300000     31.29800000
H     24.82100000     31.62400000     31.99400000
H     26.15700000     30.96900000     31.71800000
O     29.69600000     29.84600000     34.11500000
H     29.56100000     29.90900000     35.06100000
H     30.63000000     30.02000000     33.99400000
O     24.30100000     32.55800000     33.91100000
H     23.49200000     32.04800000     33.88700000
H     24.23300000     33.15200000     33.16300000
O     26.38000000     41.43000000     28.86600000
H     25.67000000     40.84700000     28.59700000
H     26.72600000     41.78100000     28.04500000
O     21.00500000     33.33400000     16.36900000
H     20.83100000     33.11600000     17.28500000
H     20.15200000     33.27200000     15.94100000
O     23.34300000     25.40900000     28.72600000
H     23.87000000     25.59900000     27.95000000
H     22.47700000     25.19000000     28.38200000
O     25.87600000     26.21400000     32.20600000
H     26.77800000     25.90200000     32.14100000
H     25.81400000     26.58600000     33.08600000
O     21.64100000     16.76800000     28.03500000
H     21.67000000     16.33900000     27.18000000
H     22.47400000     17.23500000     28.09800000
O     17.72600000     33.10000000     30.11400000
H     18.05300000     33.00200000     29.22000000
H     16.97900000     33.69300000     30.03200000
O     39.38000000     23.19900000     23.91600000
H     38.66700000     22.66000000     23.57400000
H     40.17500000     22.71300000     23.69700000
O     23.03100000     38.24000000     31.79200000
H     23.31200000     39.15400000     31.75700000
H     22.67400000     38.06500000     30.92100000
O     36.87700000     20.90100000     32.98600000
H     36.54200000     21.42500000     33.71400000
H     36.45500000     20.04800000     33.09000000
O     24.56100000     20.55900000     35.58700000
H     25.11200000     19.77600000     35.60400000
H     24.15100000     20.58300000     36.45200000
O     26.44000000     18.61900000     26.43800000
H     26.66300000     19.38500000     26.96700000
H     27.28500000     18.27600000     26.14500000
O     24.00400000     39.49300000     36.03000000
H     23.94600000     38.90500000     36.78300000
H     24.19400000     40.35100000     36.40900000
O     27.43900000     36.46100000     40.79600000
H     28.22000000     36.13000000     40.35300000
H     27.66500000     37.35700000     41.04500000
O     33.75500000     20.59100000     32.92700000
H     33.70600000     21.37000000     32.37300000
H     32.93800000     20.12400000     32.75600000
O     17.64700000     30.79100000     22.01800000
H     17.98700000     31.68300000     21.95300000
H     17.00400000     30.72800000     21.31100000
O     24.81800000     14.69200000     26.11000000
H     25.72300000     14.82400000     25.82700000
H     24.77900000     13.77100000     26.36800000
O     23.69400000     33.51800000     15.73900000
H     23.66800000     33.49900000     14.78200000
H     22.78200000     33.64400000     16.00100000
O     21.62300000     15.47000000     30.56300000
H     21.58300000     16.27300000     31.08300000
H     21.46100000     15.75700000     29.66500000
O     27.01100000     16.50700000     17.99900000
H     27.22300000     15.72700000     18.51300000
H     26.68400000     17.13600000     18.64200000
O     23.76300000     36.79700000     29.65900000
H     24.35800000     36.33700000     29.06700000
H     24.33000000     37.38300000     30.16200000
O     30.05100000     35.65000000     16.90400000
H     29.47500000     35.14200000     16.33200000
H     30.84400000     35.78600000     16.38600000
O     34.84400000     18.36000000     23.45800000
H     33.96500000     18.29700000     23.08400000
H     34.70600000     18.71700000     24.33600000
O     28.27800000     36.16400000     21.54300000
H     28.40900000     35.67700000     20.72900000
H     28.93400000     36.86000000     21.51500000
O     34.89200000     38.04200000     25.31400000
H     34.31100000     37.44700000     25.78800000
H     35.55400000     38.29400000     25.95800000
O     30.49800000     33.52100000     33.60000000
H     30.67400000     34.12300000     34.32300000
H     30.72300000     34.01800000     32.81400000
O     25.79900000     30.32000000     40.06400000
H     24.88700000     30.52000000     40.27200000
H     26.17300000     31.15800000     39.79200000
O     31.88700000     28.22300000     28.65100000
H     31.67500000     28.34100000     29.57700000
H     32.49400000     27.48300000     28.63500000
O     29.58400000     28.08100000     12.87200000
H     28.74000000     27.73800000     13.16800000
H     30.21000000     27.38700000     13.07800000
O     20.84200000     17.24500000     24.00200000
H     21.53600000     16.59200000     23.91800000
H     20.25900000     17.07200000     23.26200000
O     37.38500000     40.10800000     26.11500000
H     37.61700000     39.25900000     25.73800000
H     38.10900000     40.31500000     26.70500000
O     30.95800000     36.32100000     30.14900000
H     30.36400000     35.57300000     30.21500000
H     31.67200000     36.01100000     29.59200000
O     15.47900000     27.48800000     27.36000000
H     15.45800000     28.20000000     27.99900000
H     14.77000000     27.69200000     26.75000000
O     25.58000000     17.98400000     23.55300000
H     25.61600000     18.72800000     22.95200000
H     25.64700000     18.37500000     24.42400000
O     29.52200000     28.35500000     16.16300000
H     29.96900000     28.75100000     15.41600000
H     28.68100000     28.81000000     16.20900000
O     29.66600000     41.00900000     24.63500000
H     29.00200000     40.85400000     25.30800000
H     30.27500000     40.27600000     24.72600000
O     37.80700000     17.40600000     33.91800000
H     36.88700000     17.53200000     33.68600000
H     38.24500000     17.23700000     33.08400000
O     27.56500000     30.67500000     32.79400000
H     27.47800000     31.62800000     32.78900000
H     28.37400000     30.51000000     33.27900000
O     39.04800000     26.19500000     37.42600000
H     39.42000000     26.87400000     36.86400000
H     39.16300000     26.53000000     38.31600000
O     19.77200000     17.75900000     31.36400000
H     19.30900000     17.59000000     30.54300000
H     20.45900000     18.38100000     31.12900000
O     34.47300000     30.41400000     37.75300000
H     35.27000000     29.88400000     37.73700000
H     34.76700000     31.29700000     37.52900000
O     22.41700000     19.38300000     31.96500000
H     22.81600000     19.88400000     31.25400000
H     22.34700000     20.00600000     32.68800000
O     33.05200000     18.74800000     38.14900000
H     33.37600000     18.61100000     39.04000000
H     32.41700000     19.46100000     38.23200000
O     17.69500000     26.88100000     32.59900000
H     18.10300000     27.51400000     32.00800000
H     18.27200000     26.85900000     33.36200000
O     20.17800000     39.68100000     31.11900000
H     20.91700000     39.54200000     30.52700000
H     19.41900000     39.75900000     30.54100000
O     36.36000000     35.83800000     33.50300000
H     36.01900000     36.26100000     34.29100000
H     35.85100000     35.03100000     33.42500000
O     37.65500000     25.87100000     23.98700000
H     37.39900000     24.98300000     23.73700000
H     37.41300000     25.94000000     24.91100000
O     18.15000000     36.85700000     21.55500000
H     17.22200000     36.65800000     21.68000000
H     18.26400000     36.88200000     20.60500000
O     29.60500000     17.37700000     18.15200000
H     30.11300000     17.04700000     17.41100000
H     28.75700000     16.93900000     18.07600000
O     28.30600000     14.93000000     34.88300000
H     28.11800000     14.84800000     33.94800000
H     28.70500000     14.09300000     35.12200000
O     40.34500000     30.27300000     30.04600000
H     40.04400000     29.40900000     29.76200000
H     41.03300000     30.08900000     30.68500000
O     34.08700000     22.42200000     39.30500000
H     34.90600000     22.01200000     39.58200000
H     34.15700000     22.47800000     38.35200000
O     20.63600000     35.86400000     32.02500000
H     20.17400000     36.64900000     32.31800000
H     20.44600000     35.80900000     31.08800000
O     28.32700000     14.79400000     31.91100000
H     28.38800000     15.65000000     31.48700000
H     28.87700000     14.22100000     31.37700000
O     29.92200000     27.31300000     38.94500000
H     29.11900000     27.80400000     38.77400000
H     30.57600000     27.71500000     38.37400000
O     18.03100000     32.62000000     34.80200000
H     17.59400000     33.18900000     35.43500000
H     18.82700000     33.09400000     34.56200000
O     37.09600000     29.67500000     27.09000000
H     37.51000000     30.25700000     26.45300000
H     36.69500000     28.98600000     26.56000000
O     41.22000000     29.26200000     23.35000000
H     42.01300000     28.95000000     23.78500000
H     41.53800000     29.81800000     22.63900000
O     38.15500000     34.38200000     23.87100000
H     37.63000000     34.50600000     23.08100000
H     39.00400000     34.07700000     23.55000000
O     39.56000000     19.90900000     28.86700000
H     39.35100000     20.07200000     29.78700000
H     39.97300000     19.04600000     28.86400000
O     26.07200000     43.29400000     30.74500000
H     25.98600000     42.59300000     30.10000000
H     25.17100000     43.54500000     30.94900000
O     35.91600000     30.95800000     34.98900000
H     35.63800000     30.13800000     34.58100000
H     36.76700000     30.75500000     35.37900000
O     30.66800000     27.03200000     35.91400000
H     30.20300000     27.85100000     36.08400000
H     30.00000000     26.44400000     35.56300000
O     34.00100000     19.38500000     29.49300000
H     34.81700000     19.88700000     29.50800000
H     33.31700000     20.04400000     29.36800000
O     29.40300000     32.18300000     23.24400000
H     30.27800000     31.80100000     23.32100000
H     29.04400000     31.80000000     22.44300000
O     39.50300000     20.41800000     31.56300000
H     39.01600000     19.92900000     32.22600000
H     39.71300000     21.25100000     31.98500000
O     29.00200000     25.62400000     16.76300000
H     29.82900000     25.16100000     16.63300000
H     29.21600000     26.54400000     16.61400000
O     25.27200000     39.30500000     26.84500000
H     25.21400000     39.79500000     26.02500000
H     24.39000000     38.95700000     26.97900000
O     39.19400000     21.41800000     20.36700000
H     39.26600000     20.96600000     19.52600000
H     39.74100000     20.90600000     20.96300000
O     30.12700000     13.25200000     26.28500000
H     29.70900000     13.72900000     25.56800000
H     30.56200000     12.51300000     25.86100000
O     26.87000000     13.02900000     30.86100000
H     26.49600000     12.49600000     31.56300000
H     27.40100000     13.68400000     31.31400000
O     37.54300000     25.14200000     32.04500000
H     36.83200000     25.76300000     32.20100000
H     37.10200000     24.31800000     31.83800000
O     21.33700000     35.49400000     19.14900000
H     20.59100000     35.89600000     18.70300000
H     21.17900000     35.66100000     20.07800000
O     14.89000000     23.71700000     27.23000000
H     14.34300000     23.36700000     27.93300000
H     14.27700000     24.17000000     26.65200000
O     38.68600000     35.05900000     34.67500000
H     37.89800000     35.15000000     35.21100000
H     39.35700000     34.75300000     35.28400000
O     34.74900000     38.05000000     32.10100000
H     33.79400000     38.04700000     32.16500000
H     35.02600000     37.27900000     32.59700000
O     18.34000000     19.21600000     34.98200000
H     18.73800000     19.63600000     34.21900000
H     17.47700000     19.62400000     35.05700000
O     20.99900000     22.24900000     16.68600000
H     20.92400000     21.78000000     15.85500000
H     21.90600000     22.11200000     16.95800000
O     31.63800000     23.88600000     17.84900000
H     31.47600000     24.08200000     18.77100000
H     32.25000000     23.15000000     17.86400000
O     19.54100000     23.89400000     35.98600000
H     20.05400000     24.57900000     36.41500000
H     19.97500000     23.07800000     36.23600000
O     33.07000000     25.03200000     39.08400000
H     32.46200000     24.68600000     38.43000000
H     32.59000000     24.97500000     39.91000000
O     15.56100000     23.19600000     30.21800000
H     15.29300000     23.95100000     30.74100000
H     16.45100000     23.40300000     29.93400000
O     40.79400000     26.45100000     20.89800000
H     40.93900000     25.51100000     21.01200000
H     39.94100000     26.61300000     21.30200000
O     32.00400000     37.72100000     35.32900000
H     32.53900000     38.42200000     35.70200000
H     31.75600000     38.04500000     34.46300000
O     16.49500000     29.01300000     19.50100000
H     15.64200000     29.40000000     19.69800000
H     16.29000000     28.22300000     19.00100000
O     32.97200000     35.45900000     33.34300000
H     32.86400000     36.38500000     33.12500000
H     32.70300000     35.39500000     34.26000000
O     26.10500000     36.55600000     35.42700000
H     25.23400000     36.62500000     35.03700000
H     26.36400000     37.46200000     35.59900000
O     37.82800000     27.63100000     21.63100000
H     37.51100000     27.48900000     22.52300000
H     37.70100000     28.56800000     21.47800000
O     26.15200000     32.68800000     35.73000000
H     25.47100000     32.47600000     35.09100000
H     26.74100000     33.28100000     35.26400000
O     16.14700000     30.57200000     27.74200000
H     15.57300000     31.19000000     27.28900000
H     16.83800000     30.37700000     27.10900000
O     35.94100000     33.53600000     25.88400000
H     36.04400000     33.06900000     26.71300000
H     36.55800000     34.26500000     25.94100000
O     35.97300000     25.31100000     16.45100000
H     35.10400000     25.60200000     16.17500000
H     36.49400000     25.31600000     15.64800000
O     26.70800000     30.14800000     42.66200000
H     26.37100000     30.76000000     42.00800000
H     26.40800000     29.28900000     42.36400000
O     22.22200000     22.33900000     39.18600000
H     21.45500000     22.91000000     39.22300000
H     22.87000000     22.84000000     38.69100000
O     18.28500000     21.57400000     24.21700000
H     19.08700000     21.60900000     23.69700000
H     17.69300000     21.01900000     23.70800000
O     39.62700000     29.96500000     25.50300000
H     38.86500000     30.37700000     25.09600000
H     40.25600000     29.86400000     24.78800000
O     16.26500000     22.70300000     21.93100000
H     15.91100000     23.59200000     21.95100000
H     15.69900000     22.20600000     22.52100000
O     13.33600000     28.64800000     25.89000000
H     12.54200000     28.42500000     25.40300000
H     13.85100000     29.17600000     25.28100000
O     21.18400000     23.55900000     30.91900000
H     20.32100000     23.94700000     31.06600000
H     21.77400000     24.30900000     30.85000000
